2320 4533 s
4533 5620 pcl
5620 6020 p
6020 7143 r
7143 9441 ih
9441 10960 ng
10960 13702 s
13702 14170 tcl
14170 14900 t
14900 15958 r
15958 19000 iy
19000 19480 dx
19480 20850 ih
20850 22558 s
22558 23400 tcl
23400 23800 t
23800 24706 r
24706 26581 ey
26581 27105 f
27105 28166 ah
28166 29420 hh
29420 32250 ey
32250 33903 eh
33903 36180 dcl
