1960 2520 ax-h
2520 3210 kcl
3210 4120 k
4120 4469 w
4469 5848 ih
5848 6475 q
6475 7120 m
7120 7520 ax
7520 8160 n
8160 9200 tcl
9200 10280 pau
10280 10530 b
10530 12390 ey
12390 13820 s
13820 14440 ix
14440 16041 kcl
16041 16510 p
16510 18560 aa
18560 18882 dx
18882 20093 axr
20093 21020 iy
21020 22516 s
22516 23270 tcl
23270 23770 t
23770 24821 ux
24821 25148 dx
25148 26652 iy
26652 28031 ow
28031 28760 ax
28760 29400 kcl
29400 30579 k
30579 31186 w
31186 32040 ix
32040 32584 q
32584 33169 m
33169 33921 ax
33921 34234 n
