1560 2500 hh
2500 3200 eh
3200 3636 l
3636 4242 pcl
4242 5870 s
5870 7060 eh
7060 7770 l
7770 8520 ax
8520 9240 bcl
9240 9440 b
9440 10120 r
10120 10903 ey
10903 12109 q
12109 12657 y
12657 13280 axr
13280 14080 bcl
14080 14560 b
14560 14946 r
14946 16000 ah
16000 16840 dh
16840 18000 axr
18000 19800 s
19800 20320 ax-h
20320 21210 kcl
21210 21681 k
21681 22870 s
22870 26000 eh
26000 28730 s
