2040 2520 dh
2520 3219 ax
3219 4176 bcl
4176 4691 b
4691 5436 l
5436 7143 ux
7143 7560 dcl
7560 8840 jh
8840 11080 ey
11080 13493 f
13493 14175 l
14175 15874 uw
15874 17768 ow
17768 18548 v
18548 19400 axr
19400 20360 dh
20360 21240 ax
21240 22920 hh
22920 25800 ay
25800 26760 bcl
26760 27240 b
27240 28198 ih
28198 29368 l
29368 30454 dcl
30454 30806 d
30806 31606 ix
31606 32746 ng
