2230 2420 dh
2420 4110 ey
4110 5264 v
5264 5521 n
5521 7143 eh
7143 8083 v
8083 9064 axr
9064 10391 m
10391 13160 eh
13160 14496 tcl
14496 15832 pau
15832 16430 y
16430 17219 ix
17219 18085 n
18085 21905 ow
