2240 2924 y
2924 3885 ux
3885 5973 ao
5973 6475 w
6475 7280 ix
7280 8313 z
8313 9060 kcl
9060 9780 k
9780 10600 ah
10600 11240 m
11240 12920 ah
12920 13900 pcl
13900 14480 p
14480 14759 w
14759 15400 ix
15400 16240 th
16240 18180 pcl
18180 18686 p
18686 21000 ae
21000 22430 th
22430 23018 el
23018 23686 l
23686 26480 aa
26480 27060 dcl
27060 28031 jh
28031 28770 kcl
28770 29460 k
29460 30663 el
30663 31400 ix
31400 32041 gcl
32041 32439 g
32439 33500 z
33500 36240 ae
36240 36520 m
36520 37520 pcl
37520 38400 p
38400 39680 el
39680 42190 s
