3600 4261 w
4261 5221 axr
5221 6546 l
6546 8856 ao
8856 10276 s
10276 10890 tcl
10890 11360 t
11360 11989 ax
11989 13352 n
13352 14220 bcl
14220 14510 b
14510 16200 er
16200 16621 nx
16621 17378 ix
17378 18214 ng
18214 19676 ah
19676 20980 pcl
20980 21430 p
21430 22851 ao
22851 24355 r
24355 25483 eh
25483 26193 dcl
26193 26474 d
26474 27370 iy
27370 29520 pau
29520 31680 sh
31680 32542 iy
32542 33500 bcl
33500 33921 b
33921 34800 ih
34800 35160 dx
35160 37514 aw
37514 40330 tcl
40330 41352 t
41352 42286 eh
42286 43050 n
43050 44793 s
44793 46143 l
46143 47091 ix
