2300 2880 dh
2880 4595 iy
4595 5973 ae
5973 7060 v
7060 7561 ax
7561 8563 l
8563 10240 ae
10240 10720 n
10720 10970 tcl
10970 12490 ch
12490 13220 tcl
13220 14860 t
14860 15415 r
15415 16200 ih
16200 16668 gcl
16668 18280 er
18280 18846 dx
18846 19640 ax
19640 20801 m
20801 22840 ay
22840 23400 nx
23400 24851 axr
24851 25290 q
25290 26819 er
26819 27980 th
27980 28560 kcl
28560 29930 k
29930 30420 w
30420 31400 ey
31400 32369 kcl
32369 33127 k
