2317 2729 w
2729 3843 iy
3843 5133 w
5133 6223 eh
6223 6934 l
6934 7800 kcl
7800 8396 k
8396 9023 ax
9023 10610 m
10610 11675 eh
11675 12514 n
12514 13560 iy
13560 14040 n
14040 15456 ux
15456 17211 s
17211 17980 tcl
17980 18590 t
18590 20135 ux
20135 20880 dx
20880 22057 en
22057 22349 t
22349 23728 s
23728 24880 iy
24880 25380 tcl
25380 26870 ch
26870 28574 ih
28574 29934 axr
