2190 2520 dh
2520 3091 ax
3091 4260 hh
4260 6121 ao
6121 6523 nx
6523 7720 ih
7720 8060 dcl
8060 8355 d
8355 9180 hv
9180 11916 aw
11916 13480 s
13480 14306 epi
14306 14788 w
14788 15270 ax
15270 16550 z
16550 17712 ix
17712 19049 hv
19049 21400 ih
21400 23240 tcl
23240 25330 pau
25330 25690 d
25690 27321 ux
27321 27697 dx
27697 29033 uw
29033 31760 aw
31760 32080 tcl
32080 33356 s
33356 33623 tcl
33623 34050 t
34050 35509 eh
35509 36040 n
36040 36920 iy
36920 37890 ng
37890 39680 ao
39680 39929 dx
39929 41984 iy
41984 43365 ow
43365 44660 v
44660 45810 ih
45810 47090 zh
47090 47442 ax
47442 48514 w
48514 49373 ax
49373 49987 l
49987 50927 ax
50927 52780 f
52780 55400 eh
55400 56410 kcl
56410 56775 k
56775 58860 s
