2510 3010 dh
3010 3799 ax
3799 4652 l
4652 6544 ow
6544 6760 kcl
6760 7676 k
7676 8612 el
8612 9150 dcl
9150 10520 d
10520 11164 r
11164 12732 ah
12732 13181 gcl
13181 14316 s
14316 14760 tcl
14760 15355 t
15355 18011 ow
18011 18896 w
18896 19845 ix
19845 20954 s
20954 21511 tcl
21511 22511 ch
22511 25933 ao
25933 27395 zh
27395 27927 w
27927 28735 ix
28735 29467 tcl
29467 29743 q
29743 31442 iy
31442 32439 l
32439 34551 iy
34551 34878 gcl
34878 36010 ax
36010 36827 l
36827 38248 iy
38248 39037 dcl
39037 39345 d
39345 40031 ix
40031 41743 s
41743 42420 pcl
42420 42839 p
42839 44000 eh
44000 44462 n
44462 46110 s
46110 46556 ix
46556 47319 n
47319 47601 tcl
47601 49173 t
49173 49889 r
49889 51062 ae
51062 51396 ng
51396 51770 kcl
51770 52589 k
52589 52846 w
52846 53511 ax
53511 54359 l
54359 57421 ay
57421 58800 z
58800 59441 ax-h
59441 61937 s
