4000 4920 ae
4920 5480 n
5480 6520 ah
6520 8950 f
8950 10000 ih
10000 11878 sh
11878 13080 el
13080 14710 dcl
14710 15080 d
15080 16960 eh
16960 17800 dcl
17800 18128 d
18128 19091 l
19091 22725 ay
22725 23686 n
23686 25460 kcl
25460 26109 k
26109 26706 ix
26706 27860 n
27860 29953 aa
29953 31450 tcl
31450 31780 b
31780 34120 iy
34120 35920 pcl
35920 36860 p
36860 38270 ow
38270 39685 s
39685 41370 tcl
41370 41620 p
41620 43951 ow
43951 45749 n
45749 47200 dcl
47200 47560 d
