2040 2975 q
2975 4052 ay
4052 5347 r
5347 6224 ix
6224 7812 s
7812 8760 th
8760 9787 ih
9787 10505 ng
10505 10710 kcl
10710 11968 s
11968 13142 dh
13142 14280 ih
14280 16421 s
16421 17290 z
17290 20093 ux
20093 21160 hv
21160 22620 eh
22620 23920 z
23920 24438 ax
24438 25310 l
25310 26694 eh
26694 27560 v
27560 29010 en
29010 30760 s
30760 31500 pcl
31500 31790 p
31790 33453 ae
33453 33908 nx
33908 34880 ix
34880 35920 sh
35920 36800 z
36800 39024 iy
39024 39950 bcl
39950 40280 b
40280 41227 r
41227 42330 ix
42330 43920 z
