2200 2514 q
2514 5806 aw
5806 7352 w
7352 8370 iy
8370 10330 s
10330 12825 iy
12825 13302 v
13302 13689 dcl
13689 14161 d
14161 15415 ix
15415 16309 dcl
16309 16850 jh
16850 19300 oy
19300 19634 n
19634 20365 q
20365 21400 ax
21400 22660 pcl
22660 23600 p
23600 25160 oy
25160 25608 n
25608 26151 q
26151 26800 m
26800 27480 ix
27480 28560 n
28560 29994 ix
29994 31420 n
31420 32920 iy
32920 34120 bcl
34120 34380 b
34380 37096 ay
37096 38440 aa
38440 39603 l
39603 40760 ax
40760 41800 dcl
41800 42490 jh
42490 44062 iy
44062 44940 q
44940 46193 eh
46193 47405 n
47405 47864 dh
47864 48920 iy
48920 50160 eh
50160 50657 n
50657 51081 dcl
51081 51870 jh
51870 52720 ix
52720 53200 n
53200 54715 er
54715 55384 ix
55384 55920 ng
55920 56360 dcl
56360 56720 d
56720 57320 ix
57320 58510 pcl
58510 59050 p
59050 60173 aa
60173 60772 r
60772 61730 q
61730 62315 m
62315 63248 ix
63248 63927 n
63927 64660 tcl
64660 67850 s
