2197 3031 n
3031 4840 ah
4840 6410 th
6410 7240 iy
7240 8229 ng
8229 10010 ih
10010 10850 z
10850 13550 ae
13550 14500 z
14500 16120 ah
16120 17660 f
17660 18840 eh
18840 19460 n
19460 20360 s
20360 21080 ix
21080 22040 v
22040 23910 ae
23910 25040 z
25040 26200 ih
26200 27000 n
27000 28000 ix
28000 29520 s
29520 31500 en
31500 33660 s
