1910 2924 n
2924 5720 ow
5720 8814 s
8814 14867 ay
14867 16360 n
16360 19226 z
19226 20552 pau
20552 21138 q
21138 22642 ah
22642 23480 v
23480 24856 dh
24856 31707 iy
31707 35216 z
35216 36381 pau
36381 37263 n
37263 39320 ow
39320 40680 gcl
40680 41376 g
41376 42819 r
42819 45240 ow
45240 46831 s
46831 47691 hh
47691 49560 eh
49560 50520 m
50520 52830 er
52830 53650 dcl
53650 54173 jh
54173 55537 ax
55537 56967 v
56967 58679 l
58679 62063 ah
62063 63582 ng
63582 65050 z
65050 66575 hh
66575 69249 aa
69249 70760 r
70760 73008 tcl
73008 73480 b
73480 74679 r
74679 77562 ey
77562 78279 n
78279 79901 ao
79901 80600 r
80600 82215 sh
82215 83480 tcl
83480 83880 t
83880 85880 ah
85880 86918 m
86918 88120 ix
88120 89800 kcl
89800 90760 k
