2150 2360 dh
2360 3160 ih
3160 4897 s
4897 5470 kcl
5470 6780 k
6780 8280 ih
8280 9280 dcl
9280 9579 d
9579 10800 z
10800 12520 f
12520 13360 r
13360 15040 ow
15040 15860 z
15860 16830 bcl
16830 17040 b
17040 21280 ae
21280 22144 dcl
22144 23118 d
