3240 3920 d
3920 4845 ux
4845 5597 y
5597 6560 ux
6560 8187 hv
8187 10240 ae
10240 11320 v
11320 11880 dh
11880 12973 iy
12973 14245 y
14245 15289 eh
15289 16543 l
16543 18222 ow
18222 20114 q
20114 22000 oy
22000 22373 n
22373 23047 q
23047 23680 m
23680 24539 ix
24539 24995 n
24995 25760 q
25760 27070 r
27070 28378 eh
28378 28880 dx
28880 30120 iy
