2120 2546 w
2546 3400 iy
3400 3960 w
3960 4520 ix
4520 5080 dcl
5080 5430 d
5430 6182 l
6182 8200 ux
8200 9160 z
9160 10652 aa
10652 11404 r
11404 12490 eh
12490 13075 kcl
13075 13409 k
13409 14287 s
14287 15400 pcl
15400 15676 p
15676 17226 ao
17226 17960 r
17960 18729 tcl
18729 19393 m
19393 20637 aa
20637 21480 r
21480 22120 kcl
22120 22684 k
22684 23480 ix
23480 24280 tcl
24280 24689 t
24689 25566 s
25566 26276 ix
26276 27237 n
27237 27880 dcl
27880 28240 d
28240 29206 ax-h
29206 29827 n
29827 32334 ay
32334 33211 aa
33211 34360 r
34360 36200 s
36200 37906 eh
37906 38760 l
38760 39960 z
39960 40898 iy
40898 41565 ih
41565 42071 m
42071 42760 pcl
42760 43522 p
43522 45193 ao
45193 45560 tcl
45560 45840 t
45840 46697 s
46697 47407 epi
47407 47986 w
47986 48520 iy
48520 49287 n
49287 51560 iy
51560 53340 dcl
