2760 3960 ch
3960 5389 ae
5389 6308 l
6308 6851 ax
6851 7440 n
7440 7960 jh
7960 9320 iy
9320 10000 tcl
10000 11160 ch
11160 11960 dcl
11960 12840 jh
12840 13800 eh
13800 14440 n
14440 15080 axr
15080 16440 el
16440 17320 z
17320 18130 ix
18130 18788 n
18788 19320 tcl
19320 20219 t
20219 21360 eh
21360 22000 l
22000 23227 ix
23227 23561 dcl
23561 24760 jh
24760 25631 en
25631 26360 tcl
26360 28532 s
