2040 3480 k
3480 5389 aa
5389 6182 r
6182 9859 l
9859 13247 ih
13247 14161 v
14161 15721 z
15721 16360 ix
16360 17560 n
17560 18280 ax
18280 19560 l
19560 23400 ay
23400 24200 v
24200 25232 l
25232 26151 iy
26151 27640 hv
27640 30575 ow
30575 32381 m
