3340 3693 dh
3693 4219 ax
4219 5361 m
5361 7360 ae
7360 8104 ng
8104 8309 gcl
8309 8591 g
8591 9942 ow
9942 10736 ah
10736 11237 n
11237 11660 dh
11660 12120 ax
12120 12893 pcl
12893 13418 p
13418 14374 ax-h
14374 14920 pcl
14920 15620 p
15620 18364 ay
18364 19230 y
19230 20959 ah
20959 22466 q
22466 23603 aa
23603 24901 r
24901 25480 ix
25480 25880 nx
25880 26600 ax
26600 27880 bcl
27880 28198 b
28198 30453 ow
30453 31640 l
