4303 4790 d
4790 5973 ih
5973 7530 dcl
7530 7890 d
7890 10920 ae
10920 11989 dcl
11989 12260 d
12260 13695 ux
13695 14824 q
14824 16250 ae
16250 17030 kcl
17030 17366 k
17366 17800 ix
17800 18777 dcl
18777 19040 d
19040 20200 eh
20200 20920 m
20920 21880 ih
21880 23979 kcl
23979 24400 b
24400 25840 ih
25840 26320 dx
26320 27440 ih
27440 28647 ng
