2320 3216 y
3216 4280 axr
4280 9067 s
9067 11547 ow
11547 13120 pcl
13120 14110 p
14110 14704 r
14704 16501 iy
16501 18673 aa
18673 19860 kcl
19860 20720 k
20720 21053 y
21053 21480 ix
21480 22860 pcl
22860 23644 p
23644 27594 ay
27594 29107 dcl
29107 29453 dh
29453 31080 eh
31080 32135 q
32135 32674 y
32674 33462 ix
33462 34892 v
34892 36286 l
36286 38360 eh
38360 39628 tcl
39628 40675 y
40675 41880 axr
41880 44073 f
44073 46760 ey
46760 47800 th
47800 48760 gcl
48760 49316 g
49316 50033 r
50033 51720 ow
51720 52940 dcl
52940 53150 d
53150 56299 ih
56299 57720 m
