2200 3120 hh
3120 3873 eh
3873 4280 dx
4280 5160 ih
5160 6060 kcl
6060 6790 k
6790 7895 ih
7895 9240 tcl
9240 10005 m
10005 12058 ae
12058 12762 n
12762 13071 dcl
13071 13321 d
13321 14976 ey
14976 15341 tcl
15341 16501 s
16501 17116 kcl
17116 17694 k
17694 18822 em
18822 19412 pcl
19412 20080 p
20080 21421 l
21421 22973 ay
22973 23454 ix
23454 23768 n
23768 23999 tcl
23999 25264 s
25264 25770 w
25770 26360 ax
26360 27090 dh
27090 28120 ix
28120 28920 gcl
28920 29460 z
29460 30840 ih
30840 32265 s
32265 32561 tcl
32561 33055 t
33055 33671 ix
33671 34536 ng
34536 35533 r
35533 36492 eh
36492 37135 gcl
37135 37410 y
37410 38225 ih
38225 39284 l
39284 41010 ey
41010 42630 sh
42630 42845 epi
42845 43990 en
43990 44660 epi
44660 47150 s
