3080 3800 n
3800 5613 ao
5613 6520 r
6520 7644 w
7644 9483 er
9483 10760 hv
10760 12360 ih
12360 13720 z
13720 14955 m
14955 17378 ae
17378 17712 nx
17712 19800 er
19800 21240 z
21240 22280 bcl
22280 22486 b
22486 23653 aa
23653 24120 r
24120 25560 bcl
25560 25680 b
25680 26986 eh
26986 28407 r
28407 30078 ix
30078 31240 kcl
31240 32543 k
