9080 10280 ih
10280 11404 f
11404 12146 w
12146 13160 iy
13160 14454 l
14454 16760 eh
16760 18280 f
18280 18920 tcl
18920 19480 t
19480 21180 w
21180 22600 ah
22600 23185 n
23185 24271 w
24271 25160 iy
25160 25524 dcl
25524 27446 hv
27446 29256 ae
29256 30036 f
30036 30621 tcl
30621 31122 t
31122 31624 ax
31624 33336 w
33336 35160 ay
35160 36120 pcl
36120 36400 p
36400 36929 ix
36929 37514 q
37514 39720 f
39720 40600 axr
40600 42360 f
42360 43571 iy
43571 44407 ng
44407 44992 gcl
44992 45320 g
45320 46200 er
46200 47240 pcl
47240 48647 p
48647 49274 r
49274 50527 ih
50527 50789 n
50789 52600 tcl
52600 57160 s
