2040 2680 dh
2680 3560 ax
3560 5513 s
5513 6453 pcl
6453 6642 p
6642 7895 iy
7895 8104 tcl
8104 9524 ch
9524 10760 s
10760 11321 ix
11321 12440 m
12440 13160 pcl
13160 14537 p
14537 16835 ow
16835 18297 z
18297 19509 iy
19509 20261 ah
20261 22182 m
22182 24355 ay
24355 25222 tcl
25222 26199 bcl
26199 26344 b
26344 27028 iy
27028 28056 gcl
28056 28449 g
28449 30120 ih
30120 31665 n
31665 32668 m
32668 34005 ah
34005 35133 n
35133 35801 dcl
35801 36018 d
36018 39268 ey
