2440 2950 hh
2950 4350 iy
4350 5600 s
5600 6200 tcl
6200 6760 t
6760 8467 eh
8467 9320 r
9320 9800 dx
9800 10760 ih
10760 11540 tcl
11540 11990 dh
11990 12600 ax
12600 14350 f
14350 16125 aa
16125 17211 r
17211 18760 m
18760 20010 ao
20010 20721 r
20721 21138 nx
21138 22057 iy
22057 22935 ng
22935 23960 iy
23960 24930 kcl
24930 25316 k
25316 26040 s
26040 26659 pcl
26659 26877 p
26877 28440 eh
28440 29359 kcl
29359 29872 t
29872 31000 eng
31000 31960 ix
31960 33190 pcl
33190 33840 p
33840 34757 eh
34757 35760 n
35760 36512 ix
36512 37431 l
37431 37932 ax
37932 38851 m
38851 39650 tcl
39650 40270 t
40270 40810 ix
40810 42180 s
42180 42960 epi
42960 43362 w
43362 44198 ix
44198 45033 ng
45033 45880 ix
45880 46760 kcl
46760 48020 k
48020 48880 r
48880 50600 ao
50600 51600 s
51600 52550 dh
52550 53560 ix
53560 54391 hv
54391 55060 axr
55060 56062 r
56062 59040 ay
59040 60323 z
60323 61369 en
