2220 2430 b
2430 5263 ay
5263 6480 ih
6480 7352 ng
7352 8731 ah
8731 10700 th
10700 11571 ah
11571 13075 r
13075 14513 ow
14513 15450 bcl
15450 15720 b
15720 16668 r
16668 17629 eh
17629 18040 dcl
18040 18680 d
18680 19830 hh
19830 22359 ao
22359 23910 r
23910 26392 s
26392 26666 r
26666 26986 ax
26986 28580 kcl
28580 29410 k
29410 30235 w
30235 32000 ay
32000 33518 axr
33518 34774 z
34774 35539 q
35539 36093 ih
36093 36868 n
36868 37530 tcl
37530 38270 t
38270 39943 uw
39943 41140 ih
41140 42997 sh
42997 44078 ix
44078 45678 n
45678 46850 eh
46850 47644 n
47644 48874 eh
48874 49530 kcl
49530 49840 k
49840 50735 s
50735 51600 pcl
51600 52160 p
52160 53040 axr
53040 54680 tcl
54680 55550 t
55550 58970 iy
58970 62140 s
