11120 11738 w
11738 12360 ix
12360 13953 th
13953 14980 dcl
14980 15470 d
15470 16543 r
16543 19080 ao
19080 20857 q
20857 22545 ow
22545 23570 n
23570 23937 l
23937 24689 iy
24689 25570 ix
25570 26710 z
26710 27217 epi
27217 27947 m
27947 28866 ah
28866 29830 tcl
29830 30755 ch
30755 31560 epi
31560 31920 m
31920 33000 ah
33000 33400 nx
33400 34631 iy
34631 35450 ih
35450 36700 z
36700 37093 y
37093 37880 ux
37880 39436 n
39436 43593 iy
43593 44479 dcl
44479 45313 d
