2220 3280 t
3280 5560 aa
5560 7180 dcl
7180 8120 p
8120 8813 l
8813 10200 ey
10200 11906 s
11906 12810 tcl
12810 13890 t
13890 15720 aa
15720 16990 pcl
16990 18170 p
18170 18940 r
18940 20481 ay
20481 22613 ao
22613 23680 axr
23680 24062 dx
24062 25399 iy
25399 26736 ao
26736 27852 ng
27852 28500 gcl
28500 28730 g
28730 29800 eh
29800 30280 dx
30280 31415 ix
31415 32167 ng
32167 32920 hv
32920 34260 ix
34260 35160 z
35160 36520 bcl
36520 36736 b
36736 38840 ay
38840 39760 kcl
39760 40062 k
40062 41980 f
41980 43320 ih
43320 44600 kcl
44600 44950 k
44950 47040 s
47040 47749 tcl
47749 48751 t
