2231 3480 ix
3480 4760 f
4760 5480 dcl
5480 5880 d
5880 7080 ih
7080 8520 s
8520 9315 ax
9315 10600 bcl
10600 10855 b
10855 15080 ey
15080 17208 dcl
17208 19337 pau
19337 19620 dh
19620 20240 axr
20240 21096 r
21096 21880 ix
21880 23080 z
23080 24626 ah
24626 25400 l
25400 26520 q
26520 27320 ix
27320 28783 z
28783 29400 tcl
29400 30621 t
30621 32200 er
32200 33640 m
33640 36720 oy
36720 38349 l
38349 39101 q
39101 39720 ix
39720 40280 n
40280 41960 dcl
41960 42600 d
42600 43640 kcl
43640 45033 k
45033 47237 ey
47237 49534 aa
49534 50600 epi
50600 54120 s
