2120 2631 q
2631 3759 ey
3759 4600 ng
4600 5320 gcl
5320 5861 g
5861 7352 ao
7352 8772 r
8772 9960 ax
9960 11000 kcl
11000 11947 k
11947 14287 ae
14287 14830 tcl
14830 16600 s
16600 18520 axr
18520 21180 f
21180 23185 er
23185 25232 iy
25232 27195 axr
27195 28200 dh
28200 29080 ix
29080 29880 n
29880 31880 s
31880 34440 ay
34440 35718 m
35718 37890 iy
37890 39480 epi
39480 42280 s
