1788 2548 n
2548 4880 aa
4880 5480 n
5480 6266 pcl
6266 7268 p
7268 7880 r
7880 8840 aa
8840 10280 f
10280 10903 ix
10903 12490 q
12490 13953 ao
13953 14537 r
14537 14788 gcl
14788 15400 ix
15400 16040 n
16040 17320 ih
17320 18520 z
18520 20440 ey
20440 22120 sh
22120 23400 en
23400 25399 z
25399 25859 hv
25859 26861 ae
26861 29080 f
29080 29480 r
29480 30280 iy
30280 31000 kcl
31000 31832 k
31832 32360 w
32360 32960 ix
32960 33187 n
33187 35091 tcl
35091 36306 f
36306 37560 ah
37560 38525 n
38525 39394 dcl
39394 40313 r
40313 41720 ey
41720 43240 z
43240 44884 axr
44884 47725 z
