2240 2840 w
2840 3216 ax
3216 3759 n
3759 4420 pcl
4420 5000 p
5000 7018 iy
7018 7770 l
7770 8898 iy
8898 9608 ng
9608 10520 ih
10520 10920 nx
10920 13201 ao
13201 15415 r
15415 16292 ix
16292 17050 n
17050 17830 jh
17830 18680 ix
18680 19080 dx
19080 20120 ix
20120 21520 z
21520 22030 hh
22030 25158 aa
25158 25760 dcl
25760 26400 n
26400 28520 aa
28520 29130 tcl
29130 29660 t
29660 30400 ax-h
30400 31749 s
31749 32720 pcl
32720 33030 p
33030 33833 r
33833 35440 ey
35440 35920 dcl
35920 36790 jh
36790 39930 ux
39930 43890 s
