2520 3142 q
3142 4261 aa
4261 5263 r
5263 6680 pcl
6680 7370 p
7370 8126 l
8126 9640 ae
9640 10223 n
10223 11070 ih
11070 11915 ng
11915 12640 ix
12640 13531 n
13531 15164 s
15164 15620 tcl
15620 16290 t
16290 17169 r
17169 18200 ae
18200 18560 dx
18560 19440 ih
19440 19950 dcl
19950 20400 jh
20400 21514 iy
21514 22670 dcl
22670 22960 d
22960 23547 ix
23547 24579 v
24579 25613 eh
25613 26280 l
26280 26903 ax
26903 28200 q
28200 28721 m
28721 29497 ix
29497 30370 n
30370 31720 tcl
31720 32460 q
32460 33280 eh
33280 34286 m
34286 35640 f
35640 36135 ax
36135 38015 s
38015 40563 ay
40563 42187 s
42187 42848 ix
42848 44686 f
44686 45570 ih
45570 46883 sh
46883 47280 ax
47280 47652 n
47652 48704 q
48704 49616 l
49616 51036 iy
51036 52120 ix
52120 53088 n
53088 53793 y
53793 54918 axr
54918 56010 kcl
56010 56580 k
56580 57520 ah
57520 58112 m
58112 58895 pcl
58895 59215 p
59215 59800 ax
59800 60248 nx
60248 61647 iy
