2161 2577 ih
2577 3133 w
3133 3690 ix
3690 4820 z
4820 5390 ix
5390 6680 s
6680 7000 tcl
7000 7477 t
7477 9065 ao
9065 10109 r
10109 10986 iy
10986 11720 ah
11720 12220 dh
12220 12908 ax
12908 13911 r
13911 15000 ay
15000 15880 n
15880 18125 aa
18125 19930 s
19930 20598 r
20598 21393 ix
21393 23125 s
23125 24340 f
24340 26680 ay
26680 27240 dx
27240 29159 aa
29159 30078 l
30078 31582 ow
31582 32668 v
32668 34464 er
34464 35240 ix
35240 35670 gcl
35670 35910 g
35910 37840 ae
37840 39018 n
