2046 2440 q
2440 3800 eh
3800 4280 dx
4280 5400 ix
5400 6308 kcl
6308 7400 k
7400 9400 ih
9400 12282 tcl
12282 15164 pau
15164 16560 m
16560 19007 ae
19007 20120 n
20120 20713 dcl
20713 20823 d
20823 23352 ey
23352 24120 tcl
24120 24438 t
24438 25720 s
25720 26360 kcl
26360 26903 k
26903 27613 ax
27613 28280 m
28280 29000 pcl
29000 30328 p
30328 31540 l
31540 34339 ay
34339 35049 ix
35049 35640 n
35640 36302 tcl
36302 38099 s
38099 38826 w
38826 40280 ih
40280 42280 th
42280 42778 q
42778 43864 eh
43864 44840 gcl
44840 45120 g
45120 47240 z
47240 48680 ih
48680 50313 s
50313 50898 tcl
50898 51190 t
51190 52443 ix
52443 53321 ng
53321 54280 r
54280 56200 eh
56200 56913 gcl
56913 58000 ix
58000 59044 l
59044 61080 ey
61080 63263 sh
63263 63879 ix
63879 65895 n
65895 68318 z
