2400 3133 ax
3133 5305 s
5305 6600 eh
6600 7400 kcl
7400 7900 k
7900 8320 ix
8320 9280 n
9280 10240 dcl
10240 11530 p
11530 14412 oy
14412 14737 n
14737 15680 tcl
15680 16173 r
16173 16920 ax
16920 17850 kcl
17850 18840 k
18840 19509 w
19509 20929 ay
20929 21951 r
21951 23409 z
23409 24640 m
24640 26778 ao
26778 27822 r
27822 28360 ix
28360 29260 kcl
29260 29493 k
29493 30412 s
30412 31210 tcl
31210 31500 t
31500 32800 eh
32800 33501 n
33501 33850 dcl
33850 34160 d
34160 34754 ix
34754 36360 dcl
36360 37490 k
37490 39560 aa
39560 40480 m
40480 42193 eh
42193 42680 n
42680 44289 tcl
44289 45246 t
