2230 3370 k
3370 4046 r
4046 5400 eh
5400 6950 kcl
6950 7507 t
7507 8898 q
8898 10280 eh
10280 10880 kcl
10880 11154 k
11154 12460 s
12460 12680 ix
12680 13630 kcl
13630 14850 k
14850 15213 y
15213 15940 ux
15940 17671 sh
17671 18709 en
18709 20050 ax
20050 21680 v
21680 22179 m
22179 24522 ay
24522 25040 ix
25040 25780 n
25780 26877 s
26877 27660 tcl
27660 28120 t
28120 28586 r
28586 29520 ah
29520 30203 kcl
30203 31626 sh
31626 33100 en
33100 34297 z
34297 35368 ix
35368 36864 z
36864 37730 kcl
37730 39130 k
39130 39553 r
39553 40400 ux
40400 42180 sh
42180 43800 el
