2160 2464 q
2464 3480 ow
3480 5040 pcl
5040 5570 p
5570 7160 ey
7160 8640 kcl
8640 9691 k
9691 11195 ae
11195 11536 n
11536 12240 tcl
12240 13105 t
13105 13451 ax-h
13451 14078 l
14078 16125 ow
16125 19040 pcl
19040 19840 ax
19840 20538 n
20538 21150 tcl
21150 22490 t
22490 22760 r
22760 23477 eh
23477 24146 n
24146 25240 s
25240 26240 pcl
26240 26950 p
26950 28556 er
28556 29360 ix
29360 29744 n
29744 31600 tcl
31600 32213 w
32213 33440 uh
33440 35640 dcl
35640 35990 b
35990 36980 r
36980 38960 aw
38960 39957 n
39957 40918 w
40918 41960 axr
41960 43266 y
43266 46140 ux
46140 47570 z
47570 48354 dcl
48354 48688 d
