2798 3641 n
3641 5096 ah
5096 6516 tcl
6516 6809 th
6809 7603 ix
7603 8689 n
8689 10610 ih
10610 11864 z
11864 14955 ae
14955 16292 z
16292 18088 pau
18088 18966 ax
18966 21096 f
21096 23185 eh
23185 23453 n
23453 25457 s
25457 26861 ix
26861 27697 v
27697 30412 pau
30412 31832 eh
31832 33253 z
33253 34217 q
34217 35676 ih
35676 36261 n
36261 37263 ax
37263 39227 s
39227 41190 en
41190 42861 s
