2120 4428 s
4428 6015 ow
6015 6880 w
6880 7720 uh
7720 8324 dcl
8324 8731 d
8731 10466 r
10466 12120 ey
12120 12520 dx
12520 14866 aa
14866 16040 r
16040 17640 pcl
17640 18440 p
18440 19160 ih
19160 19640 kcl
19640 20177 k
20177 21000 ix
21000 21640 tcl
21640 24280 sh
24280 25640 ih
25640 27240 pcl
27240 30579 s
