2360 4200 p
4200 4933 y
4933 6800 er
6800 8440 ey
8440 10120 s
10120 11237 ah
11237 11697 m
11697 14600 f
14600 15266 r
15266 16600 ux
16600 18120 tcl
18120 18240 b
18240 19000 ax
19000 20920 f
20920 21986 ao
21986 22520 r
22520 23560 pcl
23560 24040 p
24040 24760 axr
24760 26040 pcl
26040 26840 p
26840 28156 eh
28156 29033 r
29033 29911 ix
29911 30704 ng
30704 30985 dh
30985 31880 ix
31880 33629 s
33629 34255 kcl
34255 34920 k
34920 35746 y
35746 37400 uw
37400 39240 axr
39240 41880 z
