2270 2830 dh
2830 4135 ey
4135 5720 ao
5720 7190 f
7190 7960 ix
7960 8640 dcl
8640 9200 n
9200 11520 ow
11520 12640 pcl
12640 13470 p
13470 14245 ih
14245 15280 n
15280 15874 y
15874 16800 ih
16800 17854 n
17854 18703 dcl
18703 19120 d
19120 20540 z
20540 21305 pau
21305 22224 v
22224 23561 ao
23561 24647 l
24647 25712 ax
25712 26401 n
26401 27000 tcl
27000 28280 t
28280 29451 ih
29451 30040 r
30040 31000 dcl
31000 31720 n
31720 33320 ah
33320 34750 th
34750 35760 iy
35760 36640 ng
36640 41300 pau
41300 41570 b
41570 42440 iy
42440 43440 tcl
43440 44960 t
44960 45666 r
45666 47080 ey
47080 48294 dcl
48294 48833 n
48833 51160 ow
51160 52200 em
52200 54280 ow
54280 55780 sh
55780 56560 en
56560 58120 dcl
58120 60330 z
