9720 10456 q
10456 11655 aa
11655 12574 r
12574 13744 w
13744 16000 iy
16000 17420 ih
17420 19747 s
19747 22684 ey
22684 24250 f
24250 25650 ih
25650 26945 z
26945 27471 epi
27471 28279 w
28279 30663 iy
30663 32733 sh
32733 34509 uh
34509 35920 dcl
35920 36254 b
36254 38789 iy
38789 40740 f
40740 41400 r
41400 42720 ah
42720 43947 m
43947 44192 epi
44192 45853 s
45853 47109 ah
47109 47687 tcl
47687 48751 ch
48751 49405 ix
49405 49931 dcl
49931 50120 d
50120 51072 ix
51072 52390 z
52390 55080 ae
55080 55908 s
55908 56400 tcl
56400 57070 t
57070 58520 axr
