4160 4572 r
4572 5495 ih
5495 6764 m
6764 8662 uw
8662 9315 v
9315 10090 dh
10090 11030 ih
11030 12660 s
12660 13628 pcl
13628 13911 p
13911 14454 l
14454 15520 eh
15520 16077 n
16077 16891 tcl
16891 17385 t
17385 19456 er
19456 20572 w
20572 21640 ih
21640 22940 th
22940 25080 ey
25080 26280 pcl
26280 26880 p
26880 27785 eh
27785 28776 r
28776 29520 axr
29520 30254 v
30254 30838 tcl
30838 31516 t
31516 32202 epi
32202 32870 w
32870 34171 iy
34171 34850 z
34850 36840 axr
36840 39060 z
