2381 2924 ix
2924 3509 n
3509 3800 dh
3800 4929 ax
4929 6015 l
6015 8640 ay
8640 9023 dx
9023 10200 ix
10200 11446 dcl
11446 12908 pau
12908 13201 q
13201 13577 ix
13577 14328 n
14328 15000 tcl
15000 15999 t
15999 17002 iy
17002 18046 r
18046 19509 ix
19509 20971 axr
20971 22360 hh
22360 23320 iy
23320 25320 s
25320 27720 ao
27720 28200 q
28200 29800 eh
29800 30600 dh
30600 32710 er
32710 34120 pau
34120 34920 m
34920 36680 eh
36680 37160 nx
37160 37960 ix
37960 39352 n
39352 39821 w
39821 40760 ih
40760 41640 m
41640 42763 ix
42763 43560 n
43560 44893 s
44893 45311 tcl
45311 45770 t
45770 46386 r
46386 47400 ah
47400 47859 gcl
47859 48152 g
48152 48786 l
48786 49823 iy
49823 50449 ng
50449 50867 q
50867 51480 ih
51480 52280 n
52280 52789 tcl
52789 53800 t
53800 54600 ux
54600 55240 dh
55240 56423 eh
56423 57342 axr
57342 58637 r
58637 61227 ae
61227 62560 f
62560 65000 s
