1880 2422 dh
2422 4219 ow
4219 5013 z
5013 7603 ae
7603 7937 n
7937 9000 s
9000 10360 axr
10360 11240 z
11240 11947 el
11947 12449 bcl
12449 12657 b
12657 13480 iy
13480 14600 s
14600 15080 tcl
15080 15640 t
15640 16200 r
16200 17320 ey
17320 18255 q
18255 19240 f
19240 21480 ao
21480 22600 axr
22600 23000 dx
23000 24040 ih
24040 25640 f
25640 25960 y
25960 26600 ux
26600 28360 th
28360 29493 iy
29493 30120 ng
30120 31080 kcl
31080 31560 dh
31560 32626 eh
32626 33480 m
33480 35880 th
35880 36786 r
36786 38600 ux
38600 39960 kcl
39960 41080 k
41080 42520 eh
42520 43240 r
43240 44520 f
44520 45657 el
45657 46920 iy
46920 49000 f
49000 51560 er
51560 53427 s
53427 53887 tcl
53887 54920 t
