7853 8826 w
8826 9800 el
9800 11480 s
11480 13744 er
13744 15080 v
15080 15596 r
15596 16626 ux
16626 17462 bcl
17462 17754 b
17754 19226 aa
19226 20040 r
20040 21160 bcl
21160 22440 p
22440 25960 ay
25960 26778 q
26778 27697 eh
27697 28114 f
28114 28920 tcl
28920 29480 t
29480 30280 axr
30280 30840 r
30840 32520 ey
32520 33086 tcl
33086 34088 ch
34088 35320 el
35320 36428 z
36428 36929 tcl
36929 37880 t
37880 40760 aa
40760 41640 kcl
41640 42234 k
