4320 5200 t
5200 6520 iy
6520 6900 tcl
6900 8060 ch
8060 10226 er
10226 11310 ax
11310 13260 s
13260 16200 ay
16200 17295 m
17295 18088 ix
18088 18800 n
18800 19840 tcl
19840 20678 ix
20678 21720 n
21720 23480 ao
23480 24360 r
24360 24760 dx
24760 26040 axr
26040 27240 tcl
27240 28260 t
28260 32360 ux
32360 33610 dcl
33610 33940 d
33940 34930 iy
34930 37280 s
37280 38840 eh
38840 39450 gcl
39450 40030 g
40030 40600 axr
40600 41690 gcl
41690 42040 g
42040 44600 ey
44600 46200 tcl
