2327 2815 q
2815 3430 aa
3430 3751 r
3751 4590 hh
4590 6349 aa
6349 7185 l
7185 7840 ax
7840 8640 dcl
8640 8960 d
8960 10694 ey
10694 11571 y
11571 13040 ey
13040 14200 pcl
14200 14600 p
14600 15606 axr
15606 16543 n
16543 17830 z
17830 18600 ax
18600 19926 v
19926 21556 eh
21556 22642 l
22642 23320 ax
23320 24120 bcl
24120 24320 b
24320 25400 el
25400 26120 tcl
26120 27571 t
27571 28866 uw
28866 30920 ah
30920 33530 s
