2040 2674 q
2674 3801 ay
3801 4950 ix
4950 6980 s
6980 8313 ux
8313 9817 m
9817 12000 oy
12000 13280 sh
13280 13770 tcl
13770 14430 ch
14430 15853 er
15853 17002 w
17002 18200 el
18200 19100 dcl
19100 19410 d
19410 21720 ae
21720 22600 m
22600 23363 ix
23363 24017 dcl
24017 25441 jh
25441 26610 dh
26610 27810 ih
27810 30260 sh
30260 31633 ih
31633 32230 pcl
32230 32552 p
32552 33840 s
33840 34600 hh
34600 36219 ah
36219 37800 l
