2114 2620 ax-h
2620 4106 s
4106 4638 kcl
4638 5210 k
5210 6600 ux
6600 7210 dcl
7210 7750 d
7750 8480 r
8480 10778 ay
10778 11446 v
11446 12741 er
12741 13409 ix
13409 14500 z
14500 14822 epi
14822 15746 m
15746 17360 ey
17360 17920 dcl
17920 19040 f
19040 20010 em
20010 21848 v
21848 24020 aa
24020 25132 dcl
25132 25850 k
25850 27160 eh
27160 27780 n
27780 29666 ao
29666 30600 r
30600 31800 n
31800 32850 zh
32850 33490 dcl
33490 34030 jh
34030 35968 ux
35968 39490 s
