2600 2840 dh
2840 3640 ih
3640 5430 s
5430 6093 w
6093 6976 ah
6976 7644 n
7644 8000 kcl
8000 8920 k
8920 10480 ey
10480 11404 m
11404 12114 ax
12114 12680 bcl
12680 13160 b
13160 14537 ih
14537 16334 hv
16334 19658 ay
19658 21320 ix
21320 22840 tcl
22840 23160 th
23160 24355 er
24355 25120 dx
25120 26200 iy
26200 27720 th
27720 30760 aw
30760 31640 z
31640 32480 ix
32480 32640 nx
32640 34046 axr
34046 35926 m
35926 37932 ao
37932 38934 r
