2280 2600 dh
2600 3400 ax
3400 5560 s
5560 7394 er
7394 8355 m
8355 9190 ix
9190 9942 n
9942 10861 q
10861 11864 eh
11864 12600 m
12600 13640 f
13640 14200 ax
14200 15880 s
15880 19480 ay
19480 20261 z
20261 20760 dcl
20760 21320 dh
21320 21880 ix
21880 23000 n
23000 25232 iy
25232 25691 dcl
25691 26151 d
26151 27560 f
27560 28783 ao
28783 29033 r
29033 29880 ax
29880 31480 f
31480 32584 er
32584 33400 m
33400 34400 ax
34400 34640 dx
34640 35640 ih
35640 36360 v
36360 39101 ae
39101 39800 kcl
39800 41483 sh
41483 42569 ix
42569 44120 n
