2250 3051 dh
3051 3800 ax
3800 5122 w
5122 6760 aa
6760 7160 dx
7160 8107 axr
8107 9020 kcl
9020 9930 k
9930 10397 ix
10397 11282 n
11282 11920 tcl
11920 12630 t
12630 14302 ey
14302 15309 n
15309 16139 dcl
16139 17170 t
17170 17800 ux
17800 19174 m
19174 20290 ah
20290 20980 tcl
20980 22057 ch
22057 23220 kcl
23220 24410 k
24410 25039 l
25039 26151 ao
26151 27664 r
27664 29166 iy
29166 30007 n
30007 30968 ix
30968 31958 n
31958 32360 epi
32360 33754 s
33754 34510 tcl
34510 34790 t
34790 36031 ah
36031 36840 ng
36840 38015 hv
38015 39227 ix
39227 40420 z
40420 45000 ay
45000 46610 z
