2320 2799 dh
2799 3465 ix
3465 5272 s
5272 6590 pcl
6590 6780 p
6780 8425 iy
8425 8879 tcl
8879 10527 ch
10527 11775 s
11775 12143 ix
12143 13235 m
13235 13760 pcl
13760 14590 p
14590 17963 ow
17963 19561 z
19561 20039 y
20039 21096 ix
21096 23436 m
23436 25277 ay
25277 26302 q
26302 27802 bcl
27802 28150 b
28150 28840 iy
28840 29760 gcl
29760 30200 g
30200 31960 ih
31960 32879 n
32879 33963 m
33963 35640 ah
35640 36906 n
36906 37136 dcl
37136 37316 d
37316 40299 ey
