2252 2966 m
2966 3634 ix
3634 5263 s
5263 6015 kcl
6015 6600 k
6600 7880 iy
7880 8280 dx
8280 10600 ow
10600 11880 z
11880 12699 q
12699 13400 ih
13400 14280 gcl
14280 14720 g
14720 16440 z
16440 18520 ih
18520 19801 s
19801 20386 tcl
20386 21096 t
21096 22433 ih
22433 23185 n
23185 24229 ax
24229 25942 w
25942 28476 ao
28476 29744 r
29744 31180 m
31180 33086 hh
33086 34066 y
34066 35560 uw
35560 36200 m
36200 37800 ih
37800 38280 dcl
38280 38920 d
38920 39720 kcl
39720 41194 k
41194 42196 l
42196 44201 ay
44201 45246 m
45246 46360 ax
46360 47711 tcl
47711 48128 t
48128 50520 s
