2005 2417 m
2417 4440 ey
4440 5054 bcl
5054 6280 iy
6280 7060 dh
7060 9274 ey
9274 10610 aa
10610 11906 r
11906 13080 axr
13080 13800 dx
13800 14840 iy
14840 15460 gcl
15460 15800 g
15800 18440 aa
18440 18800 dx
18800 19892 ax
19892 21130 m
