1963 2339 dh
2339 2798 ax
2798 4010 bcl
4010 4382 b
4382 4801 r
4801 5639 ih
5639 7143 s
7143 8020 el
8020 9441 z
9441 10416 aa
10416 10903 r
10903 12616 s
12616 14704 ao
14704 15373 f
15373 15791 tcl
15791 16375 t
16375 16793 ix
16793 17503 n
17503 18840 ah
18840 20010 f
20010 20637 tcl
20637 21138 t
21138 21681 ix
21681 22684 m
22684 23436 ax
23436 25232 s
25232 27446 aa
27446 28657 zh
28657 29284 dh
29284 29953 ix
29953 30830 gcl
30830 31206 g
31206 33253 ah
33253 34422 m
34422 35425 z
35425 36511 ix
36511 37765 n
37765 39603 aa
39603 40480 tcl
40480 41608 s
41608 42276 kcl
42276 42736 k
42736 43232 r
43232 44225 ae
44225 44601 tcl
44601 45980 ch
45980 46774 dh
46774 47734 iy
47734 48403 ix
48403 49071 n
49071 51160 ae
51160 52163 m
52163 52998 el
