1654 2320 n
2320 4080 ow
4080 5322 kcl
5322 6796 k
6796 7277 w
7277 8489 eh
8489 10060 sh
10060 10430 tcl
10430 11192 ch
11192 11840 ix
11840 14295 n
14295 14763 v
14763 15199 r
15199 16668 ah
16668 18540 f
18540 20219 el
20219 22000 z
22000 23170 hh
23170 25080 ih
25080 26461 m
26461 28574 q
28574 29577 ow
29577 30600 ax
30600 31960 kcl
31960 32980 k
32980 35467 ao
35467 36950 s
36950 38140 ix
38140 39520 s
39520 40914 hv
40914 42324 ih
42324 44587 m
44587 46130 tcl
46130 47420 t
47420 48559 ux
48559 50104 hv
50104 51300 eh
51300 52680 z
52680 53320 ix
53320 54680 tcl
54680 55430 t
55430 58332 ey
58332 58961 tcl
