2340 2530 dh
2530 4279 ey
4279 5240 r
5240 6558 iy
6558 8139 m
8139 10779 ey
10779 11998 n
11998 12222 dcl
12222 12536 d
12536 13960 epi
13960 15228 l
15228 17671 ay
17671 20630 f
20630 21347 l
21347 22400 ah
22400 23527 ng
23527 24040 epi
24040 26026 f
26026 27060 r
27060 28407 eh
28407 30106 n
30106 30459 dcl
30459 31880 z
31880 33410 q
33410 34224 ae
34224 35129 n
35129 35980 kcl
35980 36658 k
36658 37889 em
37889 39000 pcl
39000 39941 p
39941 41969 ae
41969 42928 n
42928 43370 y
43370 44470 ix
44470 45382 n
45382 46120 tcl
46120 48174 s
