2200 2526 m
2526 3800 ey
3800 4450 kcl
4450 4970 k
4970 6140 ey
6140 7310 pcl
7310 7730 p
7730 9880 ey
9880 10640 s
10640 10880 tcl
10880 11320 t
11320 12073 ax
12073 12616 v
12616 13550 bcl
13550 13950 b
13950 14746 r
14746 17086 aw
17086 18088 n
18088 19590 sh
19590 20920 uh
20920 21500 gcl
21500 23519 axr
23519 24440 ix
24440 25232 n
25232 26520 m
26520 28290 ah
28290 28800 s
28800 29200 tcl
29200 29640 t
29640 31122 axr
31122 31707 dx
31707 32640 ix
32640 33460 n
33460 34280 s
34280 35000 pcl
35000 35330 p
35330 35860 r
35860 36920 eh
36920 37389 dx
37389 38920 l
38920 40520 ay
40520 41269 l
41269 42857 ih
42857 44160 ow
44160 45120 v
45120 46190 axr
46190 47720 s
47720 48410 kcl
48410 48960 k
48960 50813 ao
50813 51800 r
51800 52800 dcl
52800 54310 s
54310 56360 er
56360 57920 f
57920 58710 ax-h
58710 60720 s
