2080 2570 w
2570 3550 axr
3550 4511 y
4511 6057 ux
6057 6892 ix
6892 7644 n
7644 8438 l
8438 10903 ah
10903 11571 v
11571 11914 w
11914 12600 ax
12600 14190 th
14190 15665 ae
15665 17002 tcl
17002 17200 g
17200 19718 er
19718 21520 el
