2330 3500 k
3500 5240 aa
5240 5723 q
5723 6720 n
6720 8229 eh
8229 8522 nx
8522 9859 el
9859 11020 dcl
11020 11300 d
11300 12560 r
12560 15080 ih
15080 15960 f
15960 16640 tcl
16640 17462 t
17462 17947 q
17947 18757 ix
18757 19926 z
19926 20840 ix
20840 21597 dcl
21597 22480 jh
22480 24036 iy
24036 24814 ix
24814 25733 l
25733 27906 aa
27906 28420 dcl
28420 29080 jh
29080 29560 ix
29560 30480 kcl
30480 31140 k
31140 32360 el
32360 34590 th
34590 36135 iy
36135 37618 axr
37618 39101 ix
