2040 2648 q
2648 3898 ae
3898 4957 n
4957 5480 ix
5480 6648 q
6648 8146 eh
8146 10067 r
10067 11321 iy
11321 13060 ix
13060 15420 sh
15420 16946 eh
16946 17629 l
17629 18380 tcl
18380 18870 t
18870 20120 axr
20120 20600 dcl
20600 21186 d
21186 22270 f
22270 23058 r
23058 24000 em
24000 25010 epi
25010 26610 s
26610 27580 tcl
27580 28853 r
28853 30830 ao
30830 31880 ng
31880 33503 w
33503 35920 ih
35920 38264 n
38264 40290 z
40290 41972 epi
41972 42640 m
42640 44200 ey
44200 45194 bcl
45194 45380 b
45380 46643 iy
46643 48550 hv
48550 50805 ay
50805 51640 l
51640 52680 iy
52680 53400 dcl
53400 53771 d
53771 54880 ix
54880 56140 z
56140 59410 ay
59410 61480 axr
61480 62580 bcl
62580 62881 b
62881 64703 el
64703 69080 pau
69080 70397 f
70397 71720 ao
71720 73363 r
73363 74240 eh
74240 75480 kcl
75480 76083 k
76083 76972 r
76972 78100 iy
78100 79897 ey
79897 82130 sh
82130 84023 en
84023 85453 y
85453 87370 ux
87370 90290 s
