2040 3240 jh
3240 5765 ao
5765 6308 n
6308 7394 z
7394 8355 bcl
8355 9315 r
9315 10819 ah
10819 11321 dh
11321 12240 ax
12240 13535 r
13535 14600 iy
14600 15400 pcl
15400 16600 p
16600 17960 ey
17960 18520 nx
18520 19960 ih
19960 20840 dcl
20840 21240 dh
21240 21681 ix
21681 22520 gcl
22520 23160 g
23160 24814 axr
24814 26777 aa
26777 27195 dcl
27195 28449 jh
28449 29284 dcl
29284 29535 d
29535 32083 ow
32083 33211 ax
