2930 3890 jh
3890 7240 ah
7240 9550 s
9550 10193 tcl
10193 10808 d
10808 12226 r
12226 15206 aa
15206 15937 pcl
15937 18400 n
18400 21055 ow
21055 21720 dx
21720 23060 ix
23060 25524 s
25524 28840 ih
28840 30997 z
30997 33004 q
33004 34339 ih
34339 35064 n
35064 36500 q
36500 38520 ih
38520 39080 nx
39080 41276 iy
41276 43321 s
43321 44280 ix
44280 45368 dcl
45368 46140 jh
46140 48919 eh
48919 51790 sh
51790 53520 ix
53520 55193 n
55193 57880 bcl
57880 58106 b
58106 62328 aa
62328 64320 kcl
64320 67430 s
