4212 4960 p
4960 5849 axr
5849 6688 hv
6688 8438 ae
8438 8930 pcl
8930 9990 s
9990 10880 epi
10880 11989 w
11989 12936 ah
12936 13966 n
13966 14830 bcl
14830 15114 b
15114 16944 ao
16944 18280 r
18280 19082 dcl
19082 20151 hv
20151 22099 ow
22099 23532 l
23532 25174 z
25174 25796 ix
25796 26443 n
26443 26828 dh
26828 27738 ix
27738 29400 s
29400 29940 tcl
29940 30250 t
30250 33146 ow
33146 34063 n
34063 35108 pau
35108 35679 w
35679 36096 ax
36096 36711 th
36711 38212 s
38212 39215 ah
39215 40043 m
40043 41020 kcl
41020 41790 k
41790 43800 ay
43800 44332 nx
44332 44890 ix
44890 45653 v
45653 46616 en
46616 47237 ax
47237 48568 l
48568 49360 eh
49360 50700 kcl
50700 51300 t
51300 51692 r
51692 52186 ix
52186 54350 kcl
54350 54730 g
54730 57240 ae
57240 57819 dcl
57819 58659 jh
58659 59987 ix
59987 60720 tcl
60720 61560 t
