2360 3280 hh
3280 4668 aw
4668 5745 m
5745 6880 ah
6880 7644 tcl
7644 8890 ch
8890 9480 ax
9480 10990 q
10990 11464 ah
11464 12783 l
12783 14997 aw
14997 16055 ah
16055 16584 n
16584 16800 tcl
16800 18360 s
18360 19330 dcl
19330 19950 d
19950 20594 ix
20594 23080 y
23080 24233 ux
24233 24721 gcl
24721 25550 g
25550 28009 ih
28009 29785 tcl
