1758 3167 hh
3167 4716 iy
4716 5765 l
5765 8679 ay
8679 10430 kcl
10430 11613 t
11613 12268 ix
12268 13677 n
13677 14990 ih
14990 16501 pcl
16501 16878 p
16878 17830 q
17830 19007 ih
19007 20762 r
20762 21746 l
21746 24533 ow
24533 25190 bcl
25190 25418 b
25418 26818 z
26818 27787 ax
27787 28484 v
28484 29790 q
29790 31027 ah
31027 32231 n
32231 34203 s
34203 34795 ax
34795 36323 s
36323 37184 pcl
37184 37481 p
37481 39133 eh
39133 40626 kcl
40626 41127 t
41127 42088 ix
42088 43189 ng
43189 43842 v
43842 45397 ih
45397 46941 z
46941 47791 ix
47791 48076 dcl
48076 48506 d
48506 50804 axr
50804 52432 z
52432 52866 w
52866 53553 ix
53553 54939 th
54939 55901 ix
55901 57149 z
57149 58547 n
58547 59842 iy
59842 60427 dcl
60427 60720 d
60720 62973 el
62973 65576 sh
65576 67201 aa
67201 68203 r
68203 70795 pcl
70795 72269 t
72269 75035 iy
75035 76767 th
