3795 4895 w
4895 7480 ay
7480 8207 q
8207 9836 eh
9836 10680 l
10680 13618 s
13618 14885 w
14885 16760 uh
16760 18680 dcl
18680 19133 d
19133 21720 ae
21720 22520 n
22520 24125 iy
24125 25065 q
25065 25942 ax
25942 27070 l
27070 29720 aw
29720 30454 q
30454 31960 ah
31960 32599 dh
32599 34680 axr
34680 36386 z
36386 37000 tcl
37000 38171 t
38171 38840 ix
38840 39320 gcl
39320 39770 g
39770 43800 ow
