2000 2596 r
2596 3790 iy
3790 5850 s
5850 7840 iy
7840 8640 v
8640 9691 ih
9691 10527 ng
10527 11120 n
11120 13002 ow
13002 14047 q
14047 16170 ae
16170 16820 n
16820 19043 s
19043 21597 er
21597 22642 dh
22642 24440 ey
24440 26710 s
26710 27629 eh
27629 28745 q
28745 30050 dh
30050 30600 ix
30600 32740 f
32740 36344 ay
36344 38120 axr
