2244 3000 ah
3000 4440 dcl
4440 4840 d
4840 7240 aa
7240 8520 kcl
8520 9240 t
9240 10652 axr
10652 12365 w
12365 13240 ix
13240 14520 z
14520 15640 ix
15640 16649 n
16649 17002 dh
17002 18542 iy
18542 19751 q
19751 21208 ae
21208 22121 m
22121 22345 bcl
22345 22585 b
22585 23060 y
23060 23644 ax
23644 24872 l
24872 25399 ix
25399 26227 n
26227 27571 s
27571 28600 epi
28600 29328 w
29328 29960 ix
29960 31880 th
31880 32508 ix
32508 33662 pcl
33662 34360 p
34360 36200 ey
36200 37960 sh
37960 38725 ix
38725 39422 n
39422 40180 tcl
