2218 3007 w
3007 3759 iy
3759 4840 ih
4840 5472 kcl
5472 5759 k
5759 7394 s
7394 8280 pcl
8280 8680 p
8680 10360 er
10360 11655 iy
11655 12837 eh
12837 13671 n
13671 15852 s
15852 16680 dcl
16680 17480 d
17480 18280 ih
18280 20520 s
20520 21160 tcl
21160 21880 t
21880 23060 r
23060 24760 eh
24760 27070 s
27070 27967 q
27967 29240 ae
29240 29800 n
29800 30328 dcl
30328 31460 f
31460 32040 r
32040 32899 ah
32899 34440 s
34440 34840 tcl
34840 35160 t
35160 35960 r
35960 37560 ey
37560 39160 sh
39160 39720 ix
39720 40423 n
40423 41480 ah
41480 43000 bcl
43000 44040 t
44040 45640 ey
45640 46200 n
46200 47160 ih
47160 47800 ng
47800 49114 aa
49114 50280 r
50280 51000 dcl
51000 51280 d
51280 51960 ix
51960 52600 gcl
52600 53320 g
53320 54706 r
54706 57678 iy
57678 59779 z
