2040 2360 b
2360 3560 ah
3560 4040 dx
4040 5080 ih
5080 6200 n
6200 7937 eh
7937 8438 v
8438 8945 r
8945 9960 ix
9960 11320 pcl
11320 12440 p
12440 13869 er
13869 15209 iy
15209 15880 ix
15880 16459 dcl
16459 16960 d
16960 17462 ax
17462 19000 q
19000 20680 ih
20680 21180 tcl
21180 21800 hv
21800 23320 ix
23320 24600 z
24600 25524 bcl
25524 25817 b
25817 27640 eh
27640 28616 n
28616 29869 hv
29869 30356 y
30356 31331 ux
31331 32279 m
32279 33000 ax
33000 34130 n
34130 35960 ix
35960 37080 z
37080 38057 ax
38057 39240 m
