2200 2600 b
2600 5160 aa
5160 7160 bcl
7160 7800 f
7800 10318 aw
10318 11154 n
11154 11822 m
11822 13247 ao
13247 13960 r
13960 15160 kcl
15160 16417 k
16417 17571 l
17571 19880 ae
19880 21720 m
21720 23436 z
23436 24313 q
24313 25320 ix
25320 26360 tcl
26360 26760 dh
26760 27400 ix
27400 27947 q
27947 30360 ow
30360 31960 sh
31960 33720 en
33720 34882 z
34882 35718 q
35718 39320 eh
39320 40360 dcl
40360 42200 jh
