2200 3840 aa
3840 4320 r
4320 5770 eh
5770 6416 n
6416 7000 tcl
7000 8040 t
8040 9483 ay
9483 10945 axr
10945 12200 iy
12200 13320 kcl
13320 14658 k
14658 16780 aa
16780 17171 nx
17171 17545 ax
17545 18665 m
18665 19979 iy
19979 21472 w
21472 22558 ah
22558 23135 hv
23135 25160 ae
25160 25800 v
25800 26840 ax
26840 27880 tcl
27880 29464 t
29464 30746 axr
30746 31640 ih
31640 33086 f
33086 33960 ix
33960 34520 kcl
34520 36017 k
36017 36528 q
36528 37320 ah
37320 38360 pcl
38360 38986 p
38986 39853 l
39853 41160 ix
41160 43028 f
43028 43952 tcl
43952 45160 t
