2161 2430 d
2430 3480 ih
3480 5054 f
5054 5440 r
5440 6140 ix
6140 6896 n
6896 7227 t
7227 8108 s
8108 9440 ih
9440 10861 z
10861 11440 epi
11440 12013 w
12013 13159 axr
13159 13911 r
13911 14760 ix
14760 15560 l
15560 17378 ey
17378 17754 dx
17754 19300 ix
19300 20390 dcl
20390 21300 t
21300 21950 ix
21950 23930 s
23930 26080 ow
26080 27670 sh
27670 28753 el
28753 29577 q
29577 30920 eh
30920 31810 kcl
31810 32119 k
32119 32710 ix
32710 33400 n
33400 35720 aa
35720 36680 m
36680 37800 ix
37800 38700 kcl
38700 39086 k
39086 40020 ix
40020 40440 nx
40440 42280 eh
42280 43060 dcl
43060 44198 jh
44198 44980 kcl
44980 45840 k
45840 47680 ey
47680 49350 sh
49350 49727 epi
49727 50016 n
50016 51300 el
51300 52280 bcl
52280 52453 b
52453 55310 ae
55310 56290 kcl
56290 56850 g
56850 58119 r
58119 60657 aw
60657 61652 n
61652 62412 dcl
62412 62665 d
62665 64838 s
