2422 4177 s
4177 5556 pcl
5556 5973 p
5973 6572 l
6572 7770 eh
7770 8814 n
8814 10652 axr
10652 11404 bcl
11404 11613 b
11613 13493 ay
13493 15707 s
15707 17183 ao
17183 17921 r
17921 20261 s
20261 21458 axr
21458 23853 iy
23853 28281 pau
28281 29033 ih
29033 29451 tcl
29451 30830 s
30830 31874 ax
31874 33253 hh
33253 35634 ao
35634 38015 axr
