3520 3940 q
3940 5045 ae
5045 6051 n
6051 7586 q
7586 9399 ae
9399 10001 dx
10001 10945 ah
10945 12323 l
12323 13840 tcl
13840 15009 pau
15009 16106 m
16106 18422 ey
18422 20219 l
20219 21919 pau
21919 22181 b
22181 24271 ae
24271 25817 bcl
25817 26100 b
26100 28532 uw
28532 29890 n
29890 31910 z
31910 32917 tcl
32917 34798 t
34798 37000 iy
37000 39560 th
39560 40427 pau
40427 41166 q
41166 41608 ax
41608 42527 r
42527 44620 n
44620 46876 aa
46876 47760 tcl
47760 48773 pau
48773 51440 s
51440 52880 ux
52880 53440 dx
53440 54160 ax
54160 54976 bcl
54976 55530 b
55530 57046 el
57046 59133 f
59133 60248 er
60248 62240 q
62240 63210 iy
63210 63917 dx
63917 64878 iy
64878 66236 ng
66236 69431 sh
69431 70856 eh
70856 72176 l
72176 74783 f
74783 76402 ih
76402 79744 sh
