2240 2720 dh
2720 3283 ix
3283 5330 dcl
5330 6220 jh
6220 9148 ay
9148 9859 y
9859 11208 ih
11208 11982 n
11982 12654 tcl
12654 14240 pau
14240 15059 r
15059 15791 eh
15791 18160 dcl
18160 19258 w
19258 19926 uh
19926 21054 dcl
21054 23410 z
23410 25060 pau
25060 27840 sh
27840 28867 ih
28867 30137 m
30137 31498 ix
31498 32626 dcl
32626 33056 d
33056 35873 pau
35873 36632 q
36632 37365 ih
37365 38692 n
38692 38937 dh
38937 39436 ax
39436 41180 gcl
41180 41713 g
41713 42642 l
42642 43418 ih
43418 45939 s
45939 46720 epi
46720 47355 n
47355 48261 ih
48261 49274 ng
49274 49880 gcl
49880 52689 s
52689 55176 ah
55176 56480 n
