2940 3610 dh
3610 4804 ax
4804 7436 r
7436 12450 ow
12450 15000 z
15000 15640 kcl
15640 16870 k
16870 17690 uh
17690 19730 s
19730 25590 aa
25590 27697 zh
27697 29800 pau
29800 32797 s
32797 33316 epi
33316 34400 m
34400 37180 eh
37180 39160 l
39160 39802 tcl
39802 40219 t
40219 43726 s
43726 44720 epi
44720 45647 w
45647 47694 iy
47694 49240 tcl
