2161 2956 n
2956 4680 ah
4680 6370 th
6370 7899 ih
7899 8687 ng
8687 9874 q
9874 16260 ih
16260 18005 z
18005 20295 q
20295 22600 ae
22600 24396 z
24396 26706 pau
26706 27077 q
27077 28440 ao
28440 30450 f
30450 31665 eh
31665 32189 n
32189 34300 s
34300 37375 ih
37375 38517 v
38517 40823 q
40823 44630 ae
44630 46396 z
46396 48999 q
48999 49560 ih
49560 50360 n
50360 51310 ih
51310 53320 s
53320 54600 eh
54600 55680 n
55680 59350 s
