2160 3470 p
3470 4720 eh
4720 6127 ng
6127 6550 gcl
6550 6928 g
6928 7770 w
7770 9148 ih
9148 10790 n
10790 13390 z
13390 14246 l
14246 15960 ih
15960 16835 v
16835 18480 n
18480 20595 ih
20595 21263 ax
21263 22099 dh
22099 23315 ih
23315 25480 q
25480 28140 ay
28140 30690 s
30690 32755 iy
32755 34760 ae
34760 35240 n
35240 37640 aa
37640 38638 r
38638 39630 tcl
39630 40883 t
40883 42018 ix
42018 43948 kcl
43948 44535 k
