2360 3300 hh
3300 4478 iy
4478 6280 f
6280 8777 ao
8777 10185 tcl
10185 10517 dh
10517 11080 ax
11080 12330 pcl
12330 12960 p
12960 15044 ae
15044 15458 nx
15458 16320 ix
16320 17717 kcl
17717 18323 k
18323 19858 q
19858 20553 ax
20553 21856 v
21856 23651 er
23651 24188 dx
24188 24814 ix
24814 25810 gcl
25810 25990 g
25990 28440 ow
