2214 4134 sh
4134 5138 eh
5138 6558 l
6558 8563 sh
8563 11404 aa
11404 12773 kcl
12773 13827 k
13827 16167 ao
16167 16710 z
16710 17796 dcl
17796 18214 b
18214 20386 ay
20386 22805 sh
22805 23394 r
23394 25232 aa
25232 26234 pcl
26234 26986 p
26986 28031 n
28031 28866 eh
28866 30036 l
30036 35968 pau
35968 36887 ih
36887 39051 s
39051 39979 ah
39979 41274 m
41274 41566 tcl
41566 42485 t
42485 44073 ay
44073 45075 m
45075 45911 z
45911 46836 kcl
46836 48340 k
48340 48842 y
48842 51348 er
51348 52393 dcl
52393 53437 th
53437 54690 ux
54690 56528 gcl
56528 56988 g
56988 57531 r
57531 58325 uw
58325 59202 pcl
59202 59536 p
59536 61625 th
61625 62878 eh
62878 64800 er
64800 66011 pcl
66011 66680 p
66680 67682 iy
