2040 2360 dh
2360 3000 ix
3000 4680 bcl
4680 4960 b
4960 6840 iy
6840 7686 q
7686 8520 n
8520 9960 ih
9960 10527 kcl
10527 11120 k
11120 12407 s
12407 13480 kcl
13480 15000 k
15000 15760 r
15760 17280 ey
17280 17760 v
17760 18600 ix
18600 20520 s
20520 21960 eh
21960 22560 kcl
22560 24200 sh
24200 24626 el
24626 25480 ax
25480 25960 kcl
25960 27800 s
27800 29165 pcl
29165 29514 p
29514 30370 ih
30370 31164 r
31164 32125 iy
32125 32626 ix
32626 33240 n
33240 35000 s
35000 35467 ix
35467 36219 n
36219 36971 w
36971 37640 ix
37640 38120 tcl
38120 39394 ch
39394 40372 dh
40372 41400 eh
41400 41880 r
41880 43080 hh
43080 44950 ow
44950 45869 l
45869 46960 bcl
46960 47240 b
47240 49025 iy
49025 49735 ix
49735 50920 ng
50920 52440 pcl
52440 53320 p
53320 53960 axr
53960 54680 tcl
54680 55160 t
55160 56120 ih
56120 57640 s
57640 58925 pcl
58925 59517 p
59517 60972 ey
60972 62440 tcl
62440 65880 s
