2280 3000 hh
3000 3720 iy
3720 5080 pcl
5080 5960 p
5960 6573 l
6573 7800 ey
7800 8840 dcl
8840 9080 b
9080 11800 ae
11800 12960 s
12960 13600 kcl
13600 14080 k
14080 14560 ix
14560 15120 bcl
15120 16800 ao
16800 17640 l
17640 18360 dh
18360 20386 eh
20386 21400 r
21400 22280 w
22280 23826 ay
23826 24600 l
24600 25720 w
25720 27400 er
27400 28520 kcl
28520 29326 iy
29326 29953 ng
29953 30680 tcl
30680 32041 t
32041 32893 ao
32893 33240 r
33240 33720 dx
33720 34520 ax
34520 35480 l
35480 38120 ao
38120 38600 dcl
38600 38840 d
38840 39800 ix
39800 40520 gcl
40520 41240 g
41240 41853 r
41853 43080 iy
