2280 2760 hh
2760 3509 ah
3509 3843 m
3843 5096 ah
5096 5600 tcl
5600 6600 ch
6600 7240 ax
7240 8280 l
8280 10318 aw
10318 11321 ax
11321 11800 n
11800 13160 s
13160 13880 dcl
13880 14360 d
14360 15200 ux
15200 15840 y
15840 16920 ux
16920 17320 gcl
17320 17880 g
17880 20520 eh
20520 21500 tcl
