3400 3718 q
3718 4600 ih
4600 5160 n
5160 7560 s
7560 9640 ah
9640 11400 m
11400 14120 eh
14120 15800 zh
15800 18130 er
18130 18966 dh
18966 20440 ey
20440 20760 dcl
20760 21560 d
21560 22280 ix
22280 23080 pcl
23080 24440 p
24440 26109 eh
26109 26652 n
26652 27416 dcl
27416 28280 ix
28280 29080 pcl
29080 30520 p
30520 33160 aa
33160 33880 n
33880 34422 dh
34422 35000 ax
35000 37080 s
37080 37640 tcl
37640 38308 t
38308 38786 r
38786 39960 ah
39960 40680 kcl
40680 42702 sh
42702 44791 er
44791 45585 ah
45585 46799 v
46799 47465 q
47465 48467 ih
48467 49136 n
49136 49637 dcl
49637 50180 d
50180 50640 ix
50640 51726 v
51726 52840 ih
52840 53600 dcl
53600 55133 jh
55133 55527 uw
55527 57240 el
57240 57960 pcl
57960 58995 p
58995 60200 axr
60200 62253 s
62253 63298 en
63298 65428 ae
65428 66431 l
66431 67480 ax
67480 67880 dx
67880 69689 iy
