2339 3049 n
3049 4887 ah
4887 6433 th
6433 7519 ix
7519 8522 ng
8522 9947 q
9947 13451 ih
13451 14913 z
14913 16334 q
16334 18360 ae
18360 19720 z
19720 20760 ax
20760 22840 f
22840 24689 eh
24689 25480 n
25480 27112 s
27112 28281 ah
28281 28880 v
28880 30275 q
30275 32520 ae
32520 33960 z
33960 35800 ih
35800 36386 nx
36386 37640 ix
37640 40040 s
40040 41524 ix
41524 42026 n
42026 42760 tcl
42760 46107 s
