2120 2584 q
2584 3801 ao
3801 5096 r
5096 6017 ix
6017 6895 n
6895 7120 dcl
7120 8271 jh
8271 8981 dcl
8981 9760 jh
9760 11240 ux
11240 12532 s
12532 12940 tcl
12940 14030 t
14030 15370 ey
15370 17300 s
17300 18139 tcl
18139 18810 f
18810 20384 ah
20384 21112 n
21112 23101 iy
23101 24862 ae
24862 25805 f
25805 26157 tcl
26157 26920 t
26920 27280 axr
27280 28380 tcl
28380 29833 t
29833 30440 ux
30440 31738 th
31738 32320 pcl
32320 33460 p
33460 35678 ey
35678 37705 s
37705 38210 tcl
38210 38992 t
