10680 10900 q
10900 13451 aa
13451 15180 f
15180 15784 ax
15784 16881 n
16881 17561 y
17561 18305 el
18305 19270 gcl
19270 19730 g
19730 21215 eh
21215 22330 tcl
22330 22490 b
22490 25148 ae
25148 26437 kcl
26437 27470 m
27470 29370 ao
29370 30409 r
30409 31150 dh
31150 31961 ix
31961 33201 n
33201 33765 y
33765 34240 ix
34240 35298 pcl
35298 36003 p
36003 37640 uh
37640 38040 dx
38040 40519 ih
40519 41602 ix
41602 43055 n
