2685 3390 r
3390 4319 eh
4319 5597 z
5597 6080 ix
6080 6560 dx
6560 7644 ih
7644 8340 n
8340 9710 sh
9710 10569 el
10569 11530 ah
11530 13166 s
13166 14913 ow
14913 16646 sh
16646 18593 ey
18593 20336 sh
20336 20982 ax
20982 23269 n
23269 25688 s
25688 26660 tcl
26660 27140 t
27140 27733 r
27733 28920 ah
28920 29365 gcl
29365 29679 g
29679 30517 ax
30517 32279 l
32279 33520 pau
33520 34265 t
34265 34855 ax-h
34855 35569 q
35569 36453 ix
36453 37177 n
37177 38386 s
38386 38892 epi
38892 39443 l
39443 40520 ey
40520 41320 tcl
41320 41990 dh
41990 42262 ax
42262 43650 m
43650 45044 s
45044 46433 eh
46433 47435 l
47435 48160 v
48160 48806 z
48806 49480 ix
49480 49934 gcl
49934 50209 g
50209 51049 eh
51049 51761 n
51761 52840 s
52840 53292 tcl
53292 54040 t
54040 54520 ix
54520 55407 n
55407 56120 tcl
56120 57170 t
57170 58026 r
58026 59494 ux
59494 60974 zh
60974 62208 en
62208 63169 epi
63169 64698 z
