2200 2684 q
2684 3235 ax
3235 5304 s
5304 6099 ih
6099 7143 n
7143 9704 aa
9704 10697 m
10697 12114 iy
12114 14036 ih
14036 15101 z
15101 15715 n
15715 16720 ah
16720 17240 dx
17240 18040 ax
18040 20177 s
20177 20971 ih
20971 21788 ng
21788 22056 gcl
22056 23770 el
23770 25186 w
25186 28931 ey
28931 29707 v
29707 30900 pau
30900 31230 b
31230 31880 uh
31880 32200 dx
32200 33295 ax
33295 35656 s
35656 36428 ih
36428 37918 r
37918 39872 ix
39872 41370 z
