2422 4360 s
4360 6349 ay
6349 7185 ih
7185 7784 n
7784 8680 tcl
8680 9480 t
9480 10318 ih
10318 11800 f
11800 12600 ix
12600 14920 kcl
14920 15640 p
15640 16546 r
16546 18360 aa
18360 19560 gcl
19560 20595 r
20595 22280 eh
22280 23853 s
23853 24920 kcl
24920 25822 k
25822 27362 ah
27362 28280 m
28280 29600 z
29600 31624 f
31624 32200 r
32200 33000 ah
33000 34839 m
34839 35000 dh
35000 36840 ax
36840 39080 dcl
39080 39561 d
39561 40360 ix
40360 41800 v
41800 43374 eh
43374 44376 l
44376 45160 ah
45160 45963 pcl
45963 46925 m
46925 47969 ax
47969 49520 n
49520 50707 q
50707 51353 ah
51353 53240 v
53240 53880 n
53880 55739 ux
55739 57080 tcl
57080 57960 t
57960 58956 eh
58956 60593 kcl
60593 61546 n
61546 63301 iy
63301 65400 kcl
65400 65891 k
65891 67800 s
