1841 2439 dh
2439 5080 ae
5080 6840 tcl
6840 7320 d
7320 10360 ao
10360 12120 gcl
12120 13800 ch
13800 15880 ey
15880 17480 s
17480 18600 ix
18600 20360 z
20360 21320 kcl
21320 22520 k
22520 25356 ae
25356 26026 tcl
26026 27070 s
27070 27772 epi
27772 29451 m
29451 31400 er
31400 33800 s
33800 35080 ax
35080 37138 l
37138 38680 ax
38680 40480 s
40480 41560 epi
41560 42333 l
42333 43880 ix
