2263 2631 dh
2631 3760 er
3760 4597 kcl
4597 6257 k
6257 6513 y
6513 7644 er
7644 9017 iy
9017 11176 aa
11176 13320 s
13320 15016 iy
15016 16417 w
16417 17295 eh
17295 17966 n
17966 19425 hv
19425 20887 ae
20887 21984 pcl
21984 22480 p
22480 22934 ax
22934 24020 l
24020 25399 iy
25399 27000 ae
27000 27400 dx
27400 28073 ax
28073 29320 bcl
29320 29557 b
29557 32686 aw
32686 33796 n
33796 34740 dcl
34740 37190 z
