5800 6130 dh
6130 7240 ax
7240 9160 f
9160 10840 ih
10840 12680 th
12680 13320 dcl
13320 14360 jh
14360 17240 aa
17240 18680 r
18680 19560 kcl
19560 20093 k
20093 20680 en
20680 22040 tcl
22040 22931 t
22931 24920 ey
24920 25960 n
25960 27560 z
27560 29411 bcl
29411 29589 b
29589 32119 ih
32119 33378 gcl
33378 33671 g
33671 35091 dcl
35091 36036 jh
36036 37720 ux
37720 39960 s
39960 41240 iy
41240 42920 pcl
42920 43720 p
43720 45320 iy
45320 45960 tcl
45960 47423 ch
47423 50324 ix
50324 53320 z
