2040 2360 dh
2360 3801 ey
3801 4762 w
4762 5932 er
5932 6760 tcl
6760 8052 t
8052 9960 eh
9960 10440 dh
10440 12600 er
12600 13232 dcl
13232 14357 q
14357 16208 aa
16208 16780 r
16780 17712 m
17712 18920 iy
18920 20360 s
20360 20840 tcl
20840 21320 t
21320 24438 ay
24438 26884 l
26884 27800 q
27800 29256 aa
29256 30373 n
30373 31832 s
31832 32599 tcl
32599 33000 t
33000 35080 ey
35080 35977 bcl
35977 37347 el
37347 38520 l
38520 42193 ay
42193 43709 n
43709 46449 s
