2240 3418 m
3418 4766 eh
4766 5440 l
5440 6690 kcl
6690 7210 k
7210 7812 ax
7812 8890 pcl
8890 9830 p
9830 11055 ih
11055 12280 axr
12280 13640 z
13640 14100 tcl
14100 15450 t
15450 16096 w
16096 17390 ay
17390 18966 s
18966 20120 ix
20120 21120 dcl
21120 21550 d
21550 24920 ey
