2250 2930 dh
2930 3640 ih
3640 5263 s
5263 6160 pcl
6160 6330 p
6330 7560 iy
7560 8000 tcl
8000 9733 ch
9733 11160 s
11160 11947 ix
11947 12840 m
12840 13510 pcl
13510 14350 p
14350 16730 ow
16730 18214 z
18214 19634 iy
19634 20344 ix
20344 23937 m
23937 25880 ay
25880 27190 tcl
27190 27540 b
27540 28440 iy
28440 29410 gcl
29410 30120 g
30120 31415 ih
31415 32320 n
32320 33336 m
33336 34757 ah
34757 35815 n
35815 36340 dcl
36340 36820 d
36820 39143 ey
