2200 2577 q
2577 3120 ix
3120 3783 n
3783 4120 dh
4120 4920 ix
4920 6190 pcl
6190 7070 p
7070 8040 ih
8040 8440 dx
8440 9880 iy
9880 11430 f
11430 12760 axr
12760 13470 dh
13470 17005 eh
17005 17858 m
17858 19530 hh
19530 21110 ih
21110 22840 z
22840 23880 l
23880 25960 ow
25960 26840 n
26840 27266 l
27266 28120 ix
28120 28867 n
28867 30310 eh
30310 31910 s
31910 32573 w
32573 33350 ix
33350 34520 z
34520 35440 gcl
35440 35780 g
35780 40240 ao
40240 40840 n
