2200 2600 q
2600 3418 ih
3418 4065 n
4065 6182 eh
6182 7000 v
7000 7533 r
7533 8451 ix
8451 9440 m
9440 11760 ey
11760 12210 dcl
12210 12900 jh
12900 13880 axr
13880 14940 kcl
14940 16450 k
16450 17193 l
17193 18680 ow
18680 19720 v
19720 20219 axr
20219 21514 l
21514 23302 iy
23302 24560 f
24560 27480 pau
27480 28900 t
28900 29653 r
29653 31160 ae
31160 32189 f
32189 32920 ix
32920 33620 kcl
33620 34025 k
34025 35230 s
35230 36577 ah
36577 37263 m
37263 37990 tcl
37990 38740 t
38740 40465 ay
40465 41540 m
41540 42520 z
42520 43010 gcl
43010 43330 g
43330 44075 ix
44075 44770 tcl
44770 45036 t
45036 45410 s
45410 46740 bcl
46740 46980 b
46980 49297 ae
49297 51300 kcl
51300 51670 t
51670 54600 ah
54600 56500 pcl
