2320 3258 w
3258 4120 ah
4120 4840 n
4840 5890 ix
5890 7480 v
7480 7707 dh
7707 10790 iy
10790 12260 z
12260 13270 ix
13270 14287 z
14287 15210 dh
15210 15970 ix
15970 18200 s
18200 20219 aa
20219 21221 l
21221 22084 ix
22084 23060 dcl
23060 23220 d
23220 24981 eh
24981 26945 r
26945 27720 ix
27720 28200 dx
28200 29994 iy
29994 31405 q
31405 32167 eh
32167 33228 n
33228 33300 dh
33300 33880 ix
33880 35070 kcl
35070 36420 k
36420 38000 aa
38000 38611 n
38611 39820 f
39820 40200 ix
40200 40650 dcl
40650 40860 d
40860 42240 eh
42240 43150 n
43150 44543 sh
44543 45253 ax
45253 45713 l
45713 47083 r
47083 47509 ix
47509 48846 l
48846 51120 ey
51120 52510 sh
52510 53880 en
53880 56045 sh
56045 57443 ix
57443 58490 pcl
58490 58880 p
58880 59720 ax
59720 60981 v
60981 62160 m
62160 64052 eh
64052 65924 r
65924 66840 ix
66840 67758 dcl
67758 69976 jh
