2190 2700 g
2700 3960 eh
3960 4520 dx
4520 5320 ix
5320 6340 kcl
6340 7440 k
7440 8981 ae
8981 9817 l
9817 10480 ix
10480 11034 kcl
11034 12350 k
12350 14160 ow
14160 15390 kcl
15390 16880 k
16880 19320 ae
19320 20970 tcl
20970 21620 t
21620 22040 ix
22040 23160 kcl
23160 24350 k
24350 26067 iy
26067 28024 pcl
28024 28872 p
