1346 2360 dh
2360 2840 ax
2840 4050 pcl
4050 4840 p
4840 5453 r
5453 6642 uw
6642 7651 f
7651 8430 dh
8430 10026 eh
10026 10640 tcl
10640 11655 y
11655 12783 uw
12783 13911 aa
13911 14394 r
14394 16180 s
16180 17629 iy
17629 18350 kcl
18350 18930 k
18930 19383 ix
19383 20428 ng
20428 21430 ih
21430 22491 z
22491 23125 n
23125 25107 aa
25107 26276 ax
26276 27112 v
27112 28950 ey
28950 30572 l
30572 31488 bcl
31488 31668 b
31668 33462 el
33462 34381 ax
34381 35480 n
35480 36230 bcl
36230 36410 b
36410 38600 uh
38600 39970 kcl
39970 40160 k
40160 42400 s
