2160 3300 t
3300 3946 w
3946 5240 eh
5240 5806 l
5806 6684 v
6684 7880 ax
7880 9340 kcl
9340 10150 k
10150 10966 l
10966 12600 aa
12600 14161 kcl
14161 14640 k
14640 15520 l
15520 17280 eh
17280 18200 v
18200 19480 el
