2088 2631 dh
2631 4093 iy
4093 5806 aa
5806 6475 v
6475 7185 ix
7185 8450 kcl
8450 9410 k
9410 11738 aa
11738 12114 dx
12114 13610 uh
13610 15790 sh
15790 17169 uh
17169 17747 dx
17747 19800 ae
19800 20520 v
20520 22200 ey
22200 23080 gcl
23080 23840 g
23840 26240 ih
26240 27000 v
27000 28190 tcl
28190 28908 t
28908 30704 ux
30704 32840 ih
32840 34260 tcl
34260 34840 t
34840 36240 pau
36240 39280 ae
39280 40530 zh
40530 41070 y
41070 42151 ux
42151 43490 hv
43490 45426 ow
45426 46708 l
46708 47467 dcl
47467 47760 d
47760 49800 ih
49800 50380 tcl
50380 51480 t
51480 52640 pau
52640 53079 w
53079 54040 ix
54040 54680 n
54680 55880 ih
55880 56360 dx
56360 58655 ih
58655 60443 z
60443 61353 r
61353 64440 ay
64440 65540 pcl
