2220 4320 sh
4320 6224 iy
6224 7520 ih
7520 8320 ng
8320 8690 kcl
8690 9630 k
9630 11404 er
11404 12580 ix
12580 13920 jh
13920 14210 dcl
14210 14698 d
14698 15110 hh
15110 15960 axr
15960 16500 tcl
16500 17690 ch
17690 18680 ih
18680 19160 l
19160 19900 dcl
19900 20602 ax
20602 21480 n
21480 21900 tcl
21900 22591 t
22591 23104 ax-h
23104 23920 m
23920 25280 ey
25280 26550 kcl
26550 26770 dh
26770 28281 axr
28281 30520 ow
30520 31080 n
31080 32508 hv
32508 33800 ae
33800 34506 l
34506 35174 ax
35174 36511 w
36511 37200 ix
37200 38080 ng
38080 38470 kcl
38470 39428 k
39428 41720 aa
41720 43442 s
43442 44000 tcl
44000 44470 t
44470 45640 ux
45640 47910 m
47910 50450 z
