2040 2920 hh
2920 4040 iy
4040 5240 pcl
5240 6266 p
6266 7101 r
7101 9320 ey
9320 10760 z
10760 12280 ih
12280 13368 z
13368 13911 epi
13911 14704 m
14704 16120 eh
16120 16680 n
16680 18381 iy
18381 19240 ih
19240 20120 n
20120 20400 d
20400 20840 ix
20840 22349 v
22349 24120 ih
24120 24680 dcl
24680 25775 jh
25775 27195 uw
27195 28574 el
28574 29320 zh
29320 29880 dcl
29880 31000 jh
31000 32520 eh
32520 33002 nx
33002 34506 axr
34506 35480 ah
35480 37514 s
37514 38224 l
38224 39480 iy
