2120 2360 dh
2360 2715 ix
2715 3880 pcl
3880 4760 p
4760 5426 r
5426 6760 iy
6760 8200 s
8200 8520 kcl
8520 9080 k
9080 10640 ux
10640 11360 l
11360 12600 er
12600 13800 kcl
13800 14680 k
14680 15707 uh
15707 16125 dx
16125 18120 en
18120 19480 v
19480 21720 er
21720 22541 bcl
22541 22809 b
22809 24104 el
24104 27720 ay
27720 28741 z
28741 29160 hh
29160 31240 er
31240 32920 f
32920 34590 iy
34590 35467 l
35467 36595 ih
36595 37920 ng
37920 39000 z
39000 39720 ax
39720 40571 bcl
40571 40821 b
40821 42600 aw
42600 43480 tcl
43480 44075 dh
44075 45000 iy
45000 46289 m
46289 48600 er
48600 49080 dcl
49080 49882 jh
49882 51320 en
51320 52723 s
52723 53809 iy
53809 54680 kcl
54680 55354 k
55354 55800 ix
55800 56840 n
56840 57151 d
57151 58600 ih
58600 60200 sh
60200 60744 ix
60744 62920 n
62920 65673 s
