4220 6920 s
6920 10402 ow
10402 11947 r
11947 15109 uw
15109 16690 l
16690 18307 z
18307 18800 epi
18800 19370 w
19370 20511 iy
20511 21848 m
21848 26520 ey
26520 27530 dcl
27530 27820 d
27820 30161 ix
30161 31346 n
31346 32793 ah
32793 33629 n
33629 34440 ax
34440 35342 bcl
35342 35510 b
35510 38680 ae
38680 40040 sh
40040 40480 tcl
40480 41160 t
41160 42420 kcl
42420 43670 k
43670 44532 ax
44532 45451 l
45451 48208 uw
48208 50121 zh
50121 53013 en
