1872 2650 dh
2650 3360 ix
3360 5360 f
5360 6600 ih
6600 8920 th
8920 9775 dcl
9775 10740 jh
10740 13426 aa
13426 14760 r
14760 16059 kcl
16059 16899 k
16899 17925 en
17925 18480 tcl
18480 18990 t
18990 22015 ey
22015 23452 n
23452 25440 z
25440 27210 bcl
27210 27460 b
27460 28480 ih
28480 31040 gcl
31040 33587 pau
33587 35046 jh
35046 37130 ux
37130 39050 s
39050 41260 iy
41260 43332 pcl
43332 44000 p
44000 45421 iy
45421 46131 tcl
46131 47676 ch
47676 49740 ih
49740 52500 z
