2280 3320 jh
3320 5880 ah
5880 7080 s
7080 7880 tcl
7880 8440 t
8440 11195 pau
11195 12040 d
12040 13080 r
13080 15160 aa
15160 16120 pcl
16120 17480 n
17480 19560 ow
19560 19960 dx
19960 20920 ix
20920 23000 s
23000 25400 ih
25400 26680 z
26680 27960 ix
27960 28760 n
28760 29493 ax
29493 30287 q
30287 31680 eh
31680 32240 nx
32240 34120 iy
34120 36120 s
36120 37560 ix
37560 38440 gcl
38440 39160 jh
39160 41400 eh
41400 42320 sh
42320 43143 tcl
43143 44280 ch
44280 45400 ix
45400 46602 n
46602 47958 bcl
47958 48273 b
48273 51560 aa
51560 53703 kcl
53703 54497 k
54497 57000 s
