2120 3160 k
3160 4440 iy
4440 4887 pcl
4887 6349 th
6349 7364 ax-h
7364 8840 th
8840 9720 er
9720 10736 m
10736 12920 aa
12920 13720 m
13720 14600 ax
14600 15185 tcl
15185 15747 t
15747 17921 axr
17921 18548 q
18548 19300 ah
19300 19785 n
19785 20188 dcl
20188 20414 d
20414 21736 axr
21736 22809 y
22809 24104 axr
24104 25238 tcl
25238 26276 t
26276 28992 ah
28992 30584 ng
