2040 2449 q
2449 3040 ix
3040 3460 tcl
3460 4560 s
4560 5470 hh
5470 7186 aa
7186 8104 r
8104 8939 dcl
8939 9644 t
9644 10040 ix
10040 11000 tcl
11000 12080 t
12080 14318 eh
14318 15039 l
15039 15456 ax
15456 16037 n
16037 16877 ax
16877 18172 r
18172 19383 ih
19383 20040 dcl
20040 20600 jh
20600 21089 ix
21089 21525 nx
21525 22057 ax
22057 23160 l
23160 23674 epi
23674 24475 f
24475 25027 axr
25027 26000 m
26000 26840 ax
26840 29080 f
29080 30573 ao
30573 31400 r
31400 32040 dcl
32040 32816 jh
32816 34387 axr
34387 35214 ix
