2130 2360 d
2360 4360 aa
4360 5263 kcl
5263 5649 t
5649 6680 er
6680 7802 z
7802 8440 pcl
8440 9000 p
9000 9560 axr
9560 10778 s
10778 11237 kcl
11237 12114 k
12114 12490 r
12490 14646 ay
14646 15707 bcl
15707 16341 d
16341 16584 r
16584 18040 ah
18040 18760 gcl
18760 19047 g
19047 20320 z
20320 20750 tcl
20750 21838 t
21838 22556 ix
22556 24760 f
24760 25357 r
25357 26819 iy
26819 27864 l
27864 29228 iy
