2210 2750 dh
2750 3068 ax
3068 4428 r
4428 6120 eh
6120 7690 dcl
7690 8530 p
8530 10151 ih
10151 11510 l
11510 12260 z
12260 14370 er
14370 15373 ah
15373 16459 v
16459 18600 ay
18600 19000 dx
19000 19880 ix
19880 21160 m
21160 22520 ih
22520 23000 nx
23000 24040 ih
24040 24960 n
24960 27028 ay
27028 28720 axr
28720 29920 n
29920 30940 kcl
30940 31890 k
31890 33462 aa
33462 34493 m
34493 35440 pcl
35440 36140 p
36140 39290 aw
39290 39930 n
39930 40405 dcl
40405 41058 d
