2148 2400 d
2400 3040 ih
3040 3680 dx
3680 5080 eh
5080 5560 nx
5560 6350 iy
6350 7603 w
7603 8480 ah
8480 9447 n
9447 11960 s
11960 13201 iy
13201 14200 m
14200 16334 ay
16334 17520 kcl
17520 18800 k
18800 22779 ae
22779 23854 bcl
23854 24840 b
