4060 6360 s
6360 7645 iy
7645 8480 y
8480 9817 uw
9817 10680 ix
10680 11160 nx
11160 11800 ax
11800 12840 bcl
12840 13110 b
13110 15640 aw
15640 16120 dx
16120 16836 ix
16836 17671 n
17671 21806 aw
21806 23979 axr
