2250 2580 dh
2580 3110 ax
3110 4554 r
4554 6200 eh
6200 6680 v
6680 8272 el
8272 10530 ux
10530 12350 sh
12350 12800 ix
12800 14000 n
14000 16543 aw
16543 17922 w
17922 18640 ax
18640 19560 n
19560 20400 dcl
20400 20543 d
20543 21264 ax
21264 23185 w
23185 25650 ey
25650 26720 ix
26720 27488 n
27488 28080 m
28080 28640 ix
28640 30410 tcl
30410 31390 t
31390 32042 ih
32042 33211 r
33211 34507 ix
34507 35800 el
35800 37360 z
37360 38310 hh
38310 40880 ae
40880 41860 n
41860 42573 l
42573 44360 iy
44360 45411 ng
45411 46560 m
46560 48120 ey
48120 48830 kcl
48830 49296 k
49296 51040 s
51040 51360 dh
51360 52760 ih
52760 54850 s
54850 55285 epi
55285 56160 m
56160 57520 ah
57520 58027 tcl
58027 59510 ch
59510 62350 iy
62350 63740 z
63740 65253 iy
65253 67240 axr
