2039 2481 hh
2481 4000 ae
4000 5014 z
5014 5932 axr
5932 6851 r
6851 8146 uw
8146 9400 l
9400 10690 pcl
10690 11372 p
11372 12321 aa
12321 12898 r
12898 13800 tcl
13800 14330 t
14330 16000 ae
16000 16304 m
16304 18048 f
18048 19640 aa
19640 20410 r
20410 21276 m
21276 22495 axr
22495 23721 z
23721 24120 hh
24120 25524 ay
25524 26922 er
26922 28173 l
28173 29400 ih
29400 29880 dx
29880 30942 el
30942 32206 hh
32206 34386 eh
34386 35580 l
35580 36580 pcl
