2220 2870 dh
2870 3815 axr
3815 4637 w
4637 5470 ah
5470 6367 z
6367 7406 ah
7406 8149 dcl
8149 8689 jh
8689 10680 ay
10680 11221 gcl
11221 11570 g
11570 13960 ae
13960 14440 nx
14440 15183 ih
15183 16139 kcl
16139 16883 k
16883 18306 w
18306 20677 aa
20677 21658 s
21658 22569 pcl
22569 23720 n
23720 24859 eh
24859 25693 kcl
25693 25924 k
25924 26392 s
26392 27010 tcl
27010 27510 t
27510 28532 ux
28532 30115 er
30115 31080 v
31080 31740 iy
31740 32868 ng
32868 33433 z
33433 33991 bcl
33991 34228 b
34228 35412 ih
35412 37270 gcl
37270 38170 t
38170 40531 aa
40531 41232 pcl
41232 41961 hh
41961 45317 ae
45317 47020 tcl
