2120 3133 hh
3133 3900 ix
3900 6016 s
6016 6840 n
6840 9320 ae
9320 10000 tcl
10000 12073 ch
12073 12742 tcl
12742 13201 ix
13201 14329 q
14329 15880 ae
15880 16360 dx
16360 17003 ix
17003 17600 tcl
17600 19210 s
19210 21080 ae
21080 21800 v
21800 22517 ix
22517 23274 n
23274 23850 dcl
23850 24650 jh
24650 25232 ax
25232 26068 l
26068 27739 iy
