2130 2330 b
2330 4469 ay
4469 5639 aa
5639 6642 l
6642 7520 ix
7520 8380 dcl
8380 8870 jh
8870 10280 ih
10280 12620 s
12620 14460 ux
14460 15941 z
15941 16713 r
16713 18255 ey
18255 18631 dx
18631 19926 iy
19926 21556 ow
21556 23352 ae
23352 25100 kcl
25100 25360 t
25360 26200 ix
26200 27640 f
27640 28840 q
28840 30580 ay
30580 32174 s
32174 32732 ix
32732 33590 tcl
33590 34430 t
34430 36440 ow
36440 37320 pcl
37320 37514 p
37514 38433 s
38433 39268 tcl
39268 39656 t
39656 41240 s
41240 41608 tcl
41608 42080 t
42080 43080 ah
43080 43404 dx
43404 44440 iy
44440 45560 m
45560 47160 ay
47160 47870 kcl
47870 48530 k
48530 49086 r
49086 50151 ow
50151 51216 ao
51216 51926 r
51926 52800 gcl
52800 53050 g
53050 53360 ix
53360 54400 n
54400 56190 ix
56190 57600 z
57600 58331 ix
58331 59906 m
59906 62090 s
