3170 4110 jh
4110 5508 eh
5508 5680 n
5680 6320 q
6320 6851 l
6851 7880 ix
7880 8840 pcl
8840 9600 p
9600 10190 l
10190 11370 ey
11370 13060 s
13060 14060 dcl
14060 14950 jh
14950 16375 ih
16375 17963 m
17963 20135 z
20135 21389 f
21389 23436 ow
23436 25650 m
25650 27697 s
27697 28370 kcl
28370 28780 k
28780 29700 uh
29700 30160 l
30160 31390 pcl
31390 33190 ch
33190 34680 axr
34680 35425 ix
35425 36344 n
36344 36929 ax
36929 38135 bcl
38135 38340 b
38340 41560 aa
41560 42940 kcl
42940 43315 k
43315 46323 s
