2199 2513 n
2513 5305 ow
5305 6870 z
6870 7590 ax
7590 9357 s
9357 10190 kcl
10190 10710 k
10710 12741 ao
12741 13994 r
13994 15240 ix
15240 16450 th
16450 17340 ax
17340 19090 s
19090 19800 ax
19800 21218 pcl
21218 22120 p
22120 22906 r
22906 24480 iy
24480 25854 m
25854 26674 q
26674 28449 eh
28449 30260 f
30260 31832 axr
31832 33038 tcl
33038 34244 pau
34244 35330 hh
35330 36320 iy
36320 37380 bcl
37380 37800 b
37800 38520 r
38520 39960 ow
39960 40740 kcl
40740 41240 k
41240 42006 ix
42006 42274 dx
42274 46600 ao
46600 49400 f
