2847 3344 w
3344 4340 ix
4340 6060 s
6060 8610 ao
8610 11160 ey
11160 12420 tcl
12420 13075 t
13075 15582 ay
15582 15903 nx
15903 17671 iy
17671 19885 ay
19885 21765 s
21765 22760 ih
22760 23820 kcl
23820 24230 k
24230 25065 ax
25065 25900 l
25900 26940 z
26940 28365 bcl
28365 28604 b
28604 29535 el
29535 31958 ow
31958 33462 aa
33462 34506 axr
34506 36177 r
36177 38600 uw
38600 43480 f
