2220 3430 k
3430 4929 ow
4929 6934 aa
6934 8220 pcl
8220 8700 p
8700 10527 axr
10527 13140 ey
13140 15030 sh
15030 15640 ix
15640 16292 n
16292 17378 l
17378 20280 ao
20280 20920 ng
20920 21320 w
21320 22120 ax
22120 23520 th
23520 25441 ah
25441 26040 nx
26040 27590 axr
27590 29480 s
29480 29769 tcl
29769 30480 t
30480 33640 ae
33640 34040 nx
34040 35960 ih
35960 36560 ng
36560 37325 ix
37325 39400 q
39400 41168 el
41168 43758 iy
43758 44761 v
44761 46480 iy
46480 48200 ey
48200 49790 tcl
49790 50140 d
50140 51000 ih
51000 53000 s
53000 54160 pcl
54160 54449 p
54449 55486 y
55486 57560 ux
57560 59020 tcl
59020 60120 t
