2440 2786 w
2786 3480 iy
3480 5000 s
5000 5471 kcl
5471 5806 k
5806 8522 aw
8522 9640 axr
9640 10520 l
10520 11880 ih
11880 12280 dx
12280 13720 axr
13720 14440 tcl
14440 16120 ch
16120 17400 er
17400 19216 f
19216 19720 ix
19720 20680 dh
20680 23160 eh
23160 25160 m
25160 29869 pau
29869 30760 hh
30760 32146 ih
32146 32840 r
32840 33796 w
33796 35000 iy
35000 36920 f
36920 39400 ay
39400 40240 n
40240 40680 dcl
40680 42778 s
42778 43237 tcl
43237 43720 t
43720 45800 ao
45800 46840 r
46840 47918 dcl
47918 48241 dh
48241 48868 ix
48868 49870 w
49870 51480 ih
51480 52544 z
52544 52962 dcl
52962 53560 d
53560 54040 ax
54040 55240 m
55240 56053 ax
56053 57000 v
57000 57599 gcl
57599 58267 g
58267 58964 r
58964 60356 ey
60356 61400 tcl
61400 62120 m
62120 65560 ay
65560 66873 n
66873 67374 dcl
67374 69400 z
