2013 2430 dh
2430 2840 ax
2840 4200 pcl
4200 4790 p
4790 6266 ey
6266 7020 pcl
7020 7280 p
7280 8223 axr
8223 9262 bcl
9262 9460 b
9460 11989 oy
11989 13370 bcl
13370 13599 b
13599 16543 ao
16543 18580 tcl
18580 19860 t
19860 21221 ux
21221 24146 ae
24146 24960 pcl
24960 25490 p
25490 26903 el
26903 28211 z
28211 29360 en
29360 30078 epi
30078 30950 th
30950 32083 r
32083 33501 iy
33501 35950 ay
35950 37850 s
37850 39020 ix
39020 41450 z
