2111 2915 q
2915 5430 ay
5430 7436 ey
7436 7927 tcl
7927 9029 q
9029 10276 eh
10276 11802 v
11802 12365 r
12365 13554 iy
13554 16006 oy
16006 17427 s
17427 17960 tcl
17960 18548 t
18548 19843 axr
19843 21603 aa
21603 23318 n
23318 25232 ao
25232 26046 r
26046 26788 ax
26788 27738 z
27738 29080 pcl
29080 29800 p
29800 30360 l
30360 32286 ey
32286 34600 tcl
34600 36440 t
