2076 2466 w
2466 2924 iy
2924 3968 n
3968 6209 aw
6209 7150 dcl
7150 7814 jh
7814 8600 eh
8600 9023 nx
9023 10360 er
10360 11571 l
11571 14038 ay
14038 15498 z
15498 15798 dh
15798 17449 iy
17449 18239 z
18239 20022 ay
20022 21100 dcl
21100 21520 d
21520 23728 iy
23728 24760 ix
24760 26234 z
26234 27350 f
27350 28280 axr
28280 29167 dcl
29167 29994 jh
29994 30621 eh
30621 30955 nx
30955 32334 er
32334 32835 ax
32835 33841 l
33841 34760 bcl
34760 35077 b
35077 36261 ay
36261 37223 n
37223 38771 ow
38771 40058 m
40058 40647 iy
40647 41326 ix
41326 41991 l
41991 42440 ix
42440 43640 kcl
43640 43817 k
43817 44945 s
44945 45960 pcl
45960 46537 p
46537 48330 er
48330 49302 m
49302 50418 eh
50418 50835 n
50835 52460 tcl
52460 54370 s
