2116 2645 dh
2645 3061 ax-h
3061 3683 q
3683 4173 eh
4173 4531 nx
4531 5096 ih
5096 6050 m
6050 7341 iy
7341 8610 dcl
8610 8960 d
8960 10026 ih
10026 10763 dcl
10763 11488 n
11488 13470 aa
13470 14621 q
14621 15832 v
15832 17545 ih
17545 18966 r
