10193 10720 m
10720 12662 uw
12662 13660 v
13660 15810 iy
15810 16940 z
16940 18320 n
18320 20160 eh
20160 20929 v
20929 22520 axr
22520 23728 hv
23728 25480 ae
25480 26151 v
26151 26680 ax
26680 27613 n
27613 29033 ah
29033 31210 f
31210 32459 ih
32459 33336 l
33336 34440 ax
34440 35801 n
35801 37830 z
