2240 2813 y
2813 3960 ux
3960 4590 kcl
4590 5200 k
5200 5723 ix
5723 6480 n
6480 7900 bcl
7900 8100 b
8100 9666 ih
9666 10520 l
10520 11490 dcl
11490 11660 dh
11660 12750 ih
12750 14380 s
14380 15520 v
15520 17000 ey
17000 17760 kcl
17760 18660 k
18660 20650 ey
20650 22674 sh
22674 23661 en
23661 24540 kcl
24540 25420 k
25420 27560 aa
27560 27960 dx
27960 29000 ix
29000 29920 dcl
29920 31650 jh
31650 32173 y
32173 33220 axr
33220 35570 s
35570 37640 eh
37640 38680 l
38680 40200 f
