3049 3280 dh
3280 5472 ey
5472 7770 ao
7770 8480 l
8480 9280 ax
9280 10320 gcl
10320 10950 g
10950 12326 r
12326 15080 iy
15080 15850 dh
15850 17400 ae
17400 18484 tcl
18484 18945 dh
18945 20517 iy
20517 22090 eh
22090 24140 s
24140 26473 ey
26473 27640 ih
27640 28750 z
28750 30100 bcl
30100 30330 b
30330 32028 eh
32028 32877 r
32877 33629 l
33629 34966 iy
34966 35680 ix
35680 36428 n
36428 37270 tcl
37270 38300 t
38300 39770 eh
39770 40355 l
40355 41240 ax
41240 41910 dcl
41910 42793 jh
42793 43480 ax-h
43480 44239 bcl
44239 44495 b
44495 45874 el
