1135 2443 dh
2443 4219 ey
4219 5080 ah
5080 5842 n
5842 6130 dcl
6130 6349 d
6349 7590 er
7590 8644 s
8644 9390 tcl
9390 9790 t
9790 11420 uh
11420 12235 dcl
12235 14037 en
14037 14980 tcl
14980 15720 t
15720 18101 iy
18101 19160 z
19160 19680 dcl
19680 20320 m
20320 21668 iy
21668 22480 ix
22480 23490 bcl
23490 23860 b
23860 24856 ih
24856 26507 q
26507 27206 n
27206 27784 ax
27784 28560 bcl
28560 28760 b
28760 31240 aa
31240 31640 dx
31640 32599 ax
32599 33587 tcl
