2190 3140 d
3140 4219 r
4219 5973 ao
5973 7282 q
7282 8040 eh
8040 8600 v
8600 9148 r
9148 10026 iy
10026 11637 q
11637 13033 aw
13033 13409 dx
13409 15206 axr
15206 16751 l
16751 19200 ay
19200 19800 n
19800 22830 f
22830 26810 er
26810 28360 s
28360 28908 tcl
28908 29827 t
29827 34350 pau
34350 35380 dh
35380 37360 eh
37360 38242 n
38242 40270 f
40270 41419 ih
41419 42839 l
42839 44520 ih
44520 45840 n
45840 46290 dh
46290 47810 iy
47810 48720 ix
48720 49480 n
49480 50250 tcl
50250 51620 t
51620 52740 ih
52740 54662 r
54662 56082 iy
56082 57335 axr
