2220 3250 p
3250 3760 axr
3760 4320 m
4320 5480 ax
5480 5880 dx
5880 6516 ix
6516 7800 v
7800 8380 tcl
8380 10130 t
10130 11540 r
11540 14197 ay
14197 15040 bcl
15040 15386 b
15386 16800 z
16800 17900 hh
17900 19044 ae
19044 20320 v
20320 20712 ax
20712 21680 n
21680 22933 q
22933 23722 ah
23722 25790 pcl
25790 26150 b
26150 28040 iy
28040 28743 tcl
28743 30571 q
30571 32501 ae
32501 32793 dx
32793 33480 ax
33480 34980 tcl
34980 36100 t
36100 38280 ux
38280 39320 dcl
39320 39770 d
