2229 2631 w
2631 3795 iy
3795 4739 w
4739 5472 eh
5472 6280 l
6280 7315 kcl
7315 7858 k
7858 9984 em
9984 11112 eh
11112 11488 nx
11488 12826 iy
12826 13627 n
13627 14955 ux
14955 16459 s
16459 16793 tcl
16793 17378 t
17378 18800 ux
18800 19049 dx
19049 19992 ix
19992 20595 n
20595 21556 tcl
21556 22924 s
22924 24521 pau
24521 25619 iy
25619 26234 tcl
26234 27584 ch
27584 28031 y
28031 28993 ih
28993 30440 axr
