12070 13075 k
13075 14440 eh
14440 16040 n
16040 17462 iy
17462 18673 q
18673 20887 ey
20887 21410 dcl
21410 22600 jh
22600 23185 ix
23185 24355 n
24355 28210 s
28210 31122 iy
31122 32334 q
32334 34297 ow
34297 35509 v
35509 36929 axr
36929 40160 th
40160 41199 r
41199 43279 ow
43279 44699 q
44699 46788 ey
46788 47624 l
47624 49378 iy
49378 50255 ix
50255 51288 n
51288 53472 f
53472 54992 ao
54992 55728 r
55728 57566 s
57566 59250 ix
59250 62090 z
