2040 3080 p
3080 4344 ih
4344 5054 ng
5054 5640 gcl
5640 6360 g
6360 7293 w
7293 7853 ax
7853 9400 n
9400 10778 z
10778 11321 epi
11321 12323 l
12323 14161 ih
14161 15622 v
15622 16626 n
16626 18255 ih
18255 19216 ax
19216 20520 dh
20520 22140 ah
22140 23560 q
23560 25640 ay
25640 27560 s
27560 29159 iy
29159 30347 q
30347 31498 ae
31498 32501 n
32501 33336 q
33336 34715 aa
34715 35300 r
35300 36344 tcl
36344 36971 t
36971 37416 ix
37416 39394 kcl
39394 40647 k
