2040 2715 q
2715 4120 ae
4120 5138 z
5138 6285 kcl
6285 7937 k
7937 9984 ow
9984 12407 ao
12407 14161 th
14161 15960 axr
15960 16960 z
16960 17712 epi
17712 18214 w
18214 19400 iy
19400 20760 pcl
20760 21640 p
21640 22360 axr
22360 24040 z
24040 25480 eh
25480 25960 nx
25960 27160 ix
27160 27762 dcl
27762 27947 d
27947 29653 aa
29653 30360 r
30360 31960 n
31960 33378 ux
33378 35302 bcl
35302 35509 b
35509 37160 uh
37160 39560 kcl
39560 40146 t
40146 40520 ax-h
40520 42040 dh
42040 43480 ax
43480 44760 hh
44760 46560 ao
46560 46960 dx
46960 49015 iy
49015 50600 q
50600 52640 ao
52640 53040 dx
53040 54552 iy
54552 55430 ix
55430 56265 n
56265 57880 tcl
57880 62040 s
