2080 2629 q
2629 3116 y
3116 3760 ah
3760 4969 ng
4969 6040 pcl
6040 6940 p
6940 7979 iy
7979 9140 pcl
9140 9570 p
9570 11738 el
11738 14420 pcl
14420 15119 p
15119 15696 aa
15696 16280 r
16280 17030 tcl
17030 17570 t
17570 18050 ix
18050 19470 s
19470 19926 ix
19926 21094 pcl
21094 21740 p
21740 24200 ey
24200 25416 q
25416 26025 ix
26025 26814 n
26814 28360 ae
28360 29600 th
29600 29888 epi
29888 30849 l
30849 31800 eh
31800 32279 dx
32279 33160 ih
33160 34190 kcl
34190 34738 k
34738 35937 eh
35937 37530 kcl
37530 38150 t
38150 39060 ih
39060 39794 v
39794 40268 ix
40268 40756 dx
40756 42435 iy
42435 44450 z
