2236 3133 w
3133 4762 er
4762 6224 y
6224 7436 ux
7436 9190 ow
9190 10040 n
10040 10661 dcl
10661 10796 d
10796 12680 ux
12680 13075 dx
13075 14788 iy
14788 15874 hv
15874 16793 ih
16793 18120 er
18120 19080 tcl
19080 20040 t
20040 21054 ux
21054 22099 w
22099 23561 iy
23561 23895 kcl
23895 24229 k
24229 25400 s
25400 26120 ix
26120 26637 gcl
26637 26874 g
26874 30287 ow
