2040 2790 hh
2790 3820 ih
3820 5514 z
5514 6600 f
6600 7896 ih
7896 8648 ng
8648 8940 gcl
8940 9090 g
9090 10520 axr
10520 11948 z
11948 12950 f
12950 14283 ah
14283 14956 m
14956 15373 bcl
15373 15514 b
15514 16585 el
16585 17200 dx
17200 17880 ax
17880 18800 kcl
18800 19960 k
19960 20573 r
20573 21800 ao
21800 23360 s
23360 24250 dh
24250 24760 ax
24760 25647 bcl
25647 25820 b
25820 28160 ae
28160 29085 n
29085 29330 dcl
29330 29662 d
29662 30541 ix
30541 31510 dcl
31510 32050 jh
32050 33587 ih
33587 36094 z
