2190 2758 dh
2758 3510 ih
3510 4345 s
4345 5013 epi
5013 5687 m
5687 6989 ey
6989 8010 bcl
8010 8245 b
8245 9692 iy
9692 10200 ix
10200 11154 v
11154 12282 ow
12282 13577 v
13577 14454 axr
14454 15206 r
15206 16752 ay
16752 17128 dx
17128 17838 ix
17838 18680 ng
18680 19384 ih
19384 20040 m
20040 20690 pcl
20690 21850 p
21850 22559 ao
22559 23687 r
23687 24355 tcl
24355 25480 en
25480 26778 s
26778 27446 ix
27446 27882 n
27882 28490 kcl
28490 28940 k
28940 29410 ix
29410 30037 n
30037 31416 s
31416 31833 ix
31833 32627 dx
32627 33420 axr
33420 34047 ix
34047 35217 ng
35217 35969 m
35969 36512 ih
36512 37467 l
37467 38150 ax
38150 38950 tcl
38950 40010 t
40010 41316 er
41316 42277 iy
42277 42653 ix
42653 43920 bcl
43920 44370 jh
44370 46280 eh
46280 47560 kcl
47560 47940 t
47940 48872 ix
48872 49710 v
49710 51588 z
