3140 3900 k
3900 5305 ow
5305 6040 kcl
6040 6680 k
6680 7080 ix
7080 7800 n
7800 10067 ah
10067 11290 tcl
11290 12500 k
12500 13106 r
13106 14229 iy
14229 14978 m
14978 15880 pcl
15880 16540 p
16540 20075 ay
20075 21420 m
21420 22638 ey
22638 23320 kcl
23320 23519 k
23519 24772 s
24772 25640 ix
25640 26600 n
26600 29094 ay
29094 30380 s
30380 30895 dcl
30895 31630 d
31630 32459 ix
32459 34301 z
34301 37330 er
37330 38980 tcl
