2270 2610 b
2610 4200 ow
4200 5620 th
5620 6520 ix
6520 7270 kcl
7270 7920 k
7920 8467 ix
8467 9230 n
9230 9730 dcl
9730 9930 d
9930 11400 ih
11400 12700 sh
12700 12966 epi
12966 13973 ix
13973 14800 n
14800 15520 z
15520 16720 eh
16720 17865 n
17865 18210 dh
18210 19080 eh
19080 20290 kcl
20290 21260 k
21260 21753 ax
21753 22651 m
22651 23210 pcl
23210 24240 p
24240 24546 l
24546 25160 ih
25160 26639 s
26639 27390 ix
27390 28005 dx
28005 30060 iy
30060 31118 q
31118 31826 aa
31826 32360 r
32360 33395 dcl
33395 33750 d
33750 35718 aa
35718 37000 kcl
37000 37693 k
37693 38712 m
38712 39560 eh
39560 39960 nx
39960 41386 ih
41386 41760 dx
41760 42759 ix
42759 43817 n
43817 44490 kcl
44490 45080 k
45080 45480 ax
45480 46126 n
46126 46570 tcl
46570 47901 s
47901 48780 ix
48780 49120 dx
49120 50226 axr
50226 51209 v
51209 52840 el
52840 53970 dcl
53970 54380 d
54380 55965 iy
55965 56880 tcl
56880 58030 t
58030 59666 ey
59666 60435 l
