2103 2860 v
2860 3320 y
3320 4328 eh
4328 5053 tcl
5053 5440 n
5440 6240 ix
6240 7063 m
7063 8589 iy
8589 10057 s
10057 11290 kcl
11290 12683 k
12683 13080 w
13080 13720 ih
13720 15470 s
15470 18960 iy
18960 19891 n
19891 21597 ix
21597 22610 z
22610 23320 ix
23320 24010 kcl
24010 24396 k
24396 25760 s
25760 26390 kcl
26390 26940 k
26940 27571 w
27571 28320 ih
28320 28940 z
28940 30110 ix
30110 31340 tcl
