2800 3853 r
3853 5960 aa
5960 6810 kcl
6810 7190 k
7190 7880 ix
7880 8563 n
8563 10067 r
10067 12306 ow
12306 13640 l
13640 14520 m
14520 15480 y
15480 17275 ux
17275 17940 z
17940 19160 ix
19160 20100 kcl
20100 20553 k
20553 21570 hv
21570 23190 ae
23190 24080 z
24080 24920 ix
24920 25830 gcl
25830 26410 g
26410 27673 r
27673 29201 ey
29201 30120 q
30120 31373 r
31373 32360 ih
32360 33432 dh
33432 34285 ax
34285 36401 m
