2080 3000 ix
3000 3480 n
3480 5320 eh
5320 6200 v
6200 6786 r
6786 7960 iy
7960 8920 m
8920 10840 ey
10840 11460 dcl
11460 12330 jh
12330 13160 axr
13160 14340 kcl
14340 15860 k
15860 16533 l
16533 17879 ow
17879 19080 v
19080 20135 axr
20135 21000 l
21000 22600 iy
22600 24280 f
24280 31400 pau
31400 32830 t
32830 33526 r
33526 34920 ae
34920 36230 f
36230 36560 ix
36560 37360 kcl
37360 37556 k
37556 38970 s
38970 40000 ah
40000 40880 m
40880 41860 tcl
41860 42580 t
42580 44720 aa
44720 45706 m
45706 47000 z
47000 47630 gcl
47630 48020 g
48020 48840 eh
48840 49470 tcl
49470 50340 s
50340 51800 bcl
51800 52057 b
52057 54120 ae
54120 55800 kcl
55800 56220 t
56220 58280 ah
58280 59220 pcl
