2160 2720 ax
2720 3820 kcl
3820 4860 k
4860 6159 ao
6159 6809 r
6809 7227 dx
7227 7853 iy
7853 8563 gcl
8563 9050 dcl
9050 9315 d
9315 9800 ix
9800 11080 m
11080 13117 ay
13117 13600 ih
13600 14280 n
14280 15390 tcl
15390 16590 t
16590 17640 axr
17640 18200 pcl
18200 18760 p
18760 19400 ix
19400 20120 tcl
20120 21240 t
21240 23050 ey
23050 24630 sh
24630 25566 en
25566 26720 ax
26720 27380 dh
27380 28200 ix
28200 29160 pcl
29160 29994 p
29994 31009 r
31009 33040 aa
33040 33503 bcl
33503 33838 b
33838 34757 em
34757 42340 pau
42340 43450 t
43450 44849 ux
44849 46019 l
46019 48560 ay
48560 49440 n
49440 50531 z
50531 51533 m
51533 52460 ah
52460 53560 s
53560 54541 bcl
54541 54792 b
54792 55480 iy
55480 56680 pcl
56680 57460 p
57460 58840 axr
58840 59763 pcl
59763 60097 p
60097 60557 ix
60557 61267 n
61267 62030 dcl
62030 62290 d
62290 63400 ih
63400 64059 kcl
64059 64830 k
64830 65480 ux
65480 66386 l
66386 67575 axr
