5550 6976 s
6976 7540 tcl
7540 7895 t
7895 9640 ey
9640 9948 tcl
9948 10701 n
10701 11530 ah
11530 12587 m
12587 13284 r
13284 13798 ix
13798 14663 ng
14663 15415 l
15415 18211 ao
18211 19050 z
19050 19570 dcl
19570 20183 d
20183 21013 ih
21013 22347 f
22347 22812 axr
22812 23644 q
23644 24880 f
24880 25286 r
25286 26569 em
26569 27619 iy
27619 28620 tcl
28620 29451 ch
29451 30872 ah
30872 31520 dh
31520 32835 axr
32835 33781 q
33781 34214 ix
34214 36140 m
36140 37118 eh
37118 37730 n
37730 38707 iy
38707 40522 w
40522 43365 ey
43365 45480 z
