2290 2956 t
2956 3379 ax
3379 4500 pcl
4500 5130 p
5130 7240 aa
7240 7936 gcl
7936 8904 axr
8904 10535 f
10535 11113 ix
11113 18360 pau
18360 18883 t
18883 19480 ax
19480 20350 pcl
20350 20990 p
20990 22840 aa
22840 23478 gcl
23478 24524 axr
24524 25850 f
25850 27504 iy
27504 28421 q
28421 29633 ix
29633 30872 z
30872 31880 v
31880 33587 eh
33587 35258 r
35258 36520 ix
36520 37515 q
37515 38252 ix
38252 39060 m
39060 39880 pcl
39880 41240 p
41240 43240 ao
43240 43690 tcl
43690 44352 t
44352 45462 en
45462 47080 tcl
47080 47480 t
