3160 4200 k
4200 5389 aw
5389 5877 n
5877 6235 tcl
6235 6680 dh
6680 7052 ax
7052 7920 n
7920 8647 ah
8647 9638 m
9638 9770 b
9770 10680 axr
10680 11021 v
11021 11880 tcl
11880 13000 t
13000 14200 iy
14200 15240 s
15240 15800 pcl
15800 16600 p
16600 18920 uw
18920 19843 n
19843 20440 z
20440 21389 ax
21389 21848 v
21848 23640 s
23640 25880 oy
25880 27720 s
27720 29953 ao
29953 30680 s
30680 31640 dh
31640 33378 ae
33378 34297 q
34297 34840 y
34840 36428 ux
36428 38440 ae
38440 39379 dcl
