3640 3880 dh
3880 4520 ax
4520 5720 l
5720 7174 eh
7174 7644 dcl
7644 8193 jh
8193 9160 ix
9160 11000 s
11000 11533 l
11533 12600 ey
12600 13080 tcl
13080 14200 ch
14200 15080 er
15080 16040 m
16040 17754 eh
17754 18680 tcl
18680 19425 t
19425 19801 ax-h
19801 20680 dcl
20680 21240 jh
21240 23240 ah
23240 23640 dcl
23640 24480 jh
24480 25065 dh
25065 25817 ix
25817 27240 s
27240 27640 tcl
27640 28120 t
28120 29660 ey
29660 30287 dx
30287 30704 ax
30704 31206 v
31206 32520 pcl
32520 33211 p
33211 34120 ah
34120 34798 bcl
34798 35320 l
35320 35960 ix
35960 38120 kcl
38120 38680 ix
38680 39400 dcl
39400 40438 jh
40438 40856 ax-h
40856 41524 kcl
41524 42509 k
42509 44040 ey
44040 45480 sh
45480 46440 en
