2100 2320 b
2320 3469 er
3469 3738 th
3738 4350 dcl
4350 4660 d
4660 5960 ey
5960 7010 pcl
7010 7490 p
7490 8568 aa
8568 9107 r
9107 9960 dx
9960 11470 iy
11470 12490 z
12490 12908 hh
12908 14203 eh
14203 15000 v
15000 15740 kcl
15740 16490 k
16490 17400 ah
17400 18690 pcl
18690 19640 k
19640 21221 ey
21221 21910 kcl
21910 22138 k
22138 23260 s
23260 23728 ix
23728 24104 nx
24104 26130 ay
26130 27440 s
27440 27910 kcl
27910 28360 k
28360 28946 r
28946 30120 iy
30120 31368 m
