1821 2300 dh
2300 2720 ix
2720 4120 pcl
4120 4610 p
4610 6190 ey
6190 7420 sh
7420 8000 ix
8000 8431 n
8431 8760 tcl
8760 9098 t
9098 9534 q
9534 10040 eh
10040 10610 n
10610 10817 dh
10817 11440 ax
11440 13180 s
13180 14840 er
14840 15270 dcl
15270 16066 jh
16066 16541 ix
16541 17073 nx
17073 18130 axr
18130 19320 bcl
19320 19550 b
19550 21560 ow
21560 23250 th
23250 23644 axr
23644 24540 kcl
24540 25420 k
25420 26200 uw
26200 27200 pcl
27200 27516 p
27516 28115 r
28115 29240 eh
29240 29800 dx
29800 30663 ix
30663 31240 ng
31240 32330 f
32330 32793 axr
32793 33503 m
33503 33838 dh
33838 34946 ix
34946 35718 l
35718 36887 eh
36887 37597 ng
37597 38890 th
38890 40355 iy
40355 41274 ah
41274 42024 pcl
42024 42261 p
42261 43655 er
43655 45720 ey
45720 47056 sh
47056 48287 en
