2040 3400 t
3400 4360 ux
4360 5514 m
5514 6800 eh
6800 7120 nx
7120 8680 iy
8680 10151 hv
10151 11362 eh
11362 12200 v
12200 13160 bcl
13160 13480 b
13480 16040 ao
16040 17480 gcl
17480 17960 d
17960 20720 aw
20720 21221 n
21221 21640 ix
21640 23268 n
23268 24120 bcl
24120 24400 b
24400 25400 ih
25400 25800 kcl
25800 26440 k
26440 27864 axr
27864 28574 ix
28574 29720 ng
