2200 4200 s
4200 4804 ix
4804 5560 v
5560 6809 ih
6809 7686 r
7686 8814 m
8814 10903 ay
10903 12323 ow
12323 12920 pcl
12920 13800 p
13800 14746 iy
14746 15880 ax
15880 16520 kcl
16520 17320 k
17320 18214 en
18214 18560 tcl
18560 19640 t
19640 20261 r
20261 21096 ih
21096 22120 ux
22120 22516 tcl
22516 23480 t
23480 24360 ix
24360 25320 dcl
25320 26600 t
26600 27488 ux
27488 29242 r
29242 31749 aa
31749 32520 n
32520 33963 z
33963 35091 q
35091 35801 ih
35801 36680 n
36680 38280 f
38280 38851 ih
38851 39770 r
39770 41190 ih
41190 42610 ao
42610 43488 axr
43488 43947 dx
43947 45320 iy
45320 45640 kcl
45640 46520 k
46520 47822 aa
47822 48600 m
48600 49080 pcl
49080 49758 p
49758 50520 l
50520 51800 eh
51800 52337 kcl
52337 54520 s
