2954 3263 d
3263 4469 ao
4469 5263 l
5263 6546 f
6546 7352 ix
7352 7937 n
7937 8939 z
8939 9733 aa
9733 10443 r
10443 10819 ix
10819 11530 n
11530 11822 tcl
11822 12699 t
12699 13618 eh
13618 14370 l
14370 14955 ax
14955 15206 dcl
15206 15874 jh
15874 17127 ix
17127 17629 n
17629 18381 q
18381 18757 m
18757 19592 axr
19592 20971 r
20971 22266 iy
22266 23227 n
23227 24689 m
24689 26109 ae
26109 26694 m
26694 29242 el
29242 30872 z
