3400 6040 s
6040 6475 ix
6475 7561 m
7561 9148 eh
9148 9650 n
9650 10193 tcl
10193 11000 t
11000 11880 ix
11880 12760 z
12760 14120 m
14120 15800 eh
15800 16626 zh
16626 17800 er
17800 18200 dx
18200 18840 ix
18840 20440 n
20440 20804 kcl
20804 22266 k
22266 22653 y
22653 23352 ux
23352 23880 bcl
23880 24939 ih
24939 25440 kcl
25440 26040 k
26040 26694 y
26694 28449 aa
28449 30120 er
30120 30920 dcl
30920 31206 d
31206 32937 z
