2200 2520 dh
2520 3091 ax
3091 3640 gcl
3640 4280 g
4280 5472 ah
5472 6440 v
6440 8313 em
8313 9232 ix
9232 9775 n
9775 10485 tcl
10485 11906 s
11906 13963 ao
13963 16976 q
16976 18600 ao
18600 20120 th
20120 20920 r
20920 22120 ih
22120 23240 z
23240 25566 ey
25566 27320 sh
27320 27906 ix
27906 28800 n
28800 29869 ax
29869 30788 v
30788 31791 hv
31791 32758 ih
32758 34840 s
34840 35509 ih
35509 35801 dx
35801 37160 ih
37160 38840 z
38840 40600 en
40600 42440 sh
42440 43760 ih
43760 44900 pcl
