2280 3560 iy
3560 4900 q
4900 5556 y
5556 6308 er
6308 7720 r
7720 10360 ey
10360 11000 z
11000 13159 en
13159 13994 z
13994 15409 q
15409 16751 aw
16751 18120 tcl
18120 18482 d
18482 20553 ao
20553 21720 r
21720 23000 z
23000 24146 ah
24146 24875 n
24875 25005 dh
25005 26120 ax
26120 27100 pcl
27100 27720 p
27720 28699 ao
28699 29640 r
29640 30280 tcl
30280 31707 ch
31707 32119 s
32119 32520 tcl
32520 33000 t
33000 34920 eh
34920 36596 pcl
36596 39000 s
