2040 2760 dh
2760 3240 ix
3240 4200 tcl
4200 5480 t
5480 6057 r
6057 7268 ae
7268 7759 dcl
7759 8280 jh
8280 9080 ix
9080 10040 kcl
10040 10360 k
10360 11738 s
11738 12520 tcl
12520 12920 t
12920 16760 ey
16760 18280 dcl
18280 19300 jh
19300 22270 pau
22270 22642 ix
22642 23880 z
23880 25240 ey
25240 26339 pcl
26339 27400 p
27400 27864 l
27864 29272 ae
29272 31160 tcl
31160 32279 f
32279 33253 ao
33253 33899 r
33899 34715 m
34715 35120 ix
35120 36680 kcl
36680 37054 k
37054 38266 s
38266 39000 tcl
39000 39560 t
39560 40936 eh
40936 41733 n
41733 42861 ix
42861 43938 eng
43938 45080 pcl
45080 45623 p
45623 46076 r
46076 46360 ix
46360 47400 kcl
47400 48440 k
48440 49160 eh
49160 50918 r
50918 51670 iy
51670 52600 ix
52600 54636 s
54636 55560 epi
55560 56390 l
56390 58047 ix
58047 62424 pau
62424 63112 b
63112 63566 ix
63566 63952 tcl
63952 65147 t
65147 65706 w
65706 66277 ih
66277 67210 n
67210 68118 hv
68118 69383 eh
69383 70385 v
70385 70984 ax
70984 71561 nx
71561 72600 ax
72600 73985 n
73985 75109 hv
75109 77320 eh
77320 79560 l
