2244 2438 q
2438 4052 ae
4052 5430 tcl
5430 5800 dh
5800 7394 ax
7394 9200 l
9200 12087 eh
12087 14200 f
14200 15000 q
15000 16040 ih
16040 17480 z
17480 18520 ix
18520 19800 pcl
19800 20600 p
20600 22516 eh
22516 23436 r
23436 24527 ax
24527 26360 v
26360 27237 dcl
27237 28073 d
28073 29159 r
29159 30440 eh
30440 32279 s
32279 33690 iy
33690 35640 s
35640 36052 tcl
36052 37183 t
37183 37880 r
37880 39480 ao
39480 40814 pcl
40814 42027 p
42027 44600 ah
44600 45160 m
45160 45663 pcl
45663 45955 p
45955 47584 s
47584 49041 q
49041 49800 ih
49800 50647 n
50647 51960 ax
51960 53600 l
53600 57080 ay
57080 58906 tcl
58906 64360 pau
64360 64680 b
64680 65975 ah
65975 67508 tcl
67508 67794 t
67794 68778 kcl
68778 70680 k
70680 71426 r
71426 72920 ih
72920 77160 s
77160 78040 pcl
78040 83008 pau
83008 84520 t
84520 86040 eh
86040 87160 kcl
87160 87546 k
87546 90009 s
90009 90301 tcl
90301 91700 ch
91700 93560 er
