3240 3720 dh
3720 4678 ax
4678 6516 m
6516 10652 ey
10652 12194 ng
12194 12489 gcl
12489 12859 g
12859 17838 ow
17838 18958 pau
18958 19759 q
19759 22742 ae
22742 23477 n
23477 24058 dh
24058 24916 ax
24916 26234 pcl
26234 27028 p
27028 27765 ax
27765 29033 pcl
29033 30360 p
30360 34130 ay
34130 35509 y
35509 37239 ax
37239 39359 q
39359 40647 aa
40647 41346 r
41346 43298 q
43298 45159 ih
45159 46138 n
46138 46670 q
46670 47880 ah
47880 49640 bcl
49640 49880 b
49880 54840 ow
