2224 2920 d
2920 4052 ix
4052 5080 y
5080 7480 ux
7480 9160 hh
9160 11446 ih
11446 13635 axr
13635 15320 dh
15320 16440 ix
16440 19476 s
19476 20466 l
20466 22600 ey
22600 23840 bcl
23840 24125 b
24125 26485 eh
26485 28600 l
28600 30537 z
30537 31916 r
31916 33280 ey
33280 33840 ng
33840 36219 iy
36219 37480 ng
