5400 5906 d
5906 6725 r
6725 8563 ao
8563 9232 q
9232 10234 eh
10234 11112 v
11112 12240 r
12240 13994 iy
13994 15560 aw
15560 15880 dx
15880 17420 er
17420 18590 l
18590 20971 ay
20971 21880 n
21880 22920 f
22920 25960 er
25960 27362 s
27362 28280 tcl
28280 28520 dh
28520 30412 eh
30412 31720 n
31720 32840 f
32840 34040 ih
34040 34798 l
34798 35880 ix
35880 36839 n
36839 37000 dh
37000 38226 iy
38226 38725 ix
38725 39770 n
39770 40160 tcl
40160 40840 t
40840 41942 ih
41942 42800 r
42800 44281 ih
44281 47035 axr
