2297 4474 s
4474 5639 pcl
5639 5988 p
5988 7101 r
7101 8020 ih
8020 9320 ng
9320 11560 s
11560 11857 tcl
11857 12644 t
12644 13994 r
13994 16000 iy
16000 16809 tcl
16809 17744 q
17744 18840 ih
18840 21107 s
21107 21500 tcl
21500 22099 t
22099 23060 r
23060 24280 ey
24280 24680 dx
24680 25733 ih
25733 27373 hv
27373 30872 eh
30872 31831 dcl
31831 33587 d
