2040 3640 ch
3640 5080 eh
5080 6760 kcl
6760 7320 k
7320 8520 dh
8520 10569 iy
10569 12760 ow
12760 13720 v
13720 15080 axr
15080 15960 n
15960 18600 ay
18600 19007 dx
19007 21560 er
21560 22760 z
22760 23332 ax
23332 24862 q
24862 27613 aw
27613 29480 tcl
29480 31480 t
