4177 4678 d
4678 5138 ix
5138 5880 dh
5880 8355 ey
8355 9232 ax
9232 10318 l
10318 13250 aw
13250 15286 q
15286 17086 ey
17086 18798 th
18798 19843 iy
19843 20595 ix
20595 22851 s
22851 23770 ix
23770 24438 n
24438 25148 tcl
25148 26760 ch
26760 29160 er
29160 30440 tcl
30440 32375 ch
