2840 3820 f
3820 4920 ih
4920 5418 l
5418 6110 dh
6110 8280 ae
8280 9030 tcl
9030 10130 k
10130 11240 eh
11240 12040 n
12040 12770 tcl
12770 13840 t
13840 15400 iy
15400 16040 n
16040 16520 w
16520 17480 uh
17480 18300 tcl
18300 18757 t
18757 20010 f
20010 20526 r
20526 21560 eh
21560 23960 sh
23960 24590 pcl
24590 25020 p
25020 25493 r
25493 26440 ih
26440 27613 ng
27613 28546 w
28546 30040 ao
30040 30440 dx
30440 32360 axr
