2120 2520 b
2520 3386 r
3386 5120 ey
5120 5760 n
5760 6760 ix
6760 7310 gcl
7310 7680 g
7680 8520 z
8520 10819 ae
10819 11237 m
11237 11906 ix
11906 12950 n
12950 13660 dcl
13660 14280 f
14280 15000 axr
15000 17336 th
17336 17921 r
17921 19091 aa
19091 19840 m
19840 20600 bcl
20600 20800 b
20800 23240 ow
23240 24680 s
24680 25800 ix
25800 27080 s
27080 27655 kcl
27655 28920 k
28920 29773 l
29773 31480 aa
31480 31880 dx
31880 33080 axr
33080 34005 hv
34005 35174 eh
35174 36093 m
36093 36502 r
36502 37320 ix
37320 39320 dcl
39320 40520 jh
