1960 2280 d
2280 3320 ux
3320 4360 y
4360 5840 ux
5840 6800 hv
6800 8213 ih
8213 8920 r
8920 9640 dh
9640 10520 ix
10520 12680 s
12680 13453 l
13453 15000 ey
15000 16280 bcl
16280 16501 b
16501 18433 eh
18433 19400 l
19400 20520 zh
20520 21306 r
21306 22880 ih
22880 23520 ng
23520 24229 ix
24229 24840 n
