1800 2600 r
2600 4680 aa
4680 5440 kcl
5440 5920 k
5920 6600 ix
6600 7477 n
7477 8229 r
8229 9524 ow
9524 10193 l
10193 11320 m
11320 12085 y
12085 13618 ux
13618 14360 z
14360 15720 ix
15720 16520 kcl
16520 17560 hh
17560 18680 eh
18680 19400 z
19400 20360 ix
20360 20920 gcl
20920 21400 g
21400 22333 r
22333 24200 ey
24200 25240 q
25240 26040 r
26040 27560 ih
27560 28280 dh
28280 29080 ax
29080 29800 m
