1032 2385 hh
2385 4418 uw
4418 5550 tcl
5550 6830 t
6830 7770 uh
7770 8162 kcl
8162 9072 k
9072 9880 dh
9880 10502 ix
10502 11430 kcl
11430 12500 k
12500 15456 ay
15456 17706 ae
17706 19050 kcl
19050 19320 k
19320 19800 dcl
19800 19960 d
19960 22600 aw
22600 24197 n
24197 24377 dh
24377 25095 ax
25095 26173 bcl
26173 26352 b
26352 29827 ay
29827 31958 y
31958 33838 ux
