2193 2558 q
2558 4386 aa
4386 5639 l
5639 6475 hv
6475 7969 eh
7969 8790 v
8790 9487 ix
9487 11430 s
11430 12240 kcl
12240 12680 k
12680 14120 ux
14120 15450 pcl
15450 15720 p
15720 16903 ah
16903 17794 v
17794 18467 dcl
18467 18670 d
18670 20974 ae
20974 21519 dx
21519 22440 ix
22440 22880 gcl
22880 23263 g
23263 24480 z
24480 27000 aa
27000 27400 dx
27400 28281 ix
28281 29090 kcl
29090 29360 k
29360 30780 pcl
30780 31750 p
31750 33227 er
33227 34700 pcl
34700 35060 p
35060 36806 el
36806 37762 q
37762 38352 ix
38352 39532 n
39532 40450 tcl
40450 41490 t
41490 43147 er
43147 44520 kcl
44520 45430 k
45430 47350 oy
47350 49857 sh
49857 51640 axr
51640 52440 bcl
52440 52750 b
52750 54890 axr
54890 56780 tcl
