2297 2760 ix
2760 3342 tcl
3342 3680 t
3680 5400 s
5400 5880 tcl
5880 6440 t
6440 8775 ih
8775 9942 l
9942 10945 q
10945 12031 ah
12031 12741 n
12741 13284 bcl
13284 13451 b
13451 14788 el
14788 16600 iy
16600 17480 v
17480 18360 ax
18360 19383 bcl
19383 19634 b
19634 22760 el
22760 25240 pau
25240 25880 dh
25880 26760 eh
26760 27240 dx
27240 28520 ih
28520 29480 q
29480 29826 w
29826 30520 ax
30520 31720 z
31720 32125 epi
32125 32960 m
32960 35160 er
35160 35720 dx
35720 37480 axr
