2924 3705 hh
3705 4852 ow
4852 5596 pcl
5596 5821 p
5821 6622 tcl
6622 7161 t
7161 7680 ax-h
7680 10121 s
10121 11864 iy
11864 13159 y
13159 14746 uw
14746 15540 ax
15540 16565 gcl
16565 16905 g
16905 20678 eh
20678 21922 n
