1960 2503 dh
2503 3560 ih
3560 5347 s
5347 6099 ix
6099 7907 z
7907 9691 iy
9691 10360 ix
10360 11320 tcl
11320 12712 t
12712 14576 aa
14576 15448 m
15448 16120 ix
16120 17000 kcl
17000 17420 k
17420 19800 s
19800 22120 ah
22120 23708 n
23708 25107 iy
25107 25800 ix
25800 26760 tcl
26760 28280 t
28280 30280 aa
30280 31122 m
31122 31960 ix
31960 33478 kcl
33478 34631 n
34631 36840 ux
36840 38558 kcl
38558 39205 k
39205 39561 l
39561 41190 iy
41190 42680 ix
42680 46892 s
