2400 3960 sh
3960 4520 ix
4520 5480 tcl
5480 6390 t
6390 7068 uh
7068 7690 kcl
7690 8220 k
8220 9160 ih
9160 9942 tcl
9942 10443 g
10443 11446 r
11446 12774 ah
12774 13208 dcl
13208 13900 jh
13900 14760 ix
14760 15498 n
15498 16835 l
16835 18590 iy
18590 20010 pau
20010 21310 hh
21310 22057 axr
22057 22892 dcl
22892 23100 d
23100 24813 aa
24813 25720 r
25720 26450 kcl
26450 26960 k
26960 30280 ay
30280 31270 z
31270 32300 bcl
32300 32626 b
32626 34046 ey
34046 35200 l
35200 37130 f
37130 38983 el
38983 40480 ax
40480 41680 z
41680 41980 dh
41980 43058 ey
43058 44160 m
44160 45760 eh
45760 46107 tcl
46107 46525 t
46525 47320 hh
47320 50370 ih
50370 51990 z
