1648 2798 r
2798 4000 ih
4000 4940 tcl
4940 5840 ch
5840 7510 pcl
7510 8170 p
8170 9960 er
9960 12090 sh
12090 12820 ix
12820 15770 s
15770 17169 eh
17169 18040 v
18040 18840 r
18840 20610 el
20610 22670 s
22670 26067 ay
26067 26736 n
26736 27947 l
27947 29080 ih
29080 30770 th
30770 31240 ax
31240 31880 gcl
31880 32480 g
32480 33400 r
33400 35240 ae
35240 35770 f
35770 38170 s
