2442 3367 m
3367 4845 ao
4845 5520 r
5520 7920 ao
7920 8376 f
8376 9542 tcl
9542 9832 t
9832 10259 ix
10259 11915 n
11915 13222 iy
13222 14515 z
14515 16966 ao
16966 18255 f
18255 18670 ax-h
18670 20600 s
20600 21263 ix
21263 22557 z
22557 23686 axr
23686 24187 r
24187 25080 iy
25080 26713 sh
26713 27178 tcl
27178 27903 t
27903 28407 r
28407 29320 ih
29320 30343 kcl
30343 31033 t
31033 31433 ax-h
31433 32397 tcl
32397 33172 t
33172 33800 ix
33800 34672 dh
34672 35140 ix
35140 36386 gcl
36386 36634 g
36634 38776 ae
38776 39561 dh
39561 40731 axr
40731 41733 ix
41733 42402 ng
42402 43656 ix
43656 44705 v
44705 46185 em
46185 47096 pcl
47096 47742 p
47742 48501 ix
48501 49253 r
49253 50200 ix
50200 51098 kcl
51098 51417 k
51417 52543 el
52543 53456 dcl
53456 53775 d
53775 55808 ey
55808 56324 dx
56324 57029 ax
