3695 4425 hv
4425 5160 w
5160 6920 ay
6920 7774 hv
7774 8984 iy
8984 9963 z
9963 10372 gcl
10372 10760 g
10760 12912 oy
12912 14084 ng
14084 14303 dcl
14303 14440 d
14440 15202 ix
15202 16073 kcl
16073 16920 k
16920 17879 ih
17879 18760 l
18760 19764 m
19764 21311 iy
21311 22481 hv
22481 23480 ih
23480 24391 epi
24391 25010 th
25010 27240 ao
27240 27697 q
27697 28631 w
28631 30913 aa
30913 31574 l
31574 32062 dcl
32062 32528 d
32528 33253 l
33253 34719 iy
