2165 2522 p
2522 3226 ax
3226 4600 bcl
4600 4786 b
4786 5556 l
5556 6876 ih
6876 8547 s
8547 9103 ix
9103 9812 dcl
9812 10000 d
10000 11900 iy
11900 13535 ae
13535 15070 n
15070 17545 ow
17545 18088 r
18088 20311 ay
20311 21486 eh
21486 22063 dcl
22063 22216 d
22216 23341 iy
23341 24207 gcl
24207 24618 g
24618 26402 ow
26402 27446 hv
27446 29384 ae
29384 30279 n
30279 30525 dcl
30525 30673 d
30673 31386 ix
31386 32300 n
32300 33334 hv
33334 35776 ae
35776 36276 n
36276 36606 dcl
