3701 4511 y
4511 5426 ux
5426 6558 dcl
6558 7114 d
7114 8638 ux
8638 9429 dh
9429 12287 ae
12287 13240 tcl
13240 13610 q
13610 14454 ao
14454 15194 r
15194 16501 tcl
16501 17462 t
17462 18600 ey
18600 19306 kcl
19306 20149 k
20149 20887 y
20887 21973 uw
21973 24029 ah
24029 24405 tcl
24405 24946 q
24946 25817 ax
25817 27082 pcl
27082 28428 p
28428 29400 er
29400 30440 m
30440 31840 ih
31840 32181 tcl
32181 33050 t
33050 34422 r
34422 35968 ay
35968 36867 tcl
36867 37836 n
37836 43433 aw
