2360 2740 dh
2740 4356 iy
4356 5973 ow
5973 6725 v
6725 7686 axr
7686 9023 w
9023 11080 ey
11080 12180 tcl
12180 13535 ch
13535 15345 aa
15345 16250 r
16250 16626 m
16626 18040 axr
18040 19450 kcl
19450 20030 k
20030 20600 ix
20600 21215 dcl
21215 21459 d
21459 22960 s
22960 23352 l
23352 24520 ih
24520 25920 pcl
25920 26960 p
26960 29750 oy
29750 31200 z
31200 32292 en
32292 33844 ih
33844 34267 n
34267 34684 tcl
34684 35258 t
35258 35843 ix
35843 36428 q
36428 37221 ih
37221 37765 n
37765 38760 iy
38760 39629 w
39629 40770 ah
40770 41902 n
41902 43440 z
43440 43760 tcl
43760 44360 t
44360 47421 iy
