2040 2760 t
2760 3960 ah
3960 4835 gcl
4835 5200 b
5200 7144 ow
7144 7436 tcl
7436 7677 t
7677 8840 s
8840 9880 axr
9880 10440 kcl
10440 11400 k
11400 12760 ey
12760 13160 pcl
13160 13800 p
13800 14680 ax
14680 15200 bcl
15200 15616 b
15616 17169 el
17169 18314 ax
18314 18985 v
18985 19560 hh
19560 21687 ao
21687 22725 l
22725 23828 ix
23828 24520 ng
24520 25746 hv
25746 26402 y
26402 27655 ux
27655 29671 zh
29671 30746 l
30746 33400 ow
33400 34520 dcl
34520 34798 d
34798 36840 z
