2107 2710 w
2710 3049 ix
3049 3889 n
3889 5806 ao
5806 6851 l
6851 7812 eh
7812 8814 l
8814 10160 s
10160 11278 f
11278 13994 ey
13994 15960 l
15960 17378 z
17378 18066 y
18066 19258 ux
19258 20356 z
20356 21400 f
21400 23533 ao
23533 24600 r
24600 27028 s
