2120 3195 jh
3195 4553 ao
4553 6016 r
6016 6319 dcl
6319 6920 jh
6920 7800 ix
7800 8600 z
8600 9320 pcl
9320 10120 p
10120 11967 er
11967 12479 ix
12479 13253 n
13253 16400 oy
16400 16720 dx
16720 17320 ix
17320 18160 bcl
18160 18320 b
18320 20440 aw
20440 20840 dx
20840 21800 ix
21800 24898 f
24898 25960 ux
25960 26480 tcl
26480 27560 ch
27560 28840 axr
28840 29560 gcl
29560 29960 g
29960 32599 ae
32599 34520 sh
34520 35800 ao
35800 36440 r
36440 37000 dx
37000 38440 ix
38440 39000 dcl
39000 40605 jh
