3320 3490 dh
3490 4386 axr
4386 5514 r
5514 8300 ay
8300 8859 dcl
8859 9833 z
9833 10474 w
10474 11308 axr
11308 12040 tcl
12040 13188 t
13188 15344 ey
15344 16126 m
16126 16780 ix
16780 17800 n
17800 20614 aa
20614 23551 f
23551 27279 pau
27279 27728 m
27728 29985 ow
29985 31938 s
31938 32300 l
32300 33337 ix
33337 34464 w
34464 35387 iy
35387 36250 tcl
36250 37484 t
37484 41080 ao
41080 43360 kcl
43360 44699 t
