2120 2359 d
2359 3843 ao
3843 4760 l
4760 6090 f
6090 6480 ax
6480 8000 n
8000 8910 z
8910 10026 aa
10026 10945 r
10945 12000 axr
12000 12680 n
12680 13940 tcl
13940 14830 t
14830 15665 eh
15665 16584 l
16584 17400 ax
17400 17990 dcl
17990 18570 jh
18570 19513 ih
19513 19847 n
19847 21360 q
21360 22480 m
22480 24772 axr
24772 26880 iy
26880 27840 n
27840 28680 m
28680 30840 ae
30840 31880 m
31880 33620 el
33620 35940 z
