2760 3533 q
3533 4600 ih
4600 5520 z
5520 6976 ih
6976 7460 dcl
7460 8230 d
8230 9246 r
9246 11280 iy
11280 12580 m
12580 14260 s
14260 15280 ih
15280 15801 m
15801 16580 pcl
16580 17310 p
17310 18130 l
18130 19550 ix
19550 20520 ax
20520 21968 m
21968 23480 eh
23480 24040 nx
24040 26527 el
26527 29099 hv
29099 29702 q
29702 30872 ao
30872 31580 r
31580 33211 s
33211 34046 axr
34046 35258 r
35258 37102 iy
37102 38300 bcl
38300 38560 b
38560 39394 r
39394 40921 el
40921 41960 m
41960 43800 uw
43800 45000 v
45000 47355 iy
