1665 2139 dh
2139 2882 ax
2882 4440 s
4440 6360 ey
6360 7080 m
7080 8760 sh
8760 9900 eh
9900 10736 l
10736 11070 dx
11070 12520 axr
12520 13320 kcl
13320 14280 k
14280 14680 uh
14680 15400 dcl
15400 15817 b
15817 16680 iy
16680 17560 bcl
17560 18013 b
18013 19091 ix
19091 20678 l
20678 21597 ix
21597 22182 n
22182 22809 tcl
22809 23644 t
23644 24480 uw
24480 24920 ix
24920 25640 n
25640 26402 ix
26402 27496 m
27496 28360 bcl
28360 28720 b
28720 30496 ey
30496 30913 ng
30913 32317 kcl
32317 32835 m
32835 33295 ax
33295 33671 nx
33671 35560 ao
35560 36520 bcl
36520 36929 b
36929 37560 ax
37560 38520 l
38520 40360 ow
40360 41080 gcl
41080 41733 g
41733 42569 r
42569 44961 aw
44961 45904 n
45904 46340 dcl
46340 46925 l
46925 47551 eh
47551 48094 v
48094 49974 el
