2200 3160 t
3160 4177 eh
4177 4760 n
4760 5556 y
5556 6433 ih
6433 7640 r
7640 8600 z
8600 9240 ix
9240 9640 gcl
9640 9960 g
9960 11960 ow
11960 12520 dh
12520 13800 ey
13800 14840 bcl
14840 15160 b
15160 15665 l
15665 17127 uw
17127 18760 ah
18760 19560 pcl
19560 19920 p
19920 21080 s
21080 21800 ah
21800 22349 m
22349 23640 ah
23640 24355 v
24355 25773 aa
25773 26520 r
26520 27080 dcl
27080 27560 d
27560 28741 ih
28741 29409 tcl
29409 30537 ch
30537 32360 ix
32360 35640 s
