2040 2302 b
2302 3320 ah
3320 3800 dx
3800 4790 axr
4790 6726 s
6726 7550 kcl
7550 7930 k
7930 10598 aa
10598 11430 tcl
11430 12810 ch
12810 14870 f
14870 17963 ah
17963 18760 dcl
18760 19849 jh
19849 20219 gcl
20219 20580 g
20580 23002 ah
23002 24362 z
24362 24880 epi
24880 26047 w
26047 28282 eh
28282 29117 l
29117 30204 w
30204 30760 ax
30760 32134 th
32134 32801 v
32801 33400 ix
33400 34120 n
34120 35133 ih
35133 36345 l
36345 39645 ay
39645 41180 s
41180 42230 kcl
42230 43490 k
43490 44406 r
44406 46140 iy
46140 46993 m
