2040 2680 w
2680 3693 ih
3693 4200 l
4200 5240 bcl
5240 5514 b
5514 7640 ow
7640 8600 th
8600 9640 bcl
9640 9760 b
9760 11240 iy
11240 12520 bcl
12520 12760 b
12760 13618 l
13618 15749 ow
15749 16626 ih
16626 17320 ng
17320 17960 tcl
17960 18920 t
18920 22475 aw
22475 22892 n
22892 23268 tcl
23268 23880 t
23880 25400 em
25400 27400 ao
27400 28520 r
28520 30120 ow
30120 31960 s
31960 32960 ow
32960 33796 w
33796 34506 ix
34506 35926 w
35926 37430 ow
37430 37890 n
37890 38840 q
38840 39143 b
39143 40280 iy
40280 41691 m
41691 43070 uw
43070 44120 v
44120 44760 iy
44760 46280 ng
46280 47604 ih
47604 48120 n
48120 50403 ao
50403 51281 n
51281 52283 y
52283 54120 ux
