2040 2920 jh
2920 4971 ao
4971 6760 er
6760 7720 dcl
7720 8480 jh
8480 10600 s
10600 11822 eh
11822 12699 l
12699 13117 dcl
13117 13412 d
13412 13953 ax
13953 15248 m
15248 16167 w
16167 17960 aa
17960 18520 tcl
18520 20135 ch
20135 21160 ix
21160 22280 z
22280 22840 dcl
22840 23160 d
23160 25560 ey
25560 26120 tcl
26120 27560 t
27560 29640 ay
29640 31582 m
31582 33462 uw
33462 34506 v
34506 36760 iy
36760 39080 z
