2080 2422 w
2422 2741 ax
2741 3381 n
3381 4382 q
4382 6349 ao
6349 7320 l
7320 8179 q
8179 9560 eh
9560 10445 l
10445 12320 s
12320 13530 f
13530 16960 ey
16960 18243 l
18243 20550 z
20550 23320 pau
23320 24731 y
24731 26151 ux
26151 28073 z
28073 29490 f
29490 31498 ao
31498 32700 r
32700 36100 s
