2160 3342 r
3342 5096 aa
5096 6061 bcl
6061 6892 m
6892 8880 ey
8880 9293 dcl
9293 10443 hv
10443 11481 ah
11481 12155 ng
12155 12770 gcl
12770 13130 g
13130 14203 eh
14203 15832 r
15832 17760 iy
17760 18338 n
18338 19230 gcl
19230 19730 g
19730 21180 ux
21180 22057 l
22057 23979 aa
23979 25600 sh
25600 26590 f
26590 27040 axr
27040 28140 dcl
28140 28490 d
28490 30120 ih
30120 30600 nx
30600 32623 er
32623 38440 pau
38440 38822 q
38822 39201 ix
39201 40080 n
40080 41120 gcl
41120 41490 g
41490 43125 ux
43125 44260 s
44260 45370 bcl
45370 45702 b
45702 47135 er
47135 48040 iy
48040 49250 pcl
49250 50240 p
50240 52984 ay
52984 54820 f
54820 55555 axr
55555 56450 dcl
56450 56689 d
56689 57220 ix
57220 58864 z
58864 61577 er
61577 62980 q
