2084 3030 hh
3030 4466 ix
4466 5430 r
5430 7240 iy
7240 7630 tcl
7630 9441 ch
9441 9984 epi
9984 10693 w
10693 11780 ah
11780 12190 n
12190 13470 s
13470 14440 epi
14440 15183 m
15183 17169 ao
17169 18673 r
18673 19300 en
19300 19550 dcl
19550 19968 d
19968 20840 ax
20840 21750 dh
21750 22520 ix
22520 23650 kcl
23650 24355 k
24355 25533 aa
25533 26200 r
26200 26870 pcl
26870 27270 p
27270 27620 ix
27620 29702 tcl
29702 29911 b
29911 32931 ae
32931 33451 gcl
33451 33760 g
33760 34464 em
34464 36087 bcl
36087 36280 b
36280 36595 r
36595 38182 ao
38182 38475 dx
38475 39255 ah
39255 40110 pcl
40110 40410 p
40410 41106 ax
41106 42620 pcl
42620 43220 p
43220 45160 ae
45160 46287 k
46287 46840 ix
46840 47540 dcl
47540 48060 jh
48060 48730 ax
48730 49400 v
49400 50985 w
50985 52440 iy
52440 52840 nx
52840 55748 axr
55748 58505 s
