2206 2654 m
2654 5226 ay
5226 5780 en
5780 7268 s
7268 7640 tcl
7640 8474 t
8474 9000 r
9000 10280 ah
10280 10610 kcl
10610 11940 sh
11940 12560 ix
12560 13510 n
13510 14240 z
14240 15450 dcl
15450 15780 d
15780 17480 eh
17480 18400 s
18400 19520 pcl
19520 20080 p
20080 20680 axr
20680 21731 q
21731 22466 l
22466 23480 ix
23480 24657 n
24657 26914 iy
26914 27446 dcl
27446 28190 q
28190 29937 ah
29937 31820 pcl
31820 31980 d
31980 34411 ey
34411 34834 dx
34834 36072 eng
