2940 3320 dh
3320 4040 ax
4040 6130 f
6130 7640 ih
7640 8480 gcl
8480 9053 y
9053 10200 er
10200 12200 f
12200 15708 aa
15708 16600 v
16600 17240 ix
17240 18460 z
18460 19175 ax
19175 19880 m
19880 21180 pcl
21180 22320 p
22320 23320 ao
23320 23880 r
23880 24200 dx
24200 25483 eh
25483 26319 n
26319 27530 ix
27530 28491 n
28491 29830 ix
29830 30965 n
30965 32836 sh
32836 34451 axr
34451 35258 ax
35258 35760 n
35760 37460 tcl
37460 37681 t
37681 39050 s
