2080 2821 q
2821 4040 ay
4040 5930 tcl
5930 7210 t
7210 8200 uh
8200 8920 kcl
8920 9430 k
9430 10030 hh
10030 11697 er
11697 13242 w
13242 14840 er
14840 15788 dcl
15788 16208 d
16208 17510 f
17510 18798 ao
18798 20920 axr
20920 22640 tcl
22640 24370 pau
24370 24530 b
24530 25120 ax
25120 25480 dx
25480 26820 ih
26820 29190 sh
29190 30036 iy
30036 31874 r
31874 32626 ih
32626 33169 l
33169 34280 ih
34280 35010 gcl
35010 35400 g
35400 36971 ow
36971 38040 ih
38040 38880 ng
38880 39720 w
39720 40520 ih
40520 41917 th
41917 43295 y
43295 44840 uw
