1160 2280 hh
2280 3960 aw
3960 5400 pcl
5400 6350 p
6350 7371 er
7371 8565 m
8565 9400 ah
9400 10040 n
10040 11280 eh
11280 11968 n
11968 13378 q
13378 14454 aa
14454 15373 r
15373 16240 dh
16240 17503 eh
17503 19300 r
19300 20720 eh
20720 21700 kcl
21700 22310 k
22310 23560 axr
23560 24920 dcl
24920 25524 d
25524 27560 s
