2600 2880 n
2880 4517 ow
4517 5181 q
5181 6809 ae
6809 7000 n
7000 8063 t
8063 8480 ax-h
8480 9275 jh
9275 10611 ih
10611 11590 n
11590 12867 w
12867 13911 ah
13911 14202 z
14202 14580 dcl
14580 15206 d
15206 15540 ax-h
15540 16167 tcl
16167 17050 t
17050 18715 eh
18715 19426 kcl
19426 19802 t
19802 20360 ax-h
20360 21040 bcl
21040 21270 b
21270 22308 el
22308 22960 ax
22960 24210 n
24210 26200 s
26200 28105 er
28105 28583 tcl
28583 30192 en
30192 30990 dcl
30990 31265 d
31265 33253 ao
33253 34920 r
34920 36562 kcl
36562 38851 s
38851 39812 f
39812 40606 ih
40606 41880 er
41880 42480 kcl
42480 43170 k
43170 45004 el
45004 46163 q
46163 47118 eh
47118 48471 r
48471 49557 iy
49557 51219 ah
51219 52376 z
52376 53528 en
53528 54640 m
54640 56690 ow
56690 58920 s
58920 61405 eh
61405 63983 l
63983 65917 z
