2520 2750 dh
2750 3815 iy
3815 5054 eh
5054 6570 s
6570 8563 ey
8563 9538 q
9538 10360 ah
10360 10760 nx
10760 11320 ix
11320 12040 nx
12040 14997 ay
14997 15720 bcl
15720 15958 b
15958 16584 l
16584 17169 iy
17169 18760 axr
18760 20780 f
20780 21681 l
21681 22505 eh
22505 23350 kcl
23350 23600 k
23600 24480 s
24480 25399 aa
25399 26521 r
26521 28040 v
28040 29660 y
29660 30680 ux
30680 31242 q
31242 33240 ey
33240 33987 bcl
33987 34263 b
34263 35759 l
35759 36760 iy
