10400 10730 dh
10730 11655 ax
11655 13660 w
13660 14866 ih
14866 15640 l
15640 16626 ah
16626 17838 w
17838 19216 iy
19216 20971 w
20971 22120 uh
22120 23040 m
23040 24240 ix
24240 25080 n
25080 26760 w
26760 28657 ao
28657 30830 ey
30830 32473 m
32473 33990 ah
33990 35560 s
35560 36150 kcl
36150 36700 k
36700 37680 r
37680 39640 ae
39640 41170 tcl
41170 42020 k
42020 44920 ow
44920 47780 tcl
