2160 2720 ix
2720 3820 n
3820 5400 s
5400 7320 ay
7320 7750 kcl
7750 8760 k
8760 8973 l
8973 9720 ax
9720 10660 pcl
10660 11280 p
11280 12490 iy
12490 13080 dx
13080 14496 iy
14496 15900 ix
15900 18090 s
18090 19666 eh
19666 20440 l
20440 20900 dx
20900 21760 ax
21760 22528 m
22528 23170 pcl
23170 23840 p
23840 24226 r
24226 25480 ix
25480 26400 z
26400 28198 eh
28198 28600 n
28600 29535 tcl
29535 30873 q
30873 32200 ae
32200 32599 nx
32599 33921 ax
33921 35040 dcl
35040 35280 d
35280 37680 ow
37680 38140 dx
38140 40229 el
40229 42040 q
42040 42931 eh
42931 44059 v
44059 44644 ax
44644 45266 dx
45266 46360 ix
46360 47097 n
47097 47840 tcl
47840 50250 s
