2184 3007 w
3007 4040 ay
4040 4600 n
4600 6150 ah
6150 6600 tcl
6600 8128 ch
8128 9023 r
9023 10569 ay
10569 11482 n
11482 12783 ah
12783 13700 dh
13700 14360 axr
14360 15248 kcl
15248 16584 k
16584 17693 l
17693 20200 ah
20200 21460 bcl
