3120 3818 r
3818 4040 ix
4040 5182 m
5182 6200 eh
6200 7103 m
7103 7577 bcl
7577 8200 axr
8200 8950 tcl
8950 10040 t
10040 11404 uw
11404 12114 ax
12114 13201 l
13201 16167 aw
16167 18422 ay
18422 19430 dcl
19430 19740 d
19740 21221 eh
21221 21472 nx
21472 22461 ah
22461 23170 kcl
23170 24030 k
24030 25000 el
25000 26170 tcl
26170 27800 t
27800 29116 w
29116 31039 ih
31039 31980 n
31980 33249 z
33249 33813 tcl
33813 34329 t
34329 34874 ax-h
34874 35502 q
35502 36950 eh
36950 37430 nx
37430 38760 axr
38760 40940 f
40940 41975 r
41975 43327 iy
43327 44576 l
44576 45480 iy
