2580 3000 dh
3000 4680 eh
4680 6040 tcl
6040 6400 b
6400 7060 r
7060 8187 ih
8187 9510 ng
9510 10320 z
10320 11240 ih
11240 12600 z
12600 13710 pcl
13710 14420 p
14420 15540 axr
15540 16280 y
16280 17629 ih
17629 19080 axr
19080 20220 kcl
20220 21660 k
21660 24680 ao
24680 26480 s
26480 28920 tcl
28920 29140 d
29140 32449 aw
32449 33404 n
33404 35300 q
35300 37765 m
37765 40200 ay
40200 40600 dx
40600 41816 iy
41816 43069 l
43069 45800 ow
