5091 5740 dh
5740 7656 ae
7656 8410 tcl
8410 8829 t
8829 10683 s
10683 11480 tcl
11480 11900 t
11900 13201 ih
13201 13744 ng
13744 15498 iy
15498 17080 ng
17080 18040 v
18040 20203 ey
20203 21260 pcl
21260 21790 p
21790 22934 axr
22934 23960 w
23960 25190 ix
25190 26200 z
26200 26900 kcl
26900 27960 k
27960 30760 ao
30760 31440 z
31440 32800 dcl
32800 33030 b
33030 34880 ay
34880 36240 kcl
36240 37470 k
37470 38266 l
38266 39477 ao
39477 40939 r
40939 42920 ay
42920 44189 dcl
44189 44560 v
44560 46280 ey
46280 47320 pcl
47320 47960 p
47960 48520 r
48520 49880 ix
49880 50820 z
50820 53410 ey
53410 55200 sh
55200 56046 ix
56046 56906 n
