2160 2800 n
2800 6510 ow
6510 8344 sh
8344 9023 ix
9023 9691 w
9691 10474 ix
10474 10884 dcl
10884 11680 n
11680 13720 aa
13720 14396 tcl
14396 15147 p
15147 15756 axr
15756 16680 tcl
16680 17460 t
17460 18798 eh
18798 19671 n
19671 19882 d
19882 20132 ix
20132 21101 m
21101 23320 aa
23320 23720 dx
23720 24840 eh
24840 26151 s
26151 26760 tcl
26760 27100 t
27100 28920 iy
28920 31560 pau
31560 31840 b
31840 32603 ix
32603 33341 q
33341 34072 n
34072 35354 iy
35354 35919 dh
35919 37426 axr
37426 38516 m
38516 40020 ah
40020 42050 sh
42050 42920 iy
42920 43360 bcl
43360 43760 b
43760 44960 iy
44960 45820 kcl
45820 47000 k
47000 47613 r
47613 48469 ux
48469 49046 dcl
49046 49668 d
49668 50160 l
50160 50920 iy
50920 51960 bcl
51960 52160 b
52160 54586 ow
54586 55800 l
55800 56280 dcl
56280 56920 d
