4000 5263 y
5263 6391 ux
6391 8187 l
8187 9960 ah
9960 10740 kcl
10740 11613 k
11613 12453 ix
12453 13930 kcl
13930 15650 k
15650 17640 ih
17640 18900 dcl
18900 20678 s
20678 21610 hh
21610 23320 iy
23320 25530 s
25530 28600 eh
28600 30700 dcl
