2129 3133 r
3133 4732 aa
4732 5590 kcl
5590 5950 k
5950 7143 en
7143 8246 r
8246 9826 ow
9826 10840 l
10840 12114 m
12114 13213 y
13213 14370 ux
14370 15640 z
15640 16520 ix
16520 17160 kcl
17160 17879 k
17879 18490 hh
18490 19780 eh
19780 20870 z
20870 21480 ix
21480 22870 gcl
22870 23460 g
23460 24400 r
24400 26280 ey
26280 28301 q
28301 29746 r
29746 31081 ih
31081 32095 dh
32095 32960 ax
32960 34134 m
