2120 3215 k
3215 4344 eh
4344 5320 n
5320 5597 dh
5597 6642 iy
6642 8640 ey
8640 9190 dcl
9190 9960 jh
9960 10567 ix
10567 11165 n
11165 13284 s
13284 14400 iy
14400 15404 q
15404 16925 ow
16925 17949 v
17949 18840 axr
18840 21054 th
21054 21765 r
21765 23455 ow
23455 24890 q
24890 26443 ey
26443 27530 l
27530 28908 iy
28908 29772 ih
29772 30652 n
30652 32401 f
32401 33884 ao
33884 34593 r
34593 36280 s
36280 37800 ix
37800 39848 z
