2266 2891 ax
2891 3880 kcl
3880 5400 k
5400 6573 ao
6573 7160 r
7160 7392 dx
7392 8271 iy
8271 9037 ng
9037 9441 tcl
9441 9817 t
9817 10326 ix
10326 11702 m
11702 14161 ay
14161 14788 ix
14788 15518 n
15518 16041 tcl
16041 17480 t
17480 18120 er
18120 19550 pcl
19550 20120 axr
20120 20840 tcl
20840 22840 t
22840 24280 ey
24280 26153 sh
26153 27000 en
27000 28130 ah
28130 28840 v
28840 29284 dh
29284 29800 ax
29800 31320 pcl
31320 32920 p
32920 33671 r
33671 35400 aa
35400 36161 bcl
36161 37180 l
37180 38349 ax
38349 40005 m
40005 45960 pau
45960 47720 t
47720 49080 ux
49080 50182 l
50182 54520 ay
54520 55320 n
55320 56399 z
56399 57314 epi
57314 58200 m
58200 59000 ah
59000 60360 s
60360 61520 bcl
61520 61754 b
61754 63000 iy
63000 64518 pcl
64518 65320 p
65320 66120 er
66120 67320 pcl
67320 67686 p
67686 68814 en
68814 69400 dcl
69400 69800 d
69800 71237 ih
71237 72280 kcl
72280 72950 k
72950 73293 y
73293 73720 ix
73720 74200 l
74200 76040 axr
