2210 2810 dh
2810 3640 ix
3640 4870 kcl
4870 6080 k
6080 9274 ay
9274 11400 ow
11400 12412 tcl
12412 14630 pau
14630 14933 b
14933 17560 aa
17560 19590 bcl
19590 21230 k
21230 23960 ae
23960 25424 tcl
25424 26572 q
26572 27008 ix
27008 27912 n
27912 28380 ax
28380 29535 hv
29535 32584 ay
32584 35319 iy
35319 35934 n
35934 38120 ah
38120 41800 pau
41800 42305 q
42305 43129 aa
43129 43844 r
43844 45719 w
45719 48668 ay
48668 50120 l
50120 50645 dcl
50645 50850 d
50850 53120 q
53120 54928 ae
54928 55614 n
55614 56313 ax
56313 57711 m
57711 58782 el
58782 60060 epi
60060 62710 s
