2120 2893 r
2893 4440 ih
4440 5054 tcl
5054 6809 ch
6809 7320 epi
7320 8438 l
8438 9817 uh
9817 11822 kcl
11822 12281 t
12281 14440 f
14440 15560 axr
15560 17320 s
17320 18687 pcl
18687 18924 p
18924 20680 aa
20680 21160 dx
21160 22600 ih
22600 23101 dcl
23101 23561 d
23561 24689 hv
24689 26652 ay
26652 27697 y
27697 28520 iy
28520 29240 n
29240 31240 ah
31240 33800 z
33800 37960 pau
37960 38767 hh
38767 39185 ix
39185 39929 n
39929 40360 dcl
40360 41400 jh
41400 43800 ae
43800 44520 gcl
44520 45242 w
45242 47400 aa
47400 48120 z
48120 49574 en
49574 51245 dh
51245 53560 s
53560 54040 ax
54040 55640 f
55640 58097 aa
58097 59320 r
59320 60360 iy
