2297 2590 b
2590 3258 ix
3258 4120 kcl
4120 5240 k
5240 6600 eh
6600 8040 f
8040 8480 el
8480 9640 n
9640 11240 aa
11240 12200 tcl
12200 12449 t
12449 12908 ax-h
12908 14120 pcl
14120 15400 p
15400 15999 l
15999 18214 aw
18214 20428 ow
20428 21160 v
21160 22120 axr
22120 23080 dh
23080 23800 ix
23800 25859 f
25859 26652 l
26652 28616 aw
28616 29640 axr
29640 31039 bcl
31039 31296 b
31296 33560 eh
33560 34520 dcl
34520 34882 d
34882 35718 z
