2440 2840 dh
2840 3640 ix
3640 5800 th
5800 7143 ih
7143 8229 kcl
8229 8689 k
8689 9524 q
9524 10485 eh
10485 11237 l
11237 12440 m
12440 14280 f
14280 15840 ao
15840 16960 r
16960 17960 ih
17960 18966 s
18966 19800 epi
19800 20428 w
20428 21096 ax
21096 22440 z
22440 23060 n
23060 25107 ih
25107 26234 l
26234 28198 iy
28198 29075 q
29075 30203 ow
30203 31289 v
31289 32208 axr
32208 33080 w
33080 34882 eh
34882 35885 l
35885 37240 m
37240 37760 dcl
37760 37880 b
37880 39640 ay
39640 41080 dcl
41080 41560 d
41560 43240 ah
43240 45100 sh
45100 46478 q
46478 47523 eh
47523 48191 l
48191 49319 m
49319 49904 dcl
49904 50071 d
50071 51080 ix
51080 52600 z
52600 56421 iy
56421 58920 z
