2680 3310 hh
3310 6490 aw
6490 10443 oy
10443 11848 l
11848 13409 iy
13409 14200 dcl
14200 14529 d
14529 15055 ix
15055 16068 y
16068 17086 ux
17086 17712 l
17712 19759 ay
19759 20560 kcl
20560 21196 k
21196 21606 y
21606 22408 axr
22408 24320 s
24320 26844 ae
26844 27806 l
27806 28600 ix
28600 29387 dcl
29387 30150 d
30150 31080 r
31080 32419 ah
32419 33900 s
33900 35614 eng
