2040 2757 q
2757 3509 ax
3509 4860 l
4860 7520 ow
7520 8410 n
8410 10819 s
10819 11240 tcl
11240 11480 t
11480 13284 aa
13284 14688 r
14688 17040 sh
17040 20680 ow
20680 21080 nx
21080 21793 ix
21793 22928 n
22928 24487 iy
24487 27057 er
27057 28574 l
28574 31697 iy
31697 32717 v
32717 33462 n
33462 34308 ix
34308 35220 ng
35220 37419 s
37419 37960 kcl
37960 38340 k
38340 42569 ay
