2199 2693 m
2693 4469 ay
4469 5277 ix
5277 5950 n
5950 7937 s
7937 8408 tcl
8408 9100 t
9100 9706 r
9706 10736 ah
10736 11470 kcl
11470 11780 k
11780 13210 sh
13210 13880 ax
13880 15581 n
15581 17081 z
17081 17607 dcl
17607 17950 d
17950 19720 eh
19720 21491 s
21491 22447 pcl
22447 22866 p
22866 24174 er
24174 25283 q
25283 26193 l
26193 27528 iy
27528 28754 n
28754 31493 iy
31493 31961 dx
31961 33400 ah
33400 35262 pcl
35262 35685 d
35685 38440 ey
38440 39200 dx
39200 40074 ix
40074 40939 ng
