2190 3640 k
3640 5973 aa
5973 7227 r
7227 9608 l
9608 11559 ih
11559 12320 v
12320 13678 s
13678 14360 ih
14360 14760 nx
14760 16292 ah
16292 17762 l
17762 20720 ay
20720 21597 v
21597 22633 l
22633 23865 ix
23865 25140 hv
25140 28104 ow
28104 29242 m
