1720 2360 b
2360 3322 ay
3322 3658 q
3658 4971 iy
4971 5556 dx
5556 6759 iy
6759 7436 ng
7436 8772 y
8772 10679 ow
10679 11118 gcl
11118 11371 g
11371 13784 er
13784 14579 q
14579 15003 y
15003 16173 m
16173 17749 ey
17749 19147 l
19147 20595 ih
20595 21880 v
21880 22642 l
22642 25063 ao
25063 25725 ng
25725 25935 gcl
25935 26346 g
26346 27694 axr
