2040 3560 k
3560 3843 l
3843 4680 ih
4680 5096 f
5096 6371 s
6371 7080 dcl
7080 7640 d
7640 8040 ix
8040 9566 s
9566 10977 pcl
10977 11281 p
11281 12440 l
12440 14136 ey
14136 15360 w
15360 16280 ax
16280 17680 z
17680 18456 m
18456 18898 ax-h
18898 19968 s
19968 21160 pcl
21160 21880 p
21880 22573 l
22573 23960 ey
23960 24907 s
24907 25320 tcl
25320 25880 t
25880 26903 ah
26903 28000 n
28000 28600 ax
28600 30663 s
30663 31367 kcl
31367 32008 k
32008 33266 r
33266 34685 iy
34685 35653 n
