2350 4850 s
4850 6920 ae
6920 7400 dx
7400 8146 ax
8146 9357 l
9357 12120 ay
12120 13190 tcl
13190 13612 t
13612 16760 s
16760 18040 pcl
18040 18416 p
18416 19478 ah
19478 20963 q
20963 21840 n
21840 23320 ix
23320 24765 kcl
24765 24960 k
24960 27470 s
27470 28540 pau
28540 29560 r
29560 31240 aa
31240 32509 kcl
32509 33140 k
33140 33800 ix
33800 35180 tcl
35180 35676 t
35676 38920 s
38920 44400 pau
44400 44550 b
44550 45420 ax
45420 47186 l
47186 49640 uw
49640 51700 n
51700 53560 z
53560 57527 pau
57527 58280 w
58280 59331 ah
59331 60407 tcl
60407 61120 n
61120 63000 eh
63000 64660 kcl
64660 64879 k
64879 66120 s
66120 66680 tcl
66680 67400 t
