2715 3467 y
3467 5160 eh
5160 7080 s
7080 7853 y
7853 9800 eh
9800 11720 s
11720 12608 epi
12608 13033 w
13033 13800 el
13800 14788 l
14788 15958 eh
15958 16668 tcl
16668 17406 y
17406 18297 ux
18297 19216 n
19216 22224 ow
