2214 2508 w
2508 3097 ix
3097 4206 th
4206 5239 eh
5239 5912 n
5912 7018 iy
7018 7979 l
7979 9691 ah
9691 10682 kcl
10682 11070 k
11070 11571 ix
11571 12148 dx
12148 14047 ao
14047 14997 l
14997 15832 hv
15832 17002 iy
17002 17629 kcl
17629 18147 k
18147 18763 ix
18763 19116 dx
19116 21386 iy
21386 22575 z
22575 23096 l
23096 24139 iy
24139 26109 f
26109 28183 ay
28183 28876 n
28876 29034 d
29034 29483 ix
29483 31515 f
31515 32512 l
32512 34506 aw
34506 35888 axr
35888 37203 pcl
37203 37806 p
37806 41122 aa
41122 42110 tcl
