3503 3881 d
3881 6057 ay
6057 8647 ae
8647 9566 n
9566 10513 m
10513 11940 ey
11940 13409 s
13409 14800 pcl
14800 15111 p
15111 16173 l
16173 18440 er
18440 19130 dcl
19130 20443 jh
20443 21480 em
21480 21830 bcl
21830 22075 b
22075 24400 aa
24400 25420 tcl
25420 26580 t
26580 27320 axr
27320 28510 kcl
28510 29250 k
29250 31730 oy
31730 33253 z
33253 33920 n
33920 35440 eh
35440 36680 kcl
36680 37350 k
37350 37798 l
37798 38580 ax
38580 42680 s
