2090 2560 b
2560 4960 ey
4960 5718 dh
5718 7040 ih
7040 8529 ng
8529 8784 dh
8784 9442 ih
9442 10541 q
10541 11479 ih
11479 12570 tcl
12570 14488 ch
14488 15280 ix
15280 17075 ng
17075 17930 pcl
17930 19260 p
19260 21765 aa
21765 23720 r
23720 24650 tcl
24650 24940 t
24940 26361 s
26361 26725 w
26725 27320 ax
27320 28200 th
28200 29480 kcl
29480 30710 k
30710 31810 ih
31810 33504 r
33504 34172 ih
34172 36567 s
36567 38610 iy
38610 40001 n
40001 40800 gcl
40800 41210 g
41210 43087 ey
43087 44684 v
44684 45587 r
45587 46088 ih
46088 47560 l
47560 50978 iy
50978 53095 f
53095 54328 q
54328 55000 eh
55000 55599 nx
55599 57869 aa
57869 58800 l
58800 60800 s
60800 62200 ow
62200 63580 kcl
63580 64690 k
64690 65939 ih
65939 66695 l
66695 68390 dcl
68390 68770 dh
68770 69498 ix
69498 70550 pcl
70550 71740 p
71740 74920 eh
74920 78138 s
78138 78730 tcl
78730 79480 t
