1800 2280 dh
2280 3720 ih
3720 5240 s
5240 5817 dcl
5817 6140 d
6140 8760 aa
8760 9480 kcl
9480 10360 t
10360 10679 r
10679 11320 ix
11320 12490 n
12490 13660 w
13660 14920 ah
14920 16440 z
16440 17044 r
17044 17560 iy
17560 18920 pcl
18920 19592 p
19592 21480 ah
21480 21960 gcl
21960 22475 g
22475 23185 n
23185 25023 ix
25023 25524 n
25524 26109 tcl
26109 28365 pau
28365 29409 t
29409 29827 ix
29827 30872 m
30872 32584 ay
32584 33754 m
33754 35091 ao
35091 36052 r
36052 37400 el
37400 39640 s
39640 42440 eh
42440 43584 n
43584 44084 tcl
44084 45713 s
