2040 2199 dh
2199 3160 ax
3160 4177 l
4177 6360 ey
6360 6760 dx
6760 8360 iy
8360 9399 z
9399 10736 q
10736 16292 ay
16292 17587 z
17587 19320 pau
19320 19720 q
19720 22440 aa
22440 23251 n
23251 24062 m
24062 26680 ae
26680 27195 gcl
27195 27697 n
27697 28680 ix
28680 30360 f
30360 33080 ay
33080 34480 dcl
34480 35880 pau
35880 36200 b
36200 38280 ah
38280 39960 gcl
39960 40360 d
40360 45080 aw
45080 46020 tcl
