2259 4120 ch
4120 5221 ih
5221 5945 l
5945 6385 dcl
6385 7558 r
7558 8441 ih
8441 9190 n
9190 9691 kcl
9691 10840 k
10840 12945 ae
12945 13427 n
13427 14078 kcl
14078 15011 k
15011 16497 en
16497 18840 s
18840 21509 ux
21509 22976 m
22976 24280 eh
24280 24814 n
24814 26549 iy
26549 28977 f
28977 29586 r
29586 30981 ux
30981 32250 q
32250 33640 k
33640 36452 ae
36452 36804 n
36804 37125 dcl
37125 37430 d
37430 40200 iy
40200 41942 z
41942 43882 q
43882 45480 ih
45480 46536 n
46536 48579 w
48579 49800 ah
49800 51227 n
51227 53630 s
53630 55160 ih
55160 55560 dx
55560 57720 ix
57720 59293 ng
