2088 2449 ih
2449 3600 l
3600 4416 uh
4416 5013 kcl
5013 6440 s
6440 6866 l
6866 7686 ay
7686 8271 kcl
8271 9357 k
9357 9691 w
9691 10280 iy
10280 11780 dcl
11780 12120 d
12120 15160 ih
15160 16720 dcl
16720 17120 d
17120 19722 pau
19722 20146 w
20146 20762 ax
20762 21240 n
21240 22516 w
22516 23394 ix
23394 24563 m
24563 26760 ey
26760 28532 dcl
28532 29080 b
29080 29618 l
29618 31611 ae
31611 33503 s
33503 34506 tcl
34506 35007 d
35007 38590 aw
38590 39714 n
