2590 4295 k
4295 5096 l
5096 6848 ae
6848 8480 s
8480 9483 pcl
9483 10276 p
10276 11248 dh
11248 11989 ax
11989 14120 s
14120 14600 kcl
14600 15331 k
15331 16543 r
16543 17378 uw
17378 18506 ax
18506 19409 n
19409 20261 y
20261 21080 axr
21080 21960 l
21960 23352 eh
23352 24396 f
24396 25107 tcl
25107 25566 t
25566 26302 hh
26302 29645 ae
29645 30819 n
30819 31122 dcl
31122 32125 d
