2520 3000 ix
3000 3960 n
3960 5640 iy
5640 6200 dh
6200 7800 er
7800 8680 kcl
8680 9640 k
9640 13320 ey
13320 15999 s
15999 18172 pau
18172 18590 dh
18590 20040 ey
20040 20480 dx
20480 21840 ux
21840 22320 nx
22320 24106 aa
24106 25000 ax
25000 26840 pcl
26840 27560 p
27560 28146 r
28146 29320 iy
29320 31240 sh
31240 33000 ey
33000 34046 tcl
34046 34604 dh
34604 35059 ax-h
35059 36680 pcl
36680 37160 p
37160 37762 r
37762 38967 ay
38967 39427 v
39427 39970 ax
39970 40596 tcl
40596 41139 d
41139 41880 ix
41880 43160 tcl
43160 44040 t
44040 45233 eh
45233 45902 kcl
45902 46194 k
46194 47113 tcl
47113 47800 t
47800 49202 ih
49202 49920 v
49920 52680 z
52680 55186 iy
55186 56440 l
