2280 3080 hh
3080 3880 ix
3880 5672 z
5672 6623 l
6623 9560 eh
9560 9996 gcl
9996 10621 g
10621 12009 z
12009 13000 pcl
13000 14440 p
14440 16430 ah
16430 17237 m
17237 17537 p
17537 17865 tcl
17865 18882 t
18882 21320 f
21320 22224 y
22224 24146 er
24146 25232 iy
25232 26200 ix
26200 28006 s
28006 29058 epi
29058 30039 l
30039 32119 iy
32119 35480 pau
35480 36360 hh
36360 37320 ix
37320 38920 z
38920 40689 l
40689 42200 ao
42200 43159 ng
43159 43480 bcl
43480 43984 b
43984 44973 l
44973 46840 ae
46840 47480 kcl
47480 47834 k
47834 49480 hh
49480 51790 eh
51790 54280 axr
54280 56175 s
56175 56421 tcl
56421 57377 t
57377 58066 r
58066 59720 iy
59720 60166 m
60166 60600 dcl
60600 61080 d
61080 63880 aw
63880 64920 tcl
64920 65360 b
65360 66405 iy
66405 67703 hv
67703 70425 ay
70425 71069 n
71069 71558 dcl
71558 71836 d
71836 73222 ix
73222 74048 m
