2120 3425 r
3425 5138 ae
5138 6040 l
6040 6624 f
6624 8015 pcl
8015 8664 p
8664 8939 r
8939 9981 iy
9981 11063 pcl
11063 12007 p
12007 14161 eh
14161 16520 axr
16520 17076 dcl
17076 18021 d
18021 18924 r
18924 20440 eh
20440 21150 dcl
21150 22790 s
22790 23178 epi
23178 23560 n
23560 26193 ae
26193 27579 pcl
27579 28143 p
28143 29618 axr
29618 31707 w
31707 32290 ix
32290 33838 th
33838 35342 f
35342 35968 r
35968 37530 eh
37530 39725 sh
39725 40898 l
40898 42000 eh
42000 42713 m
42713 43474 ix
43474 44496 n
44496 46306 s
46306 50150 ao
50150 51976 s
51976 53250 f
53250 54120 axr
54120 54840 dcl
54840 55264 d
55264 56520 ih
56520 57213 n
57213 58517 axr
