2040 2680 dh
2680 3720 ih
3720 6760 s
6760 7268 tcl
7268 7528 t
7528 11112 ae
11112 12120 f
12120 13117 dcl
13117 13800 d
13800 15000 ix
15000 16600 z
16600 21848 er
21848 22920 z
22920 24120 ah
24120 25320 l
25320 27400 aa
27400 27670 tcl
27670 28324 q
28324 29080 ah
29080 29800 v
29800 30621 kcl
30621 31874 k
31874 32466 r
32466 33480 eh
33480 34040 dx
34040 35467 ih
35467 36760 q
36760 37480 w
37480 39080 er
39080 39720 kcl
39720 40680 k
40680 41800 iy
41800 42720 ng
42720 43320 dcl
43320 43640 d
43640 47000 aw
47000 47880 n
47880 48600 hv
48600 50288 ih
50288 52461 er
52461 53129 q
53129 54120 ah
54120 54898 n
54898 55594 dcl
55594 55928 d
55928 57240 er
57240 58600 r
58600 60649 ih
60649 62236 l
62236 63322 q
63322 65160 aa
65160 65996 bcl
65996 67845 s
67845 68262 tcl
68262 68680 t
68680 69307 ix
69307 70059 kcl
70059 70853 k
70853 73108 el
73108 74760 z
