2920 4360 ey
4360 5973 s
5973 6684 kcl
6684 7080 k
7080 7755 r
7755 9107 ux
9107 9524 y
9524 10402 axr
10402 13451 ay
13451 13994 v
13994 15791 axr
15791 17127 q
17127 18200 ih
18200 19400 z
19400 20344 m
20344 23160 ey
23160 24360 dcl
24360 25720 f
25720 27112 axr
27112 28490 m
28490 28992 v
28992 31624 aa
31624 32125 dcl
32125 32375 d
32375 33400 kcl
33400 34005 k
34005 36302 ah
36302 37472 q
37472 38600 ix
38600 39160 n
39160 39949 ao
39949 41119 r
41119 42038 ix
42038 42957 n
42957 43196 dcl
43196 45800 jh
45800 48597 ux
48597 51080 s
