1848 2673 dh
2673 3718 ix
3718 4845 n
4845 8480 ux
8480 9441 z
9441 12073 ey
12073 12407 dcl
12407 12908 jh
12908 13577 ix
13577 14663 n
14663 16835 s
16835 18673 iy
18673 20344 hv
20344 23268 ay
23268 25023 er
25023 25559 dx
25559 27028 ey
27028 28114 gcl
28114 28490 g
28490 29437 r
29437 31331 ey
31331 33169 tcl
33169 33838 jh
33838 36177 er
36177 36678 nx
36678 37932 ax
37932 38684 l
38684 40814 ix
40814 43947 s
43947 45033 tcl
