2299 3960 ay
3960 4920 tcl
4920 6440 t
6440 7080 uh
7080 7640 kcl
7640 7920 k
7920 9160 hh
9160 10527 axr
10527 12073 w
12073 14120 er
14120 14520 dcl
14520 14788 d
14788 17480 f
17480 18673 ao
18673 19926 r
19926 21880 ih
21880 23439 tcl
23439 25000 pau
25000 25637 b
25637 26298 ax
26298 26883 tcl
26883 27223 t
27223 28507 ih
28507 31320 sh
31320 32200 iy
32200 33320 r
33320 34339 ih
34339 35440 l
35440 36600 iy
36600 37806 gcl
37806 38360 g
38360 39853 ow
39853 41274 ix
41274 42449 ng
42449 43655 w
43655 44743 ih
44743 47160 th
47160 47906 y
47906 49400 ux
