2193 2810 dh
2810 3780 ih
3780 6540 s
6540 9859 aa
9859 10760 f
10760 11390 tcl
11390 11613 t
11613 15840 s
15840 16000 epi
16000 17040 n
17040 21351 ow
21351 22809 w
22809 23866 ah
23866 25620 z
25620 26480 dcl
26480 27030 d
27030 27864 ix
27864 30540 s
30540 32064 iy
32064 34078 tcl
34078 35200 f
35200 36010 ah
36010 37347 l
37347 38976 q
38976 39760 ah
39760 40806 n
40806 41090 dcl
41090 41240 d
41240 42360 axr
42360 44560 f
44560 47160 uh
47160 48349 tcl
