2250 2630 dh
2630 3133 ix
3133 4740 pcl
4740 5810 p
5810 6526 r
6526 7960 iy
7960 9787 s
9787 10980 kcl
10980 11430 k
11430 13493 uw
13493 14704 l
14704 16346 er
16346 17950 kcl
17950 18980 k
18980 19801 uh
19801 20372 dcl
20372 20760 d
20760 22402 en
22402 24267 q
24267 25181 v
25181 27655 er
27655 28482 v
28482 30666 el
30666 33980 ay
33980 35187 z
35187 35647 hh
35647 36762 axr
36762 39080 f
39080 40396 iy
40396 41871 l
41871 42800 ih
42800 44384 ng
44384 45388 z
45388 45926 ix
45926 47016 bcl
47016 47138 b
47138 50354 aw
50354 52170 tcl
52170 52451 dh
52451 53648 iy
53648 54399 ix
54399 56117 m
56117 58280 er
58280 58620 dcl
58620 59170 jh
59170 59840 ix
59840 61200 n
61200 63110 s
63110 64680 iy
64680 65590 kcl
65590 66210 k
66210 66535 ix
66535 68119 n
68119 68390 dcl
68390 68587 d
68587 69960 ih
69960 71840 sh
71840 72680 ix
72680 75030 n
75030 77210 z
