4040 4488 q
4488 6433 ay
6433 7260 ix
7260 9830 s
9830 11783 uw
11783 13660 m
13660 16208 oy
16208 17002 s
17002 17378 tcl
17378 18610 ch
18610 19662 axr
19662 21263 w
21263 21880 el
21880 23220 dcl
23220 23430 d
23430 26067 ae
26067 26986 m
26986 28568 ih
28568 31289 zh
31289 32482 pau
32482 32940 dh
32940 33963 ih
33963 36750 sh
36750 38057 ih
38057 39230 pcl
39230 39561 p
39561 40640 s
40640 41760 hh
41760 43665 ah
43665 45240 l
