2192 3885 r
3885 6198 oy
6198 6700 q
6700 7812 ih
7812 8680 gcl
8680 9733 n
9733 11488 ao
11488 12365 r
12365 13252 dcl
13252 13610 dh
13610 13953 ax-h
13953 15608 s
15608 16250 pcl
16250 16720 p
16720 18130 er
18130 19467 iy
19467 20200 ih
20200 21440 s
21440 22610 dcl
22610 22840 d
22840 24920 ae
24920 25400 dx
25400 26276 ax
26276 27500 pcl
27500 28590 p
28590 31106 oy
31106 31709 n
31709 32000 tcl
32000 33690 s
33690 34428 q
34428 35000 ih
35000 36237 n
36237 36750 dcl
36750 37200 d
37200 38224 r
38224 39352 ah
39352 40320 ix
40320 41485 ng
41485 41903 dh
41903 42440 iy
42440 43430 gcl
43430 43770 g
43770 44863 r
44863 47384 ae
47384 49160 f
