2228 2646 dh
2646 3240 ax
3240 5250 th
5250 6403 ih
6403 6953 ng
6953 7330 kcl
7330 8396 k
8396 9775 er
9775 10307 q
10307 11550 ih
11550 12670 z
12670 13451 ax
13451 15412 f
15412 17253 ey
17253 18124 m
18124 19380 ax
19380 21138 s
21138 21962 kcl
21962 22410 k
22410 23394 ah
23394 24280 l
24280 24916 pcl
24916 25112 p
25112 25412 tcl
25412 26600 ch
26600 27921 axr
