2040 3030 f
3030 3898 ah
3898 5514 m
5514 6090 n
6090 8303 ih
8303 10630 s
10630 15980 pau
15980 16576 m
16576 18000 ow
18000 18526 dx
18526 19178 ax
19178 20260 pcl
20260 21030 p
21030 22066 uh
22066 22613 l
22613 23543 pcl
23543 24430 p
24430 25859 er
25859 27667 s
27667 27880 epi
27880 28789 n
28789 29911 eh
29911 31164 l
31164 32123 dcl
32123 32283 d
32283 32705 ix
32705 33796 v
33796 35049 eh
35049 36280 l
36280 37700 pcl
37700 38170 p
38170 39120 ah
39120 39840 dh
39840 40538 axr
40538 42008 m
42008 43320 iy
43320 43800 nx
43800 44563 ix
44563 45960 ng
45960 48110 f
48110 49492 el
49492 50300 ix
50300 51400 n
51400 51800 r
51800 52600 ix
52600 53506 l
53506 55320 ey
55320 55675 dx
55675 56432 ix
56432 58228 dcl
58228 58478 d
58478 60840 ey
60840 61400 dx
61400 62600 ah
