2122 2786 y
2786 3841 axr
3841 5034 v
5034 7676 oy
7676 9414 s
9414 10350 ix
10350 11758 z
11758 12530 dcl
12530 12931 d
12931 13785 ax
13785 14933 l
14933 17291 ay
17291 17650 tcl
17650 19734 f
19734 21722 el
21722 23054 hh
23054 24313 iy
24313 25131 ix
25131 26343 pcl
26343 27491 p
27491 28386 r
28386 30103 ux
30103 30796 v
30796 31533 dcl
31533 32529 d
32529 33320 w
33320 34230 ix
34230 34680 dh
34680 35793 ax
35793 37179 w
37179 38615 ao
38615 39440 r
39440 40406 m
40406 42830 s
42830 43946 m
43946 47498 ay
47498 48862 l
