3710 5271 k
5271 5890 l
5890 7425 ih
7425 8071 r
8071 8890 pcl
8890 10170 p
10170 10206 r
10206 10280 ax
10280 11199 n
11199 12480 ah
12480 13318 n
13318 14037 tcl
14037 15150 s
15150 16000 ih
16000 17890 ey
17890 20030 sh
20030 20473 ix
20473 21360 n
21360 22830 eh
22830 24240 z
24240 24607 ix
24607 25590 pcl
25590 26732 p
26732 27316 r
27316 28400 ix
28400 30695 sh
30695 31916 ix
31916 34337 ey
34337 34741 dx
34741 36344 ix
36344 37280 dcl
