16774 16915 q
16915 18360 ey
18360 19736 hh
19736 20929 y
20929 23480 ux
23480 23970 dcl
23970 25327 jh
25327 26446 pcl
26446 27703 p
27703 30704 aw
30704 32228 er
32228 34003 q
34003 36748 aw
36748 37222 dx
37222 38893 ix
38893 39460 dcl
39460 41556 jh
41556 43195 r
43195 45493 eh
45493 46412 l
46412 47483 iy
47483 48330 q
48330 49080 ix
49080 49610 kcl
49610 51155 k
51155 55950 er
55950 59221 s
