2160 2673 y
2673 3160 ux
3160 4910 th
4910 6160 ih
6160 6680 ng
6680 7107 kcl
7107 7440 k
7440 9010 s
9010 10234 ah
10234 11511 m
11511 11806 bcl
11806 11940 b
11940 14004 aa
14004 14440 dx
14440 15958 iy
15958 16835 ix
16835 18021 z
18021 18550 gcl
18550 19230 g
19230 21120 oy
21120 22070 ng
22070 22249 dcl
22249 22420 d
22420 23080 ix
23080 25320 s
25320 25730 tcl
25730 26110 t
26110 28880 ae
28880 29849 n
29849 30042 dcl
30042 30189 d
30189 31953 ah
31953 33410 pcl
33410 33670 p
33670 34297 ix
34297 35195 n
35195 36465 ah
36465 37598 q
37598 39592 aa
39592 40124 dx
40124 41795 iy
41795 43040 eh
43040 43552 n
43552 43930 tcl
43930 45423 s
45423 46115 eh
46115 47821 m
47821 49395 ey
49395 50830 kcl
50830 51350 g
51350 52194 ih
52194 53093 l
53093 54050 tcl
54050 54867 t
54867 55640 ix
55640 57520 f
57520 60050 ey
60050 61927 s
61927 63974 eh
63974 66280 z
