3480 4280 n
4280 6280 ow
6280 7960 m
7960 9107 ao
9107 10120 r
10120 11800 s
11800 12365 tcl
12365 12920 t
12920 14203 aa
14203 14913 r
14913 15289 dx
15289 16208 el
16208 17000 ix
17000 17671 ng
17671 18297 kcl
18297 19400 k
19400 21180 aa
21180 21723 n
21723 22360 tcl
22360 23400 t
23400 24173 r
24173 25720 ae
25720 27279 s
27279 28449 tcl
28449 29240 t
29240 30360 uw
30360 30920 ax
30920 33080 s
33080 34120 ih
34120 35400 s
35400 35800 tcl
35800 36520 t
36520 36887 ax
36887 37472 m
37472 38725 q
38725 39436 ah
39436 40239 v
40239 42440 s
42440 43760 ah
43760 44320 l
44320 45368 ax
45368 46120 n
46120 48360 s
48360 49937 ae
49937 50605 dx
50605 51942 el
51942 54200 ay
54200 54560 tcl
54560 55800 s
55800 56360 kcl
56360 57320 k
57320 58040 ix
58040 59587 dcl
59587 59920 b
59920 61760 iy
61760 62680 ix
62680 63960 m
63960 66280 ae
66280 67400 zh
67400 68281 ix
68281 69280 n
69280 70120 dcl
70120 71080 d
