2520 3560 hh
3560 6057 aw
6057 6920 q
6920 9840 oy
9840 10640 l
10640 12156 iy
12156 13240 dcl
13240 13554 d
13554 14520 ux
14520 15160 y
15160 16360 ux
16360 17320 l
17320 19160 ay
19160 20200 kcl
20200 21000 k
21000 21453 y
21453 22360 axr
22360 24120 s
24120 25483 aa
25483 26402 l
26402 27400 ax
27400 28360 dcl
28360 29080 d
29080 29640 r
29640 30760 eh
30760 32360 s
32360 33044 iy
33044 33545 ng
