4460 5030 k
5030 5680 ix
5680 6550 n
6550 8440 s
8440 10067 iy
10067 11195 v
11195 12120 ax
12120 12770 bcl
12770 13020 b
13020 13994 l
13994 15164 iy
15164 16100 dh
16100 16810 ix
16810 18600 s
18600 19843 ah
19843 20497 bcl
20497 21113 m
21113 22015 axr
22015 23018 r
23018 24320 iy
24320 25109 n
25109 25487 dcl
25487 25622 d
25622 26040 ix
26040 27720 f
27720 29120 eh
29120 29950 n
29950 31000 s
31000 31860 pcl
31860 32700 p
32700 33653 r
33653 35560 aa
35560 36234 bcl
36234 36693 l
36693 37520 ax
37520 38773 m
38773 39520 kcl
39520 40316 k
40316 41413 eh
41413 42265 n
42265 42407 b
42407 43340 iy
43340 45110 s
45110 47186 ao
47186 48085 l
48085 48311 v
48311 48880 bcl
48880 49149 b
49149 50760 ay
50760 52073 s
52073 52618 ix
52618 54030 f
54030 54920 ih
54920 55985 sh
55985 56614 ix
56614 57880 n
57880 59690 f
59690 61293 ao
61293 62095 r
62095 63880 s
63880 65570 ix
65570 67880 z
