3480 3860 q
3860 4610 ah
4610 5720 l
5720 8146 oy
8146 8981 y
8981 9942 axr
9942 11237 w
11237 12280 ax
12280 13360 z
13360 14258 ax
14258 15270 pcl
15270 16470 p
16470 18280 oy
18280 18840 n
18840 20040 ih
20040 21210 dcl
21210 22230 t
22230 23519 uw
23519 25000 eh
25000 25478 kcl
25478 26650 s
26650 27080 ix
27080 27950 kcl
27950 29300 k
29300 29853 y
29853 31180 ux
31180 31600 tcl
31600 32470 hh
32470 34381 er
34381 35968 w
35968 37848 ih
37848 39480 l
