2210 2601 dh
2601 4221 ow
4221 5389 z
5389 5904 hh
5904 6440 ux
6440 7510 tcl
7510 8260 t
8260 9120 iy
9120 10010 tcl
10010 10945 ch
10945 12080 v
12080 13785 ae
13785 14621 y
14621 15950 ux
15950 17211 z
17211 18720 f
18720 20860 er
20860 21327 s
21327 22160 tcl
22160 22560 t
22560 23000 ax
23000 24180 bcl
24180 24460 b
24460 25817 aa
25817 26903 l
26903 27825 ix
27825 29159 sh
29159 29994 tcl
29994 30940 ch
30940 32584 iy
32584 33068 dx
33068 33628 ix
33628 34740 ng
