5258 5640 dh
5640 6280 ix
6280 7020 kcl
7020 8200 k
8200 9942 er
9942 11530 ih
11530 12449 axr
12449 13293 w
13293 14380 ax
14380 15270 z
15270 16200 ax
16200 17000 dcl
17000 17250 d
17250 18548 w
18548 20240 ao
20240 21240 r
21240 23800 f
