4580 5440 jh
5440 6642 eh
6642 7645 tcl
7645 8360 l
8360 9560 iy
9560 10810 pcl
10810 11420 p
11420 11986 l
11986 13033 ey
13033 14300 s
14300 15110 dcl
15110 15730 jh
15730 17200 ih
17200 18770 m
18770 19840 z
19840 21160 f
21160 23255 ow
23255 24408 m
24408 25683 s
25683 26170 kcl
26170 26810 k
26810 27237 ax
27237 28281 l
28281 29200 pcl
29200 30440 ch
30440 32459 axr
32459 33560 ix
33560 34622 n
34622 34860 dh
34860 35550 ax
35550 36492 bcl
36492 36742 b
36742 38260 aa
38260 40818 kcl
40818 41029 k
41029 43050 s
