2280 2460 b
2460 4762 aa
4762 6266 r
6266 7436 bcl
7436 9013 z
9013 10030 gcl
10030 10550 g
10550 12240 ow
12240 13320 l
13320 15660 dcl
15660 16550 p
16550 17343 r
17343 18930 ey
18930 21175 s
21175 21846 l
21846 22642 ih
22642 25600 q
25600 26026 w
26026 26610 ax
26610 27738 z
27738 28516 ix
28516 29420 gcl
29420 30120 g
30120 31093 r
31093 33040 ae
33040 33510 dcl
33510 34270 jh
34270 36177 uw
36177 38220 ey
38220 39555 sh
39555 39840 epi
39840 41273 en
41273 42510 pcl
42510 43641 p
43641 44526 r
44526 45655 eh
45655 46550 z
46550 47214 ix
47214 47804 n
47804 48580 tcl
