2160 2480 d
2480 4138 ux
4138 5388 q
5388 7400 ey
7400 8400 tcl
8400 9070 t
9070 9859 ih
9859 10670 pcl
10670 10960 p
10960 11488 ax
11488 12370 kcl
12370 12681 k
12681 13840 el
13840 15770 f
15770 16786 aa
16786 17400 r
17400 18200 m
18200 19584 axr
19584 20547 z
20547 21450 gcl
21450 21830 g
21830 22673 r
22673 24360 ow
24360 25906 q
25906 28280 ow
28280 29520 tcl
29520 29817 t
29817 31410 s
