2300 4040 sh
4040 5170 iy
5170 6132 n
6132 8146 ux
8146 10067 sh
10067 10778 ix
10778 11404 w
11404 12490 uh
12490 13577 z
13577 14700 f
14700 16125 ih
16125 17044 l
17044 17671 ix
17671 18381 ng
18381 19000 ax
19000 21020 f
21020 22106 r
22106 24315 ey
24315 24828 dx
24828 25399 ix
25399 26138 n
26138 27489 ih
27489 28318 n
28318 29480 w
29480 30280 axr
30280 31200 dcl
31200 31447 d
31447 31832 l
31832 32835 iy
32835 34499 l
34499 36386 ae
36386 37040 f
37040 37470 tcl
37470 38570 t
38570 39080 ix
39080 39660 q
39660 40532 axr
40532 42550 s
42550 43960 eh
43960 44920 l
44920 46365 f
