3270 4350 th
4350 5848 ih
5848 8304 kcl
8304 8770 g
8770 9612 l
9612 13217 ux
13217 14538 q
14538 16397 ux
16397 17170 z
17170 17490 dcl
17490 17970 d
17970 20105 aw
20105 20490 dx
20490 20990 ax
20990 21790 dh
21790 22346 ax
22346 23180 tcl
23180 23840 t
23840 26520 ux
26520 27500 bcl
27500 28280 b
