1814 2440 dh
2440 3133 eh
3133 3501 r
3501 4193 w
4193 4637 ix
4637 5566 z
5566 6000 epi
6000 6838 m
6838 8152 ah
8152 8576 tcl
8576 9775 ch
9775 10320 ix
10320 11424 m
11424 11604 bcl
11604 11732 b
11732 12407 r
12407 14085 ey
14085 15546 s
15546 16867 iy
16867 18054 n
18054 20189 pau
20189 21920 m
21920 23261 ah
23261 24050 tcl
24050 24910 ch
24910 25400 ix
25400 25680 kcl
25680 27277 s
27277 27912 kcl
27912 28430 k
28430 29206 l
29206 30579 ey
30579 31361 m
31361 32167 iy
32167 32554 ng
