2290 4360 s
4360 6000 ah
6000 6266 dx
6266 6976 en
6976 7937 l
7937 9700 iy
9700 11570 sh
11570 12114 ix
12114 12760 w
12760 13570 ix
13570 14640 z
14640 15920 v
15920 17838 er
17838 18640 iy
18640 19720 m
19720 20380 ix
20380 21932 s
21932 22620 tcl
22620 23190 t
23190 23937 er
23937 25441 r
25441 26527 iy
26527 27230 ix
27230 29156 s
29156 29980 ix
29980 30900 n
30900 31104 dcl
31104 31530 d
31530 32877 axr
32877 34046 m
34046 36520 ae
36520 37080 dx
37080 38099 ix
38099 39500 kcl
39500 39800 k
