2120 2630 q
2630 2988 eh
2988 3560 dcl
3560 4575 v
4575 6224 ae
6224 6630 nx
6630 7960 ix
7960 8260 dcl
8260 8850 jh
8850 9960 ih
9960 10790 z
10790 11800 ax
11800 13910 f
13910 15749 aa
15749 16800 r
16800 17847 m
17847 18590 pcl
18590 19480 p
19480 20052 r
20052 20720 ax
20720 21848 v
21848 26280 ay
26280 27151 dcl
27151 28840 z
28840 30223 pau
30223 31039 q
31039 31928 ax
31928 33080 hh
33080 34172 ow
34172 35050 l
35050 36971 s
36971 37640 ax
37640 39000 m
39000 39477 ix
39477 40021 n
40021 41691 hv
41691 42626 eh
42626 43440 l
43440 44302 th
44302 45890 f
45890 47518 el
47518 48560 ax
48560 49566 n
49566 50480 v
50480 52364 ay
52364 53520 er
53520 54859 m
54859 55720 en
55720 56920 tcl
56920 58210 f
58210 58760 axr
58760 59600 tcl
59600 60620 ch
60620 61346 ix
61346 62520 l
62520 63040 dcl
63040 63430 d
63430 64160 r
64160 65064 en
