2040 2793 q
2793 3676 ah
3676 4580 dcl
4580 4770 d
4770 6040 ih
6040 7590 sh
7590 8223 ix
8223 8966 n
8966 10000 eh
10000 10830 n
10830 12110 s
12110 12616 ax
12616 14060 bcl
14060 15580 t
15580 16306 r
16306 17760 ae
17760 18339 kcl
18339 19849 sh
19849 20406 ix
20406 20929 nx
20929 22015 aa
22015 22767 r
22767 24373 l
24373 26320 er
26320 27120 n
27120 27590 dcl
27590 28992 s
28992 29930 kcl
29930 30390 k
30390 32459 ih
32459 34820 l
34820 36570 z
