1731 2257 hh
2257 3309 er
3309 4001 kcl
4001 4822 k
4822 5331 l
5331 6349 ae
6349 7622 s
7622 8256 kcl
8256 8725 k
8725 9866 el
9866 10945 pcl
10945 11567 p
11567 11984 axr
11984 13715 f
13715 14627 ao
14627 15084 r
15084 16013 m
16013 16834 ix
16834 17200 n
17200 18155 s
18155 18953 gcl
18953 19312 g
19312 21030 ey
21030 21915 n
21915 22859 dcl
22859 23609 k
23609 23793 r
23793 24161 ix
24161 24738 dx
24738 25431 ih
25431 26226 kcl
26226 26829 k
26829 27851 el
27851 28479 ax
28479 29691 kcl
29691 30666 k
30666 31570 l
31570 33378 ey
33378 34085 m
