2040 3760 s
3760 4590 epi
4590 5366 m
5366 7853 ae
7853 9200 sh
9200 9800 epi
9800 10760 l
10760 13080 ay
13080 14966 tcl
14966 15090 b
15090 17013 ah
17013 17880 l
17880 19000 bcl
19000 19467 b
19467 20553 z
20553 21639 pau
21639 22057 q
22057 22767 en
22767 23240 dh
23240 24040 axr
24040 25080 kcl
25080 26067 k
26067 28600 ae
28600 30120 sh
30120 31039 v
31039 34005 aa
34005 35550 y
35550 36386 ux
36386 38308 w
38308 39080 el
39080 40520 dcl
40520 40920 d
40920 41315 ax
41315 42778 m
42778 44080 ih
44080 44640 n
44640 45800 ih
45800 47400 sh
47400 48000 tcl
48000 48755 t
48755 49339 ix
49339 50551 n
50551 52305 ah
52305 53517 th
53517 54937 eng
