2154 2616 dh
2616 3373 ih
3373 4405 m
4405 5104 y
5104 6465 ux
6465 7459 z
7459 9627 iy
9627 10496 ah
10496 11195 m
11195 12567 hv
12567 14273 ay
14273 15874 er
15874 16820 z
16820 17840 m
17840 18464 y
18464 19174 ux
19174 20219 z
20219 21597 ih
21597 23201 sh
23201 23680 ix
23680 24971 n
24971 25625 z
25625 27400 eh
27400 28280 v
28280 28813 r
28813 29795 iy
29795 30878 q
30878 32920 iy
32920 33969 v
33969 34920 n
34920 35769 ix
35769 37135 ng
