2244 2898 r
2898 4020 ih
4020 4850 tcl
4850 6099 ch
6099 7230 pcl
7230 8060 p
8060 9800 er
9800 10590 tcl
10590 11558 ch
11558 12623 ih
12623 13155 tcl
13155 14864 s
14864 15039 tcl
15039 16169 s
16169 17640 eh
17640 18360 v
18360 19383 r
19383 20177 ax
20177 20704 l
20704 22892 s
22892 26316 ay
26316 27086 n
27086 27624 dcl
27624 28157 d
28157 29420 l
29420 30440 ih
30440 31850 th
31850 32569 ih
32569 33420 gcl
33420 33680 g
33680 34807 r
34807 36760 ae
36760 38000 f
38000 41220 s
