2440 3640 ix
3640 4200 n
4200 6533 ae
6533 7120 dx
7120 9546 ah
9546 10360 l
10360 11800 q
11800 13201 m
13201 15958 ey
15958 16626 ax
16626 17720 l
17720 19007 bcl
19007 19155 b
19155 21320 ae
21320 22280 bcl
22280 25560 ux
25560 26360 n
26360 27738 z
27738 28490 tcl
28490 29560 t
29560 32920 iy
32920 34360 th
34360 35960 axr
35960 36760 n
36760 38920 aa
38920 39686 tcl
39686 41880 s
41880 43499 ux
43499 44000 dx
44000 44668 ax
44668 45587 bcl
45587 47160 el
47160 48830 f
48830 50266 axr
50266 51880 iy
51880 52280 dx
52280 53065 ix
53065 54200 ng
54200 56280 sh
56280 57827 eh
57827 59080 l
59080 61080 f
61080 63880 ih
63880 66920 sh
