4362 5890 aw
5890 7080 axr
7080 9020 f
9020 10694 er
10694 12130 s
12130 12721 tcl
12721 13430 en
13430 15289 s
15289 16877 eh
16877 19425 s
19425 19926 ix
19926 20653 dx
20653 23400 iy
23400 26618 pau
26618 27213 q
27213 27989 ae
27989 29320 tcl
29320 29510 dh
29510 30360 ax
30360 31289 v
31289 33671 er
33671 35634 iy
35634 38048 aw
38048 38560 tcl
38560 41315 s
41315 43240 eh
43240 43640 dx
43640 44536 ax
44536 46123 v
46123 47600 w
47600 50008 ao
50008 51262 r
51262 55920 pau
55920 57486 ih
57486 58614 z
58614 60220 pcl
60220 61430 p
61430 62998 ow
62998 64910 s
64910 65640 ix
65640 66860 tcl
66860 67590 t
67590 69682 ae
69682 70460 kcl
70460 71430 k
71430 71679 r
71679 72178 ax
72178 73110 kcl
73110 73970 k
73970 75720 aa
75720 76200 nx
76200 76979 ax
76979 78880 s
78880 79654 ax
79654 80347 n
80347 81130 tcl
81130 83990 s
