2330 2650 dh
2650 3412 ax
3412 4093 tcl
4093 5290 t
5290 5973 r
5973 7436 ay
7436 8400 ah
8400 8680 m
8680 9990 f
9990 10560 ax
10560 11362 n
11362 12073 q
12073 13953 w
13953 15540 oy
15540 16877 er
16877 17400 ix
17400 18060 gcl
18060 18345 g
18345 19903 z
19903 21082 ih
21082 21538 bcl
21538 21820 b
21820 22320 ix
22320 23270 tcl
23270 23830 t
23830 24647 ih
24647 25168 dcl
25168 26320 n
26320 29117 ay
29117 32208 iy
32208 33295 v
33295 34090 hv
34090 34841 eh
34841 36135 r
36135 38684 ow
38684 39660 ih
39660 41140 z
41140 41982 ax
41982 43459 m
