2000 2560 ax
2560 3820 kcl
3820 4910 k
4910 5826 ao
5826 6360 r
6360 6840 dx
6840 7770 ih
7770 8600 n
8600 8934 dx
8934 9441 ax
9441 10819 m
10819 13040 ay
13040 13897 en
13897 14330 tcl
14330 15180 t
15180 16041 er
16041 16962 pcl
16962 17320 p
17320 17704 axr
17704 18810 tcl
18810 19720 t
19720 21180 ey
21180 22934 sh
22934 23259 en
23259 23979 ax
23979 24903 dh
24903 25518 ax-h
25518 26350 pcl
26350 27190 p
27190 27906 r
27906 29785 aa
29785 30310 bcl
30310 30558 b
30558 32333 em
32333 35150 pau
35150 36080 t
36080 37294 ux
37294 38578 l
38578 40939 ay
40939 41870 n
41870 42680 z
42680 43389 epi
43389 44321 m
44321 45432 ah
45432 46420 s
46420 47274 bcl
47274 47750 b
47750 48840 iy
48840 49990 pcl
49990 50660 p
50660 51711 er
51711 52676 pcl
52676 53222 p
53222 53522 ix
53522 54494 n
54494 54855 dcl
54855 55119 d
55119 56446 ih
56446 57035 kcl
57035 58040 k
58040 58664 ix
58664 59723 l
59723 60920 axr
