2731 3264 dh
3264 3610 ax
3610 4982 m
4982 7464 oy
7464 9818 sh
9818 11134 er
11134 12398 q
12398 13911 ih
13911 15187 n
15187 16530 m
16530 19258 ay
19258 23979 ay
23979 25858 z
25858 26678 q
26678 27262 ix
27262 29117 z
29117 30210 f
30210 30806 r
30806 32210 ah
32210 33313 m
33313 38520 pau
38520 39587 q
39587 41543 ay
41543 42402 dcl
42402 43150 d
43150 44086 r
44086 45960 aa
45960 47620 f
47620 49600 s
49600 55563 pau
55563 55935 n
55935 57327 aa
57327 58500 tcl
58500 60399 f
60399 60733 r
60733 61120 ax
61120 62201 m
62201 62910 tcl
62910 63940 t
63940 65960 iy
65960 67437 ix
67437 69650 z
