2380 3160 p
3160 3467 r
3467 4261 ih
4261 5263 m
5263 6182 ix
6182 6475 dx
6475 7352 ix
7352 8520 v
8520 9600 tcl
9600 11260 t
11260 12746 r
12746 15905 ay
15905 16848 bcl
16848 18715 s
18715 21568 pau
21568 22610 hh
22610 24082 ae
24082 24762 v
24762 25480 ix
25480 25967 n
25967 27320 ah
27320 29720 pcl
29720 30258 b
30258 32279 iy
32279 32659 tcl
32659 34288 q
34288 35960 ae
35960 36436 dx
36436 37123 ix
37123 37940 tcl
37940 39280 t
39280 41483 ux
41483 42214 dcl
