2360 2558 b
2558 3960 ah
3960 4681 tcl
4681 6094 w
6094 8920 ay
8920 10230 pcl
10230 11060 p
11060 13785 ey
13785 15080 hv
15080 17671 er
17671 18640 bcl
18640 18780 b
18780 21884 ih
21884 23436 l
23436 26310 z
