2255 2520 b
2520 3142 ah
3142 4361 tcl
4361 5065 t
5065 6040 ih
6040 6920 dh
6920 8355 iy
8355 9535 ix
9535 10067 n
10067 12920 f
12920 13535 y
13535 14663 er
14663 16250 r
16250 17169 iy
17169 19400 ey
19400 21240 sh
21240 21720 ix
21720 22684 n
22684 23555 ah
23555 24313 v
24313 26520 s
26520 28908 ay
28908 29869 ix
29869 30545 n
30545 31183 tcl
31183 32041 t
32041 33319 ix
33319 37723 s
37723 40917 pau
40917 41735 f
41735 42760 axr
42760 44280 n
44280 47291 ow
47291 48600 n
48600 51560 ow
51560 52555 n
52555 53516 r
53516 55320 iy
55320 56760 z
56760 57480 ix
57480 57902 n
57902 61110 pau
61110 61846 n
61846 63833 aa
63833 65727 tcl
65727 66029 q
66029 67720 ao
67720 68847 l
68847 70120 ax
70120 71320 dh
71320 72444 eh
72444 73792 m
73792 74520 dcl
74520 74946 d
74946 77640 ih
77640 78920 dcl
