2280 3400 t
3400 3853 r
3853 4760 eh
4760 5848 s
5848 6224 pcl
6224 6760 p
6760 8760 ae
8760 10200 s
10200 10920 ih
10920 11400 ng
11400 12760 ix
12760 13680 z
13680 15080 f
15080 15880 axr
15880 16760 bcl
16760 17000 b
17000 18506 ih
18506 18840 dx
18840 21320 en
21320 22360 ix
22360 23640 n
23640 25240 s
25240 26200 ah
26200 27240 bcl
27240 28040 jh
28040 29160 ih
29160 30120 kcl
30120 30760 t
30760 31240 ix
31240 32083 pcl
32083 32793 p
32793 34046 eh
34046 34422 nx
34422 35720 el
35720 36360 tcl
36360 37400 t
37400 38520 iy
