2120 2506 q
2506 4762 oy
4762 6120 l
6120 8234 f
8234 9963 iy
9963 11515 l
11515 11780 dcl
11780 12115 d
12115 13702 w
13702 15080 er
15080 15960 kcl
15960 16668 k
16668 18440 axr
18440 19991 z
19991 21681 w
21681 23143 axr
23143 24146 ix
24146 25691 r
25691 27960 ah
27960 29117 f
29117 30223 tcl
30223 31052 t
31052 33080 ah
33080 35209 f
35209 36101 l
36101 39160 aa
39160 41000 tcl
