2255 2966 l
2966 5400 ey
5400 5800 dx
5800 8440 axr
8440 12156 pau
12156 13242 w
13242 14520 iy
14520 16543 sh
16543 17373 ih
17373 17880 l
17880 20120 s
20120 21514 iy
21514 22892 w
22892 24200 ah
24200 24533 tcl
24533 25617 hv
25617 27720 ae
27720 29109 pcl
29109 29480 p
29480 29800 ax
29800 31573 n
31573 32748 w
32748 33838 eh
33838 34715 n
34715 35383 ax
35383 36720 n
36720 38242 eh
38242 38836 m
38836 39833 pcl
39833 40360 p
40360 41400 axr
41400 43480 er
43480 45112 tcl
45112 46371 t
46371 47400 uh
47400 48520 kcl
48520 49164 dh
49164 50360 ih
50360 52172 s
52172 54920 ay
54920 55777 dcl
55777 56040 d
56040 57603 iy
57603 58280 ix
58280 59544 tcl
59544 60694 t
60694 61822 ux
61822 62991 l
62991 64360 ih
64360 64838 dx
64838 66376 axr
66376 67002 ix
67002 68040 l
68040 69240 iy
