3394 4283 n
4283 6440 aa
6440 7302 n
7302 7889 pcl
7889 9000 p
9000 9524 r
9524 11160 aa
11160 12440 f
12440 13033 ix
13033 13640 tcl
13640 15144 q
15144 15958 ao
15958 16520 r
16520 17044 gcl
17044 17438 ix
17438 18172 n
18172 19640 ix
19640 21138 z
21138 23480 ey
23480 25458 sh
25458 27080 en
27080 28240 z
28240 29400 hh
29400 30520 ae
30520 33080 f
33080 33838 r
33838 34840 iy
34840 35960 kcl
35960 36856 k
36856 37373 w
37373 38303 ih
38303 39228 n
39228 40187 tcl
40187 41357 f
41357 43160 ah
43160 43928 n
43928 45288 r
45288 47080 ey
47080 48520 z
48520 50120 axr
50120 52181 z
