2180 2506 b
2506 3480 ah
3480 5480 tcl
5480 5800 b
5800 6573 r
6573 8120 iy
8120 9775 f
9775 10170 epi
10170 11193 l
11193 13240 iy
13240 16780 pau
16780 16920 dh
16920 17720 ax
17720 18800 tcl
18800 19590 t
19590 21640 aa
21640 22260 pcl
22260 22780 p
22780 23813 iy
23813 24544 ng
24544 25290 kcl
25290 25840 k
25840 26480 ix
26480 27136 n
27136 29000 f
29000 30328 ih
30328 30820 gcl
30820 31238 g
31238 31791 y
31791 33253 axr
33253 35010 ey
35010 36800 sh
36800 37900 en
37900 39400 m
39400 40830 ah
40830 41980 s
41980 42970 tcl
42970 43200 b
43200 44215 iy
44215 45160 ix
45160 45550 gcl
45550 45845 g
45845 47420 z
47420 50118 ae
50118 51359 m
51359 52120 ix
52120 53400 n
53400 55590 f
55590 56456 ao
56456 57480 axr
57480 58160 tcl
58160 59210 s
59210 60520 ih
60520 61260 n
61260 63350 f
63350 64184 axr
64184 64726 ix
64726 66000 n
66000 67600 s
67600 69290 ix
69290 71950 s
