2040 2600 q
2600 4120 ey
4120 5138 kcl
5138 7227 k
7227 7784 l
7784 9775 ih
9775 10778 l
10778 12760 iy
12760 14161 r
14161 15840 eh
15840 16390 kcl
16390 17000 k
17000 18120 ax
18120 18715 gcl
18715 19007 g
19007 19800 n
19800 22870 ay
22870 24090 z
24090 24400 ix
24400 25350 kcl
25350 25608 k
25608 27830 s
27830 29201 eh
29201 30300 pcl
30300 30454 p
30454 32200 sh
32200 33462 ix
33462 34600 n
34600 35400 q
35400 36710 ix
36710 37900 z
37900 38620 ax
38620 40480 s
40480 41090 tcl
41090 41410 t
41410 43360 ae
43360 43760 tcl
43760 44820 ch
44820 45200 ax
45200 46260 tcl
46260 47450 t
47450 48460 ao
48460 49470 r
49470 50480 iy
50480 52240 m
52240 54800 er
54800 55230 dcl
55230 55930 jh
55930 57560 axr
57560 58600 q
58600 59539 ao
59539 60009 r
60009 60980 kcl
60980 61880 k
61880 62670 en
62670 64518 s
64518 65983 aa
65983 66819 l
66819 67880 ix
67880 68345 dcl
68345 68532 d
68532 70730 ey
70730 72780 sh
72780 73734 ix
73734 74945 n
