2290 4480 t
4480 5106 r
5106 6360 ih
6360 7800 m
7800 8396 ax
8396 9190 q
9190 10652 eh
10652 11530 kcl
11530 11780 k
11780 13390 s
13390 15320 eh
15320 17253 s
17253 18170 kcl
18170 20510 k
20510 22460 l
22460 26360 ey
26360 26920 q
26920 27864 ax
27864 28950 w
28950 31331 ey
31331 33190 f
33190 33754 axr
33754 34882 m
34882 35885 q
35885 38680 aw
38680 39080 dx
39080 40396 axr
40396 41566 q
41566 43028 eh
43028 44010 dcl
44010 44750 jh
44750 47280 ix
47280 50310 s
