2195 2599 q
2599 3285 gcl
3285 3504 g
3504 5876 eh
5876 7320 n
7320 9190 iy
9190 9780 z
9780 10750 bcl
10750 11200 b
11200 11960 l
11960 13480 aa
13480 13869 kcl
13869 15270 s
15270 15563 w
15563 16150 axr
16150 17850 s
17850 19300 eh
19300 19801 dx
19801 20720 ix
20720 21597 n
21597 22684 r
22684 24200 eh
24200 24940 z
24940 26352 en
26352 27974 s
27974 29880 ae
29880 30098 tcl
30098 31451 ch
31451 31861 r
31861 32560 ix
32560 32971 dx
32971 33680 ix
33680 35290 dcl
35290 35880 g
35880 36840 l
36840 38760 ae
38760 39748 s
39748 40590 kcl
40590 41576 k
41576 42573 l
42573 44440 ao
44440 45590 th
45590 46200 ix
46200 48280 n
48280 51174 ey
51174 52440 l
52440 52840 dcl
52840 53543 d
