2200 3960 t
3960 5133 r
5133 7480 ay
7480 8360 tcl
8360 9415 t
9415 10040 ux
10040 11400 r
11400 12520 iy
12520 13080 kcl
13080 14600 k
14600 16459 ao
16459 17838 l
17838 18360 dh
18360 19592 iy
19592 20520 ix
20520 21640 v
21640 23644 eh
23644 24271 n
24271 24888 tcl
24888 27822 s
27822 29359 en
29359 29880 kcl
29880 31548 k
31548 32333 r
32333 33560 aa
33560 34130 n
34130 35258 el
35258 37221 aa
37221 37680 dcl
37680 37960 jh
37960 39240 ix
39240 39640 kcl
39640 40360 k
40360 41065 el
41065 42087 q
42087 43082 ao
43082 43880 r
43880 44502 dx
44502 45960 axr
