2548 3960 ch
3960 4866 ih
4866 5320 l
5320 5800 dx
5800 6226 r
6226 7080 ih
7080 7800 n
7800 8360 kcl
8360 9240 k
9240 11800 ae
11800 13000 n
13000 20360 pau
20360 21560 k
21560 22280 en
22280 24360 s
24360 26280 uw
26280 27400 m
27400 28640 eh
28640 29120 nx
29120 30920 iy
30920 33160 f
33160 33746 r
33746 34920 ux
34920 35320 tcl
35320 35800 t
35800 36360 kcl
36360 37560 k
37560 40020 ae
40020 40680 n
40680 42600 iy
42600 43320 z
43320 43960 ix
43960 44658 n
44658 46022 w
46022 47240 ah
47240 47880 n
47880 49720 s
49720 50840 ih
50840 51320 dx
51320 52760 iy
52760 53500 n
