2346 2709 g
2709 3467 r
3467 4646 eh
4646 5101 gcl
5101 6558 er
6558 7394 iy
7394 8360 en
8360 8636 tcl
8636 9926 t
9926 11707 aa
11707 12896 m
12896 13269 tcl
13269 14698 ch
14698 16760 uh
16760 17712 z
17712 18304 tcl
18304 18961 t
18961 19843 ax
19843 20637 w
20637 22164 aa
22164 22346 tcl
22346 23419 ch
23419 24128 kcl
24128 25063 k
25063 25775 aa
25775 26280 r
26280 27210 tcl
27210 28458 t
28458 30560 ux
30560 31600 n
31600 32864 z
32864 33600 epi
33600 33963 n
33963 35383 iy
35383 36842 eh
36842 37315 f
37315 37760 tcl
37760 38803 t
38803 39185 axr
39185 39771 n
39771 42351 ux
42351 43320 n
