2280 3634 ey
3634 5848 r
5848 8563 ow
8563 10360 l
10360 12532 ow
12532 13326 epi
13326 14412 w
14412 18297 ay
18297 19640 r
19640 21880 hh
21880 22642 l
22642 24680 ey
24680 26440 n
26440 28466 ih
28466 29535 axr
29535 30966 dh
30966 31960 ax
31960 34130 w
34130 36920 ao
36920 38520 l
