2280 3480 ih
3480 4440 n
4440 5681 q
5681 8647 eh
8647 10360 v
10360 11026 r
11026 12360 iy
12360 14440 m
14440 17253 ey
17253 18000 dcl
18000 18680 jh
18680 19560 axr
19560 20840 kcl
20840 22224 k
22224 23185 l
23185 25023 ow
25023 26360 v
26360 27154 ax
27154 28920 l
28920 31720 iy
31720 34680 f
34680 35718 tcl
35718 37180 t
37180 37890 r
37890 39770 ae
39770 41160 f
41160 41733 ix
41733 42520 kcl
42520 42800 k
42800 44610 s
44610 45905 ah
45905 46650 m
46650 47720 tcl
47720 48830 t
48830 51670 ay
51670 52200 ng
52200 52840 gcl
52840 53383 g
53383 54520 eh
54520 56200 s
56200 57400 bcl
57400 57520 b
57520 59960 ae
59960 61880 kcl
61880 62365 t
62365 65707 ah
65707 66680 pcl
