2410 2712 dh
2712 3687 eh
3687 4848 kcl
4848 6360 k
6360 9720 ih
9720 10120 dcl
10120 10569 d
10569 12080 hv
12080 14730 ae
14730 16860 s
16860 17680 n
17680 20135 ow
20135 21932 m
21932 24187 ae
24187 24898 n
24898 26900 er
26900 28790 s
28790 29910 bcl
29910 30130 b
30130 34710 oy
34710 37900 s
