2116 2980 hh
2980 5675 ey
5675 7140 kcl
7140 8060 k
8060 9441 ah
9441 10760 m
10760 11160 bcl
11160 11319 b
11319 14280 ae
14280 15130 kcl
15130 15568 k
15568 16228 hh
16228 17220 ix
17220 19430 sh
19430 23160 aw
23160 23560 dx
23560 25000 ix
25000 25560 dcl
