2280 2892 q
2892 3860 eh
3860 4925 z
4925 5406 kcl
5406 7000 k
7000 8689 ow
8689 10276 w
10276 13240 ao
13240 14660 th
14660 16250 ih
16250 17540 z
17540 18123 epi
18123 18653 w
18653 19720 ix
19720 21210 pcl
21210 22190 p
22190 22642 r
22642 23360 ix
23360 24260 z
24260 26120 eh
26120 26610 nx
26610 27697 eh
27697 28240 dx
28240 29920 aa
29920 30400 r
30400 31778 n
31778 33907 ux
33907 35290 bcl
35290 35500 b
35500 38400 uh
38400 39960 kcl
39960 40160 k
40160 40930 tcl
40930 41580 t
41580 42520 ix
42520 43300 dh
43300 44214 ah
44214 45747 hh
45747 47897 ao
47897 48410 dx
48410 49880 iy
49880 52880 ao
52880 53327 dx
53327 55076 iy
55076 55733 ix
55733 56522 n
56522 56894 tcl
56894 59480 s
