2380 4630 s
4630 7561 ao
7561 8760 ah
8760 9850 z
9850 11210 bcl
11210 11430 b
11430 12193 r
12193 13720 ow
13720 14540 kcl
14540 15080 k
15080 15582 ix
15582 16501 n
16501 21730 pau
21730 22980 s
22980 24120 ix
24120 25240 tcl
25240 26040 ch
26040 28031 aa
28031 29840 pcl
29840 30130 dh
30130 30704 ax
30704 32599 w
32599 34440 uh
34440 34840 dx
34840 35509 ix
35509 37210 n
37210 38840 s
38840 39390 tcl
39390 39870 t
39870 43160 eh
43160 44520 dcl
