2417 2920 hh
2920 4247 ih
4247 5220 z
5220 6280 bcl
6280 6544 b
6544 7549 l
7549 9560 ae
9560 10550 kcl
10550 10800 k
10800 11890 hh
11890 14868 ae
14868 16748 q
16748 17581 w
17581 18492 ix
18492 19230 dh
19230 20080 ix
20080 20832 tcl
20832 21041 t
21041 21723 s
21723 22480 epi
22480 23613 w
23613 25880 ay
25880 27542 dcl
27542 27810 b
27810 28853 r
28853 30941 ih
30941 32687 m
32687 34520 pau
34520 35710 hh
35710 38440 ay
38440 39129 kcl
39129 40591 k
40591 41845 r
41845 44351 aw
44351 45857 n
45857 48960 pau
48960 50014 ax
50014 51160 n
51160 53040 f
53040 55160 er
55160 55710 tcl
55710 57350 t
57350 58099 r
58099 59599 ih
59599 61440 m
61440 62359 r
62359 64198 ow
64198 64612 dcl
64612 64821 d
64821 65406 hv
65406 68960 ay
