2150 3160 p
3160 3813 l
3813 5120 eh
5120 5490 dcl
5490 6600 jh
6600 6850 tcl
6850 7445 t
7445 7920 ax-h
7920 8580 pcl
8580 9030 p
9030 9880 axr
9880 10630 tcl
10630 11360 t
11360 12540 ih
12540 13950 s
13950 14440 ix
14440 15630 pcl
15630 16100 p
16100 17960 ey
17960 18440 dx
18440 19718 ix
19718 21237 n
21237 22040 ax
22040 23310 v
23310 25720 ae
25720 26300 dx
26300 27800 ah
27800 28974 z
28974 29640 ix
29640 30620 kcl
30620 31650 k
31650 32418 w
32418 33960 aa
33960 34360 dx
34360 35320 ix
35320 37380 kcl
37380 38120 k
38120 39280 aa
39280 39613 m
39613 40370 pcl
40370 40730 p
40730 41160 ax
41160 42160 tcl
42160 43050 t
43050 44610 ih
44610 45800 sh
45800 46600 en
