2422 3480 ey
3480 4971 l
4971 7480 ow
7480 8200 n
8200 10527 s
10527 11160 tcl
11160 11488 t
11488 14226 aa
14226 15560 r
15560 18120 sh
18120 19926 ow
19926 20595 n
20595 21096 ix
21096 22433 n
22433 22680 dh
22680 23060 eh
23060 24689 q
24689 26200 er
26200 27560 l
27560 29000 iy
29000 30040 q
30040 31080 iy
31080 31498 v
31498 32360 n
32360 33629 iy
33629 34381 n
34381 36302 s
36302 36920 kcl
36920 37400 k
37400 41566 ay
