2400 3220 dh
3220 4135 iy
4135 4931 q
4931 5932 iy
5932 7040 s
7040 7470 tcl
7470 8420 t
8420 9023 axr
9023 10090 n
10090 11100 kcl
11100 12310 k
12310 14788 ow
14788 16375 s
16375 17378 ax-h
17378 18150 z
18150 19160 ey
19160 20630 pcl
20630 21570 p
21570 22289 l
22289 23730 ey
23730 25410 s
25410 26067 epi
26067 27270 f
27270 27960 axr
27960 29660 pcl
29660 30960 p
30960 31775 y
31775 34170 er
34170 35670 pcl
35670 36800 p
36800 37649 l
37649 39227 eh
39227 40554 zh
40554 41880 axr
41880 43080 q
43080 43878 ae
43878 44289 nx
44289 45320 ix
45320 45809 kcl
45809 46200 k
46200 47955 s
47955 49960 ay
49960 51163 q
51163 51862 m
51862 53132 ix
53132 53845 tcl
