4746 5124 w
5124 5880 iy
5880 7050 pcl
7050 7754 p
7754 8636 l
8636 10400 ae
10400 11445 n
11445 11680 dcl
11680 11925 d
11925 12600 ix
12600 13640 bcl
13640 13865 b
13865 15164 ih
15164 16040 l
16040 16835 dcl
16835 17034 d
17034 17921 ah
17921 19240 n
19240 21343 ux
21343 22686 bcl
22686 22851 b
22851 24613 eh
24613 25960 v
25960 26279 r
26279 26920 ix
26920 27776 dcl
27776 28825 jh
28825 30112 pcl
30112 31082 p
31082 32208 l
32208 34172 ae
34172 34646 n
34646 36373 tcl
36373 37320 t
