2760 3080 hh
3080 4279 iy
4279 5480 eh
5480 5890 dcl
5890 6642 n
6642 8920 aa
8920 10360 tcl
10360 11160 k
11160 12360 ah
12360 12866 v
12866 13880 er
13880 14360 dx
14360 15560 ah
15560 16637 hv
16637 17640 ah
17640 18120 n
18120 18381 d
18381 19160 axr
19160 19880 dcl
19880 20553 d
20553 21389 y
21389 23839 aa
23839 25065 r
25065 25840 z
25840 27279 bcl
27279 27697 ih
27697 29493 f
29493 31289 ao
31289 31999 r
31999 32758 axr
32758 34040 gcl
34040 34360 g
34360 36360 ah
36360 37800 n
37800 38360 kcl
38360 39702 k
39702 40973 r
40973 43320 ae
43320 45240 sh
45240 46200 tcl
46200 46719 t
46719 49000 f
49000 49935 axr
49935 50760 m
50760 52120 s
52120 53160 ah
53160 53946 m
53946 54781 w
54781 55575 eh
55575 56280 r
56280 57163 bcl
57163 58200 ih
58200 59377 hv
59377 62886 ay
62886 63847 n
63847 64515 dcl
64515 65183 d
