2120 2600 dh
2600 3560 ix
3560 4200 kcl
4200 5080 k
5080 6146 aa
6146 6680 r
6680 7480 tcl
7480 8600 t
8600 10903 ux
10903 11960 n
11960 13800 f
13800 15080 iy
15080 15720 tcl
15720 16680 ch
16680 17754 axr
17754 18520 z
18520 19480 ax
19480 20840 m
20840 22520 ah
22520 23644 s
23644 24440 kcl
24440 24920 k
24920 25853 r
25853 27864 ae
27864 28449 tcl
28449 29577 q
29577 30287 ix
30287 30746 nx
30746 31800 ix
31800 32599 tcl
32599 33720 t
33720 36135 ae
36135 37932 dcl
37932 38267 p
38267 39920 ow
39920 40680 l
