2440 4040 iy
4040 5080 v
5080 5720 ix
5720 6280 n
6280 9441 ay
9441 11000 ow
11000 12120 kcl
12120 13080 k
13080 15456 ey
15456 16960 zh
16960 17712 en
17712 18840 el
18840 19759 l
19759 20887 iy
20887 21520 gcl
21520 21960 g
21960 23080 eh
23080 24360 tcl
24360 24760 dh
24760 25240 ax
25240 26920 m
26920 28120 ah
28120 28920 n
28920 29400 dcl
29400 29618 d
29618 31400 ey
31400 32439 bcl
32439 33160 b
33160 34005 l
34005 36920 uw
36920 39560 z
