2360 3320 hh
3320 4887 aw
4887 5848 w
5848 6684 uh
6684 7185 dcl
7185 8360 jh
8360 9859 uw
9859 10840 ax
10840 12182 v
12182 14997 ae
14997 16041 y
16041 17336 uw
17336 19000 ey
19000 19880 tcl
19880 20600 dh
20600 21160 ix
21160 22680 s
22680 24355 ae
24355 25357 l
25357 25691 dcl
25691 26680 jh
26680 27320 ix
27320 27960 bcl
27960 28280 b
28280 29702 r
29702 31080 ey
31080 31640 ix
31640 32279 kcl
32279 33000 k
33000 33480 ix
33480 34046 kcl
34046 34422 k
34422 35321 s
35321 36135 pcl
36135 36600 p
36600 37186 r
37186 38360 eh
38360 39880 sh
39880 42200 en
