2040 2750 hh
2750 3866 iy
3866 4690 tcl
4690 5890 t
5890 6892 r
6892 8680 ae
8680 9240 v
9240 10527 el
10527 11162 dx
11162 13320 aa
13320 14440 l
14440 15707 ow
15707 16509 v
16509 17163 ix
17163 17810 dh
17810 18631 ax
18631 20804 w
20804 22809 er
22809 24605 l
24605 24938 dcl
24938 25842 d
