2186 3280 eh
3280 4213 m
4213 4740 pcl
4740 5713 p
5713 7185 l
7185 8898 oy
8898 9888 iy
9888 11571 l
11571 14412 ey
14412 17420 ao
17420 18160 f
18160 19520 s
19520 20400 kcl
20400 21530 k
21530 23561 ow
23561 24160 ax
24160 25311 n
25311 27195 s
27195 29720 ay
29720 30200 dx
30200 31045 ix
31045 31670 dcl
31670 32154 d
32154 32893 w
32893 33480 ix
33480 34530 th
34530 35019 ix
35019 35910 kcl
35910 36628 k
36628 37760 ah
37760 38439 m
38439 39000 pcl
39000 39356 p
39356 39734 ix
39734 40356 n
40356 41662 iy
41662 43573 z
43573 44481 r
44481 45734 iy
45734 46797 ao
46797 47716 r
47716 48168 gcl
48168 48457 g
48457 48920 ix
48920 49480 n
49480 50641 ix
50641 52218 z
52218 54735 ey
54735 56736 sh
56736 57360 ix
57360 57807 n
