2040 2757 w
2757 3926 iy
3926 5639 w
5639 7133 eh
7133 8040 l
8040 9080 kcl
9080 9640 k
9640 10778 ax
10778 13320 m
13320 14920 eh
14920 15400 n
15400 17240 iy
17240 18760 n
18760 20680 ux
20680 22360 s
22360 22760 tcl
22760 23240 t
23240 24563 ux
24563 25000 dx
25000 26040 ix
26040 26569 n
26569 26945 tcl
26945 28073 s
28073 29075 q
29075 30454 iy
30454 31331 tcl
31331 33000 ch
33000 34088 y
34088 35718 iy
35718 37480 axr
