2040 2507 q
2507 3676 ow
3676 4219 n
4219 4804 l
4804 5389 iy
5389 6977 r
6977 7979 eh
7979 9023 r
9023 10235 l
10235 12282 iy
12282 13260 ix
13260 14230 z
14230 14800 ix
14800 15670 tcl
15670 16320 t
16320 17360 eh
17360 17840 n
17840 19560 sh
19560 20449 en
20449 20970 gcl
20970 21190 g
21190 22240 ih
22240 23080 v
23080 23693 ax
23693 24495 n
24495 24840 tcl
24840 25400 t
25400 26067 ax
26067 26676 q
26676 27880 ae
27880 28640 kcl
28640 29395 k
29395 29702 y
29702 30840 axr
30840 32290 pcl
32290 32750 p
32750 33420 r
33420 34760 aa
34760 35342 gcl
35342 35800 r
35800 36990 ix
36990 38280 s
38280 38960 axr
38960 40270 pcl
40270 40940 p
40940 41987 ao
41987 42600 r
42600 43670 tcl
43670 44840 s
44840 46325 ae
46325 46921 n
46921 47560 ax
47560 48520 v
48520 49947 ae
49947 50532 l
50532 51400 y
51400 52496 ux
52496 54470 ey
54470 56349 sh
56349 57330 en
