4370 4910 d
4910 5389 r
5389 6437 ah
6437 7373 gcl
7373 7680 g
7680 9023 z
9023 9580 kcl
9580 10560 k
10560 11160 ih
11160 12200 m
12200 12920 ix
12920 13700 kcl
13700 14350 k
14350 15240 el
15240 16400 n
16400 18339 ey
18339 19873 m
19873 23750 pau
23750 24730 p
24730 25140 r
25140 25960 ow
25960 26610 kcl
26610 27410 k
27410 29410 ey
29410 30480 n
30480 31350 pcl
31350 31990 p
31990 32600 eh
32600 33160 nx
33160 34460 ix
34460 36030 s
36030 37305 ih
37305 38099 l
38099 38949 ix
38949 39892 n
