2172 4040 ao
4040 5170 dh
5170 9640 ow
9640 14408 pau
14408 15571 dh
15571 17852 ey
17852 19230 dcl
19230 19917 d
19917 21723 r
21723 23603 ux
23603 25984 l
25984 29400 ay
29400 31480 tcl
31480 32280 g
32280 33420 r
33420 36240 aw
36240 36977 n
36977 37570 dcl
37570 37932 d
37932 39760 f
39760 42848 ay
42848 45406 axr
45406 46240 dh
46240 47997 ey
47997 50361 s
50361 53375 ao
53375 54714 n
54714 57135 ow
57135 59163 s
59163 62816 ay
62816 63550 n
63550 64480 z
64480 65323 ix
65323 66200 v
66200 68040 ae
68040 70180 kcl
70180 70888 t
70888 71838 ih
71838 73000 v
73000 73800 ix
73800 74541 dx
74541 75765 ix
