2040 2584 q
2584 3167 aa
3167 3634 r
3634 4386 y
4386 5320 ux
5320 6410 pcl
6410 7310 p
7310 9300 aa
9300 10430 z
10430 10720 ax
10720 11600 dx
11600 12320 ix
12320 13033 v
13033 14000 y
14000 14663 ix
14663 15320 l
15320 16560 bcl
16560 16800 b
16800 17796 iy
17796 19383 ao
19383 20040 l
20040 21221 r
21221 22840 ay
22840 24400 tcl
24400 24560 b
24560 26026 ay
26026 26861 y
26861 28090 axr
28090 29670 s
29670 31320 eh
31320 32119 l
32119 35400 f
