3276 4440 dh
4440 5973 iy
5973 7812 ey
7812 8543 ng
8543 8953 gcl
8953 9145 g
9145 9673 r
9673 10694 iy
10694 11970 bcl
11970 12114 b
12114 14496 oy
14496 15608 q
15608 17600 ae
17600 17840 n
17840 18339 tcl
18339 19320 s
19320 20880 axr
20880 22000 dcl
22000 22240 b
22240 22920 ix
22920 24080 tcl
24080 24480 d
24480 25200 ix
25200 25524 dx
25524 26360 en
26360 27400 q
27400 27933 l
27933 29000 uh
29000 30040 kcl
30040 30760 k
30760 32439 ah
32439 33379 pcl
