2142 2920 p
2920 5138 aa
5138 6391 z
6391 7394 ax-h
7394 8840 v
8840 9240 r
9240 10040 iy
10040 11320 z
11320 12073 ah
12073 13409 l
13409 14078 tcl
14078 16334 s
16334 16893 tcl
16893 17336 t
17336 19000 aa
19000 20553 r
20553 21974 tcl
21974 23268 pau
23268 23603 w
23603 24104 ax
24104 24438 nx
24438 25002 ix
25002 26448 tcl
26448 27028 g
27028 28760 ow
28760 29779 z
29779 30496 tcl
30496 31720 t
31720 32835 ao
32835 33838 axr
33838 34100 dcl
34100 35440 z
35440 36040 dh
36040 36600 ix
36600 38440 hh
38440 41608 ae
41608 42986 n
42986 43882 y
43882 44778 ix
44778 46533 y
46533 48760 ux
48760 50040 z
50040 50440 tcl
50440 51396 t
51396 51720 ix
51720 52896 m
52896 54161 ey
54161 54480 kcl
54480 56040 k
56040 56280 y
56280 56760 er
56760 58382 m
58382 61080 aa
61080 63240 kcl
63240 64198 k
