2440 2730 dh
2730 3459 ih
3459 5221 s
5221 6099 l
6099 7101 iy
7101 7638 v
7638 9274 z
9274 9649 dh
9649 10109 iy
10109 11112 q
11112 11947 ao
11947 12676 r
12676 13400 dx
13400 14454 axr
14454 15248 ix
15248 15960 ng
15960 17223 ax
17223 18254 v
18254 19091 q
19091 19865 eh
19865 20612 n
20612 21114 tcl
21114 22313 t
22313 22780 r
22780 23528 iy
23528 24933 z
24933 26035 v
26035 27571 eh
27571 28449 r
28449 29535 iy
29535 30400 ix
30400 31430 bcl
31430 31749 b
31749 33248 el
