2260 4010 sh
4010 4469 iy
4469 4804 hv
4804 5720 ih
5720 6410 dcl
6410 7260 jh
7260 8271 ah
8271 9011 m
9011 10706 pcl
10706 11186 t
11186 11697 ax
11697 12866 w
12866 14680 ey
14680 16630 f
16630 17127 r
17127 18130 em
18130 18715 hh
18715 19843 ix
19843 22180 sh
22180 24440 ay
24440 25483 tcl
25483 26790 t
26790 28200 ah
28200 29020 tcl
29020 31039 ch
31039 32640 pau
32640 33000 l
33000 33720 ay
33720 34510 kcl
34510 34910 k
34910 35480 ix
35480 36590 kcl
36590 37960 k
37960 39720 ae
39720 40320 tcl
40320 40837 t
40837 41840 kcl
41840 42466 k
42466 43560 en
43560 45390 f
45390 45853 r
45853 46560 ah
46560 47189 n
47189 47939 tcl
47939 48680 t
48680 49160 ix
49160 50513 dcl
50513 50854 b
50854 52952 ay
52952 54880 s
54880 57000 ay
57000 57554 dcl
57554 58466 w
58466 59912 ay
59912 60371 n
60371 60990 dcl
60990 61360 d
61360 62600 axr
