2123 3342 p
3342 3759 l
3759 4588 iy
4588 7099 sh
7099 8187 ao
8187 8689 r
8689 9349 q
9349 11530 en
11530 11890 dh
11890 12462 ih
12462 14743 s
14743 15390 kcl
15390 15800 k
15800 17457 er
17457 18156 tcl
18156 18464 t
18464 19970 f
19970 20776 axr
20776 21122 dcl
21122 22416 jh
22416 25095 oy
25095 27989 s
