2160 2639 w
2639 3462 en
3462 4470 pcl
4470 5000 p
5000 6475 iy
6475 7394 l
7394 8520 ih
8520 9080 ng
9080 10040 ix
10040 10520 n
10520 13535 ao
13535 14496 r
14496 15827 axr
15827 16417 n
16417 16830 dcl
16830 17360 jh
17360 18280 ix
18280 18840 dx
18840 20050 ix
20050 21360 z
21360 21810 hh
21810 23800 aa
23800 24920 r
24920 25840 dcl
25840 26240 n
26240 28240 aa
28240 29680 tcl
29680 30070 t
30070 30600 ix
30600 32106 s
32106 32880 pcl
32880 33290 p
33290 34206 r
34206 36040 ey
36040 36970 dcl
36970 37990 jh
37990 41150 ux
41150 44490 s
