3869 4130 d
4130 5749 ay
5749 7000 ae
7000 7720 n
7720 8423 m
8423 9592 ey
9592 10920 s
10920 11806 pcl
11806 12099 p
12099 13101 l
13101 15107 er
15107 15630 dcl
15630 16370 jh
16370 17280 ix
17280 18108 m
18108 18596 bcl
18596 18776 b
18776 21000 ay
21000 21800 tcl
21800 22580 t
22580 23640 er
23640 24248 kcl
24248 25049 k
25049 25384 w
25384 27040 oy
27040 27768 z
27768 28099 n
28099 29640 eh
29640 30480 kcl
30480 31148 k
31148 31538 l
31538 32318 ih
32318 34620 s
