2270 3000 p
3000 3341 r
3341 4437 aa
4437 4937 m
4937 6250 pcl
6250 6660 t
6660 7377 ix
7377 8920 dcl
8920 9205 b
9205 11237 ay
11237 12440 ix
12440 13410 gcl
13410 13750 g
13750 14788 ih
14788 15942 l
15942 16740 tcl
16740 17210 t
17210 18701 iy
18701 19868 q
19868 23480 er
23480 24520 dcl
24520 25390 jh
25390 28909 pau
28909 29961 hh
29961 31122 iy
31122 32405 hv
32405 35000 ae
35000 36430 dcl
36430 36700 d
36700 37690 ih
37690 39519 s
39519 41400 ow
41400 42854 bcl
42854 43143 b
43143 45727 ey
45727 46390 dcl
46390 46688 dh
46688 48266 iy
48266 51038 ao
51038 51679 dx
51679 53503 axr
53503 54200 ax
54200 55480 v
55480 56302 ax
56302 57867 m
57867 61694 ae
61694 62765 n
62765 63734 hh
63734 65378 iy
65378 66200 r
66200 66990 ix
66990 68265 s
68265 69638 pcl
69638 70016 p
70016 71240 eh
71240 72840 kcl
72840 73460 t
73460 73800 ix
73800 75020 dcl
