2440 3270 hh
3270 4887 aw
4887 6590 w
6590 9480 ey
9480 10600 tcl
10600 12032 ch
12032 13244 ix
13244 13968 n
13968 14710 tcl
14710 15501 t
15501 18040 ih
18040 19383 z
19383 20261 dh
20261 21979 ih
21979 24510 s
24510 26240 ah
26240 27311 bcl
27311 27478 b
27478 28546 w
28546 30965 ey
30965 32018 q
32018 33010 eh
33010 34214 s
34214 35013 kcl
35013 35487 k
35487 36077 ix
36077 37283 l
37283 38840 ey
38840 39320 dx
39320 40680 axr
