920 2200 hh
2200 3480 aw
3480 4840 pcl
4840 5880 p
5880 7720 er
7720 8680 m
8680 9274 ix
9274 10200 n
10200 10986 eh
10986 12992 q
12992 14226 aa
14226 14830 r
14830 15720 dh
15720 17127 eh
17127 18882 r
18882 20200 eh
20200 21000 kcl
21000 21973 k
21973 23320 axr
23320 24313 dcl
24313 26652 s
