2250 2680 dh
2680 3520 iy
3520 4520 q
4520 5168 ix
5168 5920 m
5920 6710 pcl
6710 7160 p
7160 8477 er
8477 9691 axr
9691 10986 hv
10986 11880 eh
11880 12360 dx
12360 13059 ix
13059 14380 m
14380 16191 iy
16191 17461 n
17461 18730 tcl
18730 19480 t
19480 20480 eh
20480 21083 m
21083 22070 pcl
22070 22680 p
22680 23960 axr
