2240 3216 w
3216 4320 ah
4320 4680 n
4680 6360 s
6360 7240 ux
7240 9040 f
9040 10040 ih
10040 10680 n
10680 11870 ih
11870 13127 sh
13127 13760 gcl
13760 14320 g
14320 14916 r
14916 16110 iy
16110 17890 s
17890 18713 iy
18713 19482 ng
19482 20261 y
20261 21723 er
21723 22750 tcl
22750 24010 ch
24010 27600 ey
27600 28600 n
28600 31310 pau
31310 31740 b
31740 32459 iy
32459 34800 sh
34800 36840 er
36840 37240 dx
37240 38015 ax
38015 39394 w
39394 41550 aa
41550 43520 sh
43520 44060 tcl
44060 44530 th
44530 46813 er
46813 48040 el
48040 50120 iy
