10120 10653 w
10653 11530 ah
11530 12365 n
12365 12840 kcl
12840 13800 k
13800 14240 ix
14240 14720 nx
14720 15791 ow
15791 16250 n
16250 16919 l
16919 18040 ix
18040 19560 s
19560 20360 pcl
20360 20760 p
20760 22520 iy
22520 23000 kcl
23000 23480 k
23480 24104 ax
24104 25148 v
25148 26093 w
26093 26840 ah
26840 27240 dx
27240 28520 ix
28520 29400 z
29400 30360 ix
30360 31320 n
31320 33160 f
33160 33586 r
33586 34440 ah
34440 34924 nx
34924 36093 ah
36093 36552 v
36552 37640 hh
37640 40187 ih
40187 41232 m
41232 42200 ax
42200 43480 n
43480 43640 dh
43640 46171 ae
46171 47507 q
47507 48343 n
48343 51234 aw
51234 52680 ix
52680 54920 s
54920 55694 ih
55694 56573 m
56573 57000 pcl
57000 57720 p
57720 58066 l
58066 58760 iy
58760 59480 dh
59480 60247 ax
60247 61640 m
61640 64920 eh
64920 67640 s
