2680 4240 ae
4240 4929 l
4929 5640 ax
5640 6280 m
6280 7853 ow
7853 8104 nx
8104 9733 ix
9733 10652 hv
10652 12936 aa
12936 14078 r
14078 15240 m
15240 16040 z
16040 16760 ax
16760 17480 dcl
17480 17800 d
17800 18255 ix
18255 19640 v
19640 21346 ao
21346 22200 r
22200 23560 s
23560 24200 epi
24200 24600 m
24600 27400 ae
27400 28440 n
28440 29556 z
29556 30370 w
30370 32493 eh
32493 33960 l
33960 35960 th
