3289 3937 v
3937 5054 ay
5054 5430 dx
5430 5765 ax
5765 6475 l
6475 7460 kcl
7460 8370 k
8370 8833 w
8833 9760 eh
9760 11270 sh
11270 11655 ix
11655 12161 n
12161 13373 z
13373 14328 w
14328 15039 uh
15039 16040 dcl
16040 16240 b
16240 17046 iy
17046 18320 kcl
18320 19230 k
19230 19500 w
19500 19965 ih
19965 20950 kcl
20950 21209 k
21209 22203 l
22203 23686 iy
23686 24487 ae
24487 24795 n
24795 25070 tcl
25070 25290 t
25290 26130 s
26130 26704 axr
26704 27102 dx
27102 27807 ix
27807 28577 kcl
28577 29526 k
29526 30287 ao
30287 30704 r
30704 30966 dx
30966 31890 ix
31890 32178 ng
32178 32529 tcl
32529 33280 t
33280 34214 ux
34214 35160 ax
35160 36240 pcl
36240 36939 p
36939 37186 r
37186 37880 ix
37880 38750 pcl
38750 39040 p
39040 39654 ix
39654 40640 pcl
40640 41110 p
41110 42146 eh
42146 42760 r
42760 43276 dx
43276 43968 ih
43968 44770 dcl
44770 45200 jh
45200 46880 eh
46880 47642 n
47642 47880 dcl
47880 48130 d
48130 49080 ah
