2270 3140 k
3140 4681 ao
4681 5930 f
5930 7310 iy
7310 7753 ix
7753 8400 z
8400 9200 gcl
9200 9630 g
9630 10193 r
10193 12450 ow
12450 12828 nx
12828 13326 ah
13326 14079 n
14079 14560 tcl
14560 16041 s
16041 16610 tcl
16610 17100 t
17100 18709 iy
18709 21140 pcl
21140 21850 jh
21850 23612 ah
23612 24382 ng
24382 24540 gcl
24540 24786 g
24786 25984 ax
25984 27160 l
27160 29240 ay
29240 29820 kcl
29820 30161 k
30161 32090 s
32090 32806 l
32806 34467 ow
34467 35670 pcl
35670 35784 p
35784 36780 s
36780 37360 ix
37360 38323 n
38323 39370 tcl
39370 39970 t
39970 40960 eh
40960 41490 m
41490 42042 pcl
42042 42360 p
42360 42709 r
42709 43240 ix
43240 44180 tcl
44180 44950 z
44950 46520 ow
46520 47920 n
47920 49120 epi
49120 51200 s
