2200 2661 q
2661 3676 ao
3676 4219 l
4219 5175 m
5175 6650 ow
6650 7853 s
7853 8315 tcl
8315 8840 t
8840 9617 q
9617 12156 ao
12156 12507 l
12507 13700 kcl
13700 14830 k
14830 16831 aa
16831 17462 l
17462 18720 ih
18720 19105 dcl
19105 20052 jh
20052 21430 ix
21430 22970 z
22970 24396 axr
24396 25524 n
25524 27980 aw
27980 29010 kcl
29010 30130 k
30130 32271 ow
32271 33560 eh
33560 34100 dcl
34100 34740 jh
34740 35280 ix
35280 36340 kcl
36340 37380 k
37380 39350 ey
39350 41144 sh
41144 42331 en
42331 44160 el
