3000 3475 q
3475 4040 ah
4040 6098 m
6098 9158 aa
9158 10861 th
10861 13550 z
13550 14968 ih
14968 15670 gcl
15670 15904 g
15904 17620 z
17620 20595 ae
20595 21630 gcl
21630 22020 d
22020 22308 ax
22308 23853 l
23853 25600 ao
25600 26910 ng
26910 27180 dh
27180 27720 ix
27720 29160 pcl
29160 30580 p
30580 33336 ae
33336 34280 th
34280 35320 epi
35320 35850 th
35850 36929 r
36929 37429 uw
37429 39347 q
39347 41240 aa
41240 41640 dx
41640 43671 ow
43671 44806 z
44806 45790 gcl
45790 46360 g
46360 48316 aa
48316 50000 r
50000 50791 dcl
50791 52849 en
