2255 2481 d
2481 5072 ow
5072 5591 n
5591 6366 tcl
6366 7610 l
7610 9471 uh
9471 11587 kcl
11587 11970 f
11970 12947 ah
12947 14230 gcl
14230 14550 g
14550 15353 r
15353 16960 ux
16960 17999 pcl
17999 19314 v
19314 22349 ae
22349 23143 l
23143 24229 y
24229 24647 ix
24647 25858 bcl
25858 26134 b
26134 28593 el
28593 30042 z
30042 31010 q
31010 32040 ih
32040 32599 nx
32599 33545 ah
33545 34680 bcl
34680 34924 b
34924 37456 ay
37456 37960 ng
37960 39299 kcl
39299 40716 v
40716 42576 ao
42576 44480 l
44480 46050 tcl
46050 48160 t
