2600 4600 s
4600 5960 ah
5960 6920 m
6920 7956 ax
7956 9274 bcl
9274 9560 b
9560 10360 z
10360 13320 er
13320 14440 v
14440 16360 axr
16360 18005 s
18005 18853 pcl
18853 18970 p
18970 20040 eh
20040 21240 kcl
21240 22022 k
22022 22241 y
22241 22680 ix
22680 23519 l
23519 25000 ey
25000 25640 dx
25640 26440 ix
26440 27400 dcl
27400 27720 dh
27720 28600 ix
28600 30370 tcl
30370 30680 dh
30680 31960 ih
31960 33169 s
33169 33865 epi
33865 34840 m
34840 37480 ay
37480 38200 tcl
38200 38642 t
38642 40187 bcl
40187 40416 b
40416 43533 iy
43533 44869 hv
44869 46123 ih
46123 47418 z
47418 48528 axr
48528 49841 v
49841 52222 ih
52222 52971 n
52971 53517 dcl
53517 54185 jh
54185 55880 aa
55880 56440 n
56440 57720 ih
57720 58739 z
58739 59511 hv
59511 60995 ow
60995 62582 m
62582 62940 tcl
62940 63794 t
63794 66885 aw
66885 68040 n
