2080 2966 r
2966 4280 iy
4280 4840 dx
4840 5932 iy
5932 6800 ng
6800 7520 ix
7520 8320 n
8320 9650 pcl
9650 10940 p
10940 12114 ao
12114 13080 r
13080 14546 l
14546 17480 ay
17480 18970 tcl
18970 19630 g
19630 21040 ih
21040 21760 v
21760 23060 zh
23060 23770 y
23770 24731 ux
24731 27761 ay
27761 29159 s
29159 29940 tcl
29940 30510 t
30510 31406 r
31406 33306 ey
33306 34428 n
