3000 4360 t
4360 5720 ux
5720 6680 kcl
6680 8040 k
8040 11112 ey
11112 14036 ow
14036 14955 hv
14955 17796 ih
17796 19467 m
19467 20177 q
20177 22280 pau
22280 24120 ih
24120 25190 n
25190 26026 m
26026 28600 ey
28600 29080 bcl
29080 30997 iy
30997 32250 ao
32250 33160 r
33160 34280 m
34280 36120 ey
36120 36585 bcl
36585 36940 b
36940 38040 iy
38040 38680 n
38680 41320 aa
41320 42760 tcl
42760 44360 k
44360 45375 ih
45375 47960 l
