26527 26986 q
26986 28407 ah
28407 30412 th
30412 32334 ih
32334 33712 kcl
33712 35300 k
35300 35815 r
35815 36845 ih
36845 37890 m
37890 39227 z
39227 39979 ax
39979 41441 m
41441 42143 kcl
42143 43146 k
43146 44650 aa
44650 45402 r
45402 46109 pcl
46109 46613 p
46613 47992 ix
47992 48660 tcl
48660 49955 m
49955 51543 ah
51543 53297 f
53297 54634 el
54634 55386 dcl
55386 55678 d
55678 57349 eh
57349 58436 v
58436 58923 r
58923 59898 ix
59898 62237 f
62237 63741 uh
63741 64911 tcl
64911 66081 f
66081 68643 ao
68643 69924 l
