2140 2600 b
2600 4762 ay
4762 5597 aa
5597 6809 l
6809 7680 ah
7680 8210 dcl
8210 9060 jh
9060 10300 ih
10300 12805 s
12805 14393 y
14393 17211 ux
17211 19060 z
19060 20560 pau
20560 21389 r
21389 22680 ey
22680 23060 dcl
23060 23260 d
23260 24838 iy
24838 26712 ow
26712 28880 ae
28880 30210 kcl
30210 30640 t
30640 31720 ih
31720 32711 v
32711 35010 ay
35010 36498 s
36498 37000 ix
37000 37970 tcl
37970 38920 t
38920 41160 ow
41160 42250 pcl
42250 42514 p
42514 43806 s
43806 45839 tcl
45839 46520 t
46520 47302 ax-h
47302 48873 s
48873 49710 tcl
49710 50120 t
50120 51240 ah
51240 51592 dcl
51592 51800 d
51800 53040 iy
53040 54320 m
54320 56160 ay
56160 56778 kcl
56778 57560 k
57560 58356 r
58356 59560 ow
59560 61375 ao
61375 62709 r
62709 63399 gcl
63399 63919 ix
63919 64799 n
64799 66357 ix
66357 67780 z
67780 68537 ax
68537 69377 m
69377 69980 epi
69980 71580 z
