3480 3760 dh
3760 5138 iy
5138 7432 ay
7432 8813 r
8813 10736 ey
10736 11480 tcl
11480 11704 t
11704 12904 q
12904 15400 ae
15400 16560 kcl
16560 17320 t
17320 18780 axr
18780 20832 s
20832 21410 tcl
21410 21880 t
21880 23760 aa
23760 24320 m
24320 25512 pcl
25512 25840 t
25840 26565 ax
26565 28226 w
28226 31164 ey
31164 32599 q
32599 33480 ix
33480 34133 dx
34133 36216 iy
36216 38516 aa
38516 38980 dx
38980 39640 ix
39640 40270 kcl
40270 41120 k
41120 41800 l
41800 43160 iy
