1968 2481 dh
2481 3007 ax
3007 4080 bcl
4080 4373 b
4373 5556 eh
5556 6767 r
6767 7400 ix
7400 8187 kcl
8187 9470 k
9470 11000 ux
11000 11520 dx
11520 13451 ah
13451 15209 r
15209 16680 iy
16680 17470 kcl
17470 18960 k
18960 22057 oy
22057 23560 l
23560 24000 dcl
24000 24271 d
24271 26450 f
26450 26793 r
26793 27480 ah
27480 29035 m
29035 29340 dh
29340 30061 ax
30061 32417 s
32417 33892 er
33892 34950 pcl
34950 35260 p
35260 35960 ax
35960 36869 n
36869 37177 tcl
37177 38184 s
38184 39340 pcl
39340 40420 p
40420 42856 oy
42856 43824 z
43824 44320 ix
44320 45120 n
45120 46300 ix
46300 47840 s
47840 49930 f
49930 53216 ae
53216 54130 ng
54130 54623 epi
54623 56150 z
