2230 3520 p
3520 4386 l
4386 6280 iy
6280 9230 s
9230 11760 ih
11760 13360 ng
13360 13720 dcl
13720 14610 jh
14610 16520 ah
16520 17840 s
17840 18763 dh
18763 19360 ix
19360 20340 kcl
20340 21960 k
21960 22706 l
22706 24101 ah
24101 25270 bcl
25270 25524 b
25524 27800 th
27800 30640 iy
30640 31772 m
