1960 2503 b
2503 3080 l
3080 4680 aa
4680 6040 kcl
6040 6680 k
6680 11560 ey
11560 12340 dcl
12340 13163 q
13163 14945 ix
14945 16208 z
16208 16742 epi
16742 17754 w
17754 19080 ah
19080 19560 nx
19560 22159 ae
22159 22763 n
22763 24123 s
24123 26200 axr
26200 27240 pau
27240 29766 ao
29766 31178 f
31178 32473 axr
32473 33640 dcl
33640 33994 b
33994 36428 ay
36428 38440 eh
38440 39370 kcl
39370 40760 s
40760 41880 pcl
41880 42351 p
42351 44657 axr
44657 46280 tcl
46280 46676 t
46676 48760 s
