2300 2560 dh
2560 3258 iy
3258 4120 ih
4120 4750 dh
4750 5765 axr
5765 6610 pcl
6610 7540 p
7540 9023 ey
9023 9420 tcl
9420 10694 t
10694 12156 er
12156 12640 n
12640 13450 z
13450 14046 w
14046 15240 er
15240 16030 tcl
16030 16990 t
16990 18880 ae
18880 19489 kcl
19489 20260 s
20260 21240 iy
21240 21880 dcl
21880 22300 d
22300 23060 r
23060 24920 ay
24920 25720 v
25720 27830 er
27830 28980 z
28980 29960 ix
29960 30440 n
30440 31666 q
31666 32550 aa
32550 33160 r
33160 33660 tcl
33660 34133 t
34133 34932 s
34932 35460 tcl
35460 35800 t
35800 37447 ux
37447 37813 dx
37813 39352 en
39352 40880 s
40880 42022 q
42022 42648 ax-h
42648 43379 n
43379 44980 s
44980 45458 epi
45458 45920 m
45920 47306 ao
47306 47908 l
47908 49645 sh
49645 51560 aa
51560 52850 pcl
52850 53676 k
53676 54708 iy
54708 55750 pcl
55750 56460 p
56460 57450 axr
57450 59700 s
