3540 4400 jh
4400 6386 ao
6386 7400 r
7400 8146 dcl
8146 10000 s
10000 11480 eh
11480 12200 l
12200 12600 dx
12600 13472 ax
13472 14955 m
14955 15760 w
15760 17520 aa
17520 18340 tcl
18340 19300 ch
19300 19885 ax-h
19885 20950 z
20950 21950 dcl
21950 22280 d
22280 24440 ey
24440 25210 tcl
25210 26190 t
26190 28532 ay
28532 30078 m
30078 31707 uw
31707 32835 v
32835 35007 iy
35007 38308 s
