2200 2893 r
2893 4280 ah
4280 5480 f
5480 6368 kcl
6368 7480 k
7480 8062 l
8062 9817 aa
9817 10778 r
10778 11960 q
11960 13213 r
13213 15720 ae
15720 17754 s
17754 18680 hh
18680 20200 ix
20200 21840 z
21840 23160 f
23160 25960 ih
25960 29560 s
