2280 3980 hh
3980 5806 aw
5806 7895 eh
7895 8760 v
8760 10200 er
10200 12930 pau
12930 13400 dh
13400 14704 ih
14704 16500 s
16500 17160 ix
17160 18360 n
18360 21400 ao
21400 21930 gcl
21930 22530 g
22530 23519 axr
23519 25160 el
25160 27610 f
27610 30200 iy
30200 32380 s
32380 33650 tcl
33650 34080 d
34080 35400 ih
35400 35823 dx
35823 37091 ih
37091 37860 tcl
37860 39185 s
39185 40437 pcl
40437 40642 p
40642 42799 aa
42799 43214 n
43214 43610 epi
43610 44710 s
44710 45807 axr
45807 47010 z
47010 47628 epi
47628 48080 n
48080 50000 ow
50000 51440 gcl
51440 51910 g
51910 54240 uh
54240 54800 dcl
54800 56194 d
56194 56979 w
56979 57960 ah
57960 58440 dx
58440 60467 eh
60467 61598 v
61598 63320 axr
