2680 3080 dh
3080 3800 ax
3800 5160 bcl
5160 5480 b
5480 8440 uw
8440 9571 s
9571 10167 tcl
10167 11169 t
11169 12198 ix
12198 13535 z
13535 14360 hh
14360 15800 eh
15800 16520 l
16520 18120 pcl
18120 18760 f
18760 20971 el
20971 25107 pau
25107 25362 b
25362 26440 ah
26440 26840 dx
26840 28440 ih
28440 29080 n
29080 31577 ae
31577 31817 dx
31817 32680 ix
32680 33773 kcl
33773 34200 k
34200 34600 w
34600 35400 ix
35400 36680 tcl
