2680 2840 dh
2840 4200 ih
4200 5160 y
5160 8600 ux
8600 9400 z
9400 9960 dcl
9960 10280 d
10280 11800 ih
11800 12440 n
12440 13660 ih
13660 14663 gcl
14663 15080 g
15080 15613 r
15613 17503 eh
17503 19320 s
19320 20762 ih
20762 21424 v
21424 22360 pcl
22360 23414 p
23414 24360 l
24360 26120 iy
26120 27446 s
27446 28120 epi
28120 28950 m
28950 30203 ix
30203 32040 n
32040 33080 tcl
33080 34040 t
34040 34920 ux
34920 36680 f
36680 37514 l
37514 40920 ae
40920 42236 gcl
42236 44120 th
44120 46710 ao
46710 47754 q
47754 48280 l
48280 49800 ix
49800 51221 s
51221 51880 epi
51880 53101 m
53101 55140 ow
55140 55368 dx
55368 57070 axr
57070 58520 ix
58520 62083 s
