2040 2600 hh
2600 3560 ih
3560 4845 z
4845 5960 f
5960 7770 eh
7770 9107 l
9107 10031 y
10031 11880 er
11880 12360 tcl
12360 13320 t
13320 13880 uw
13880 14600 q
14600 16520 ow
16520 17240 pcl
17240 17880 p
17880 18440 ax
18440 19007 n
19007 19258 dh
19258 20120 ax
20120 21890 s
21890 22360 tcl
22360 22840 t
22840 24760 ao
24760 25720 r
25720 26778 bcl
26778 27028 b
27028 29654 ay
29654 32279 ey
32279 34360 tcl
34360 35800 k
35800 38120 ao
38120 38880 s
38880 39352 tcl
39352 40104 t
40104 40625 ix
40625 41377 m
41377 42003 hv
42003 43048 ix
43048 44301 z
44301 44761 dcl
44761 45554 jh
45554 50040 aa
50040 51283 bcl
