2214 2757 g
2757 3704 w
3704 5597 eh
5597 6809 n
6809 7400 pcl
7400 8647 p
8647 9560 l
9560 11160 ae
11160 11655 nx
11655 13000 ix
13000 13785 dcl
13785 13994 d
13994 14496 gcl
14496 15164 g
15164 16041 r
16041 17796 iy
17796 18966 n
18966 19801 bcl
19801 20052 b
20052 23477 iy
23477 24731 n
24731 26527 z
26527 27488 q
27488 28323 ih
28323 28783 nx
28783 30360 er
30360 31240 v
31240 33086 eh
33086 33530 dcl
33530 34640 jh
34640 35196 tcl
35196 35489 t
35489 35864 ax-h
35864 36282 bcl
36282 36575 b
36575 37703 el
37703 38831 gcl
38831 39165 g
39165 41198 aa
41198 42214 r
42214 43133 dcl
43133 44512 en
