2248 2840 hh
2840 4200 er
4200 5160 kcl
5160 6680 k
6680 7506 l
7506 9160 ae
9160 10694 s
10694 11446 ix
11446 12073 kcl
12073 12616 k
12616 13702 el
13702 14788 pcl
14788 15415 p
15415 16280 axr
16280 18520 f
18520 19693 ao
19693 20280 r
20280 21240 m
21240 21880 ax
21880 22440 n
22440 22976 epi
22976 24229 s
24229 24680 gcl
24680 25315 g
25315 28323 ey
28323 29744 n
29744 30840 dcl
30840 32250 k
32250 32633 r
32633 33400 ih
33400 33800 dx
33800 34920 ix
34920 35550 kcl
35550 36637 k
36637 37430 ax
37430 38308 l
38308 39143 ax
39143 39853 kcl
39853 41400 k
41400 42523 l
42523 44894 ey
44894 45897 m
